| Car without Masses |                |   |   |   | Car with 1 Mass |                |   | Car with 2 Masses |                |
|               Auto |         Run #1 |   |   |   |            Auto |         Run #1 |   |              Auto |         Run #1 |
|           Time (s) | Velocity (m/s) |   |   |   |        Time (s) | Velocity (m/s) |   |          Time (s) | Velocity (m/s) |
|               0.05 |           0.06 |   |   |   |            0.05 |           -0.1 |   |              0.05 |           0.04 |
|                0.1 |          -0.02 |   |   |   |             0.1 |          -0.07 |   |               0.1 |           0.05 |
|               0.15 |          -0.02 |   |   |   |            0.15 |              0 |   |              0.15 |           0.02 |
|                0.2 |           0.01 |   |   |   |             0.2 |           0.09 |   |               0.2 |          -0.05 |
|               0.25 |           0.05 |   |   |   |            0.25 |           0.11 |   |              0.25 |          -0.04 |
|                0.3 |           0.06 |   |   |   |             0.3 |           0.09 |   |               0.3 |           0.04 |
|               0.35 |           0.08 |   |   |   |            0.35 |           0.06 |   |              0.35 |           0.11 |
|                0.4 |           0.07 |   |   |   |             0.4 |           0.08 |   |               0.4 |            0.1 |
|               0.45 |           0.06 |   |   |   |            0.45 |           0.16 |   |              0.45 |           0.05 |
|                0.5 |           0.13 |   |   |   |             0.5 |           0.29 |   |               0.5 |           0.06 |
|               0.55 |           0.24 |   |   |   |            0.55 |           0.43 |   |              0.55 |           0.15 |
|                0.6 |           0.39 |   |   |   |             0.6 |           0.54 |   |               0.6 |           0.26 |
|               0.65 |           0.49 |   |   |   |            0.65 |           0.66 |   |              0.65 |            0.4 |
|                0.7 |           0.59 |   |   |   |             0.7 |           1.18 |   |               0.7 |            0.5 |
|               0.75 |            0.7 |   |   |   |            0.75 |           1.62 |   |              0.75 |           0.63 |
|                0.8 |           0.81 |   |   |   |             0.8 |            1.1 |   |               0.8 |           1.25 |
|               0.85 |           0.79 |   |   |   |            0.85 |           0.16 |   |              0.85 |            1.3 |
|                0.9 |           0.65 |   |   |   |             0.9 |          -0.24 |   |               0.9 |           0.72 |
|               0.95 |           0.56 |   |   |   |            0.95 |           0.28 |   |              0.95 |           0.21 |
|                  1 |           0.61 |   |   |   |               1 |           0.81 |   |                 1 |            0.2 |
|               1.05 |           0.74 |   |   |   |            1.05 |           0.85 |   |              1.05 |           0.68 |
|                1.1 |           0.81 |   |   |   |             1.1 |           0.89 |   |               1.1 |           0.66 |
|               1.15 |           0.87 |   |   |   |            1.15 |           0.92 |   |              1.15 |            0.7 |
|                1.2 |           0.92 |   |   |   |             1.2 |           0.96 |   |               1.2 |           0.85 |
|               1.25 |           0.95 |   |   |   |            1.25 |              1 |   |              1.25 |           0.91 |
|                1.3 |           0.98 |   |   |   |             1.3 |           1.02 |   |               1.3 |           0.95 |
|               1.35 |           1.01 |   |   |   |            1.35 |           1.03 |   |              1.35 |           0.99 |
|                1.4 |           1.02 |   |   |   |             1.4 |           1.06 |   |               1.4 |           1.01 |
|               1.45 |           1.04 |   |   |   |            1.45 |           1.11 |   |              1.45 |           1.03 |
|                1.5 |           1.08 |   |   |   |             1.5 |           1.17 |   |               1.5 |           1.06 |
|               1.55 |           1.14 |   |   |   |            1.55 |           1.21 |   |              1.55 |            1.1 |
|                1.6 |           1.19 |   |   |   |             1.6 |           1.25 |   |               1.6 |           1.15 |
|               1.65 |           1.22 |   |   |   |            1.65 |            1.3 |   |              1.65 |           1.19 |
|                1.7 |           1.27 |   |   |   |             1.7 |           1.32 |   |               1.7 |           1.23 |
|               1.75 |           1.31 |   |   |   |            1.75 |           1.33 |   |              1.75 |           1.28 |
|                1.8 |           1.32 |   |   |   |             1.8 |           1.35 |   |               1.8 |           1.31 |
|               1.85 |           1.33 |   |   |   |            1.85 |            1.4 |   |              1.85 |           1.33 |
|                1.9 |           1.37 |   |   |   |             1.9 |           1.47 |   |               1.9 |           1.35 |
|               1.95 |           1.43 |   |   |   |            1.95 |           1.52 |   |              1.95 |           1.39 |
|                  2 |           1.49 |   |   |   |               2 |           1.55 |   |                 2 |           1.44 |
|               2.05 |           1.52 |   |   |   |            2.05 |           2.38 |   |              2.05 |           1.48 |
|                2.1 |            2.3 |   |   |   |             2.1 |          -4.26 |   |               2.1 |           1.52 |
|               2.15 |          -4.17 |   |   |   |            2.15 |         -11.97 |   |              2.15 |           1.52 |
|                2.2 |         -11.68 |   |   |   |             2.2 |          -6.54 |   |               2.2 |           2.42 |
|               2.25 |         -12.96 |   |   |   |            2.25 |           6.35 |   |              2.25 |          -4.37 |
|                2.3 |          -6.99 |   |   |   |             2.3 |          13.56 |   |               2.3 |         -12.29 |
|               2.35 |              0 |   |   |   |            2.35 |            6.8 |   |              2.35 |         -13.69 |
|                2.4 |              0 |   |   |   |             2.4 |          -0.01 |   |               2.4 |          -7.43 |
|               2.45 |              0 |   |   |   |            2.45 |          -0.06 |   |              2.45 |              0 |
|                2.5 |           6.62 |   |   |   |             2.5 |          -0.08 |   |               2.5 |              0 |
|               2.55 |          13.24 |   |   |   |            2.55 |          -0.05 |   |              2.55 |              0 |
|                2.6 |          13.27 |   |   |   |             2.6 |          -0.02 |   |               2.6 |              0 |
|               2.65 |           6.69 |   |   |   |            2.65 |           0.01 |   |              2.65 |              0 |
|                2.7 |            0.1 |   |   |   |             2.7 |           0.02 |   |               2.7 |              0 |
|               2.75 |           0.09 |   |   |   |            2.75 |           0.02 |   |              2.75 |              0 |
|                2.8 |           0.07 |   |   |   |             2.8 |           0.01 |   |               2.8 |           7.44 |
|                    |                |   |   |   |            2.85 |           0.01 |   |              2.85 |          14.88 |
|                    |                |   |   |   |             2.9 |           0.01 |   |               2.9 |          14.88 |
|                    |                |   |   |   |            2.95 |              0 |   |              2.95 |           7.44 |
|                    |                |   |   |   |               3 |              0 |   |                 3 |              0 |
|                    |                |   |   |   |            3.05 |              0 |   |              3.05 |              0 |
|                    |                |   |   |   |             3.1 |              0 |   |               3.1 |              0 |
|                    |                |   |   |   |                 |                |   |              3.15 |              0 |
|                    |                |   |   |   |                 |                |   |               3.2 |              0 |
|                    |                |   |   |   |                 |                |   |              3.25 |              0 |
|                    |                |   |   |   |                 |                |   |               3.3 |              0 |
|                    |                |   |   |   |                 |                |   |              3.35 |      -6.48E-04 |
|                    |                |   |   |   |                 |                |   |               3.4 |      -2.98E-04 |
|                    |                |   |   |   |                 |                |   |              3.45 |       6.57E-04 |
|                    |                |   |   |   |                 |                |   |               3.5 |           0.01 |
|                    |                |   |   |   |                 |                |   |              3.55 |           0.04 |
|                    |                |   |   |   |                 |                |   |               3.6 |          -0.88 |
|                    |                |   |   |   |                 |                |   |              3.65 |           7.66 |
|                    |                |   |   |   |                 |                |   |               3.7 |          17.12 |
|                    |                |   |   |   |                 |                |   |              3.75 |          18.07 |
|                    |                |   |   |   |                 |                |   |               3.8 |           9.54 |
|                    |                |   |   |   |                 |                |   |              3.85 |           0.02 |
|                    |                |   |   |   |                 |                |   |               3.9 |          -0.03 |
|                    |                |   |   |   |                 |                |   |              3.95 |          -0.04 |
|                    |                |   |   |   |                 |                |   |                 4 |              0 |
|                    |                |   |   |   |                 |                |   |              4.05 |           0.02 |
|                    |                |   |   |   |                 |                |   |               4.1 |          -0.01 |
|                    |                |   |   |   |                 |                |   |              4.15 |          -0.03 |
|                    |                |   |   |   |                 |                |   |               4.2 |          -0.03 |
|                    |                |   |   |   |                 |                |   |              4.25 |          -0.03 |
|                    |                |   |   |   |                 |                |   |               4.3 |              0 |
|                    |                |   |   |   |                 |                |   |              4.35 |            6.3 |
|                    |                |   |   |   |                 |                |   |               4.4 |          18.88 |
