<?xml version="1.0" encoding="UTF-8" standalone="no"?>
<svg
   xmlns:dc="http://purl.org/dc/elements/1.1/"
   xmlns:cc="http://creativecommons.org/ns#"
   xmlns:rdf="http://www.w3.org/1999/02/22-rdf-syntax-ns#"
   xmlns:svg="http://www.w3.org/2000/svg"
   xmlns="http://www.w3.org/2000/svg"
   xmlns:xlink="http://www.w3.org/1999/xlink"
   xmlns:sodipodi="http://sodipodi.sourceforge.net/DTD/sodipodi-0.dtd"
   xmlns:inkscape="http://www.inkscape.org/namespaces/inkscape"
   width="151.3744mm"
   height="71.870499mm"
   viewBox="0 0 151.37441 71.870499"
   version="1.1"
   id="svg8"
   sodipodi:docname="p1-4.svg"
   inkscape:export-filename="/Users/enguyen/school/src/cis-3223/homework/hw-05/p1-4.png"
   inkscape:export-xdpi="95.900002"
   inkscape:export-ydpi="95.900002"
   inkscape:version="1.0.2 (e86c8708, 2021-01-15)">
  <defs
     id="defs2" />
  <sodipodi:namedview
     id="base"
     pagecolor="#ffffff"
     bordercolor="#666666"
     borderopacity="1.0"
     inkscape:pageopacity="0.0"
     inkscape:pageshadow="2"
     inkscape:zoom="0.79251803"
     inkscape:cx="213.57253"
     inkscape:cy="220.68807"
     inkscape:document-units="mm"
     inkscape:current-layer="layer1"
     inkscape:document-rotation="0"
     showgrid="false"
     inkscape:window-width="688"
     inkscape:window-height="599"
     inkscape:window-x="332"
     inkscape:window-y="31"
     inkscape:window-maximized="0"
     fit-margin-top="0"
     fit-margin-left="0"
     fit-margin-right="0"
     fit-margin-bottom="0" />
  <metadata
     id="metadata5">
    <rdf:RDF>
      <cc:Work
         rdf:about="">
        <dc:format>image/svg+xml</dc:format>
        <dc:type
           rdf:resource="http://purl.org/dc/dcmitype/StillImage" />
        <dc:title />
      </cc:Work>
    </rdf:RDF>
  </metadata>
  <g
     inkscape:label="Layer 1"
     inkscape:groupmode="layer"
     id="layer1"
     transform="translate(-16.625068,-71.756193)">
    <image
       width="150.28334"
       height="70.908333"
       preserveAspectRatio="none"
       xlink:href="data:image/png;base64,iVBORw0KGgoAAAANSUhEUgAAA1QAAAGSCAYAAADkT4DdAAAMbWlDQ1BJQ0MgUHJvZmlsZQAASImV VwdYU8kWnluSkJDQAghICb0J0gkgJYQWQHoRRCUkgYQSY0JQsaOLCq5dRLGiqyKKbaXZsSuLYu+L BRVlXdTFhsqbkICu+8r3zvfNvX/OnPlPuTO59wCg+YErkeSjWgAUiAulCeHBjDFp6QxSJ8AAAvQA EfhyeTIJKy4uGkAZvP9d3t2AtlCuOim4/jn/X0WHL5DxAEAyIM7iy3gFEB8HAF/Hk0gLASAq9JaT CyUKPBtiXSkMEOKVCpyjxDsUOEuJDw/YJCWwIb4MgBqVy5XmAKBxD+oZRbwcyKPxGWIXMV8kBkBz BMQBPCGXD7Ei9hEFBRMVuBJiO2gvgRjGA5hZ33Hm/I0/a4ify80Zwsq8BkQtRCST5HOn/p+l+d9S kC8f9GEDB1UojUhQ5A9reCtvYpQCUyHuFmfFxCpqDfEHEV9ZdwBQilAekay0R415MjasH9CH2IXP DYmC2BjiMHF+TLRKn5UtCuNADHcLOkVUyEmC2ADiBQJZaKLKZpN0YoLKF1qfLWWzVPpzXOmAX4Wv B/K8ZJaK/41QwFHxYxrFwqRUiCkQWxWJUmIg1oDYWZaXGKWyGVUsZMcM2kjlCYr4rSBOEIjDg5X8 WFG2NCxBZV9WIBvMF9skFHFiVHh/oTApQlkf7BSPOxA/zAW7LBCzkgd5BLIx0YO58AUhocrcsecC cXKiiueDpDA4QbkWp0jy41T2uIUgP1yht4DYQ1aUqFqLpxTCzankx7MlhXFJyjjx4lxuZJwyHnwp iAZsEAIYQA5HFpgIcoGorbuhG/5SzoQBLpCCHCAATirN4IrUgRkxvCaCYvAHRAIgG1oXPDArAEVQ /2VIq7w6geyB2aKBFXngKcQFIArkw9/ygVXiIW8p4AnUiP7hnQsHD8abD4di/t/rB7XfNCyoiVZp 5IMeGZqDlsRQYggxghhGtMeN8ADcD4+G1yA43HAm7jOYxzd7wlNCO+ER4Tqhg3B7gqhE+kOUo0EH 5A9T1SLr+1rgNpDTEw/G/SE7ZMb1cSPghHtAPyw8EHr2hFq2Km5FVRg/cP8tg++ehsqO7EJGycPI QWS7H1dqOGh4DrEoav19fZSxZg3Vmz0086N/9nfV58N71I+W2ALsAHYWO4Gdxw5jDYCBHcMasVbs iAIP7a4nA7tr0FvCQDx5kEf0D39clU9FJWUutS5dLp+Vc4WCKYWKg8eeKJkqFeUICxks+HYQMDhi nvMIhpuLmysAineN8u/rbfzAOwTRb/2mm/s7AP7H+vv7D33TRR4DYJ83PP5N33R2TAC01QE418ST S4uUOlxxIcB/CU140gyBKbAEdjAfN+AF/EAQCAWRIBYkgTQwHlZZCPe5FEwG08EcUArKwVKwCqwF G8EWsAPsBvtBAzgMToAz4CK4DK6Du3D3dIKXoAe8A30IgpAQGkJHDBEzxBpxRNwQJhKAhCLRSAKS hmQiOYgYkSPTkblIObIcWYtsRmqQfUgTcgI5j7Qjt5GHSBfyBvmEYigV1UVNUBt0JMpEWWgUmoSO Q3PQSWgxOg9djFai1egutB49gV5Er6Md6Eu0FwOYOqaPmWNOGBNjY7FYOpaNSbGZWBlWgVVjdVgz fM5XsQ6sG/uIE3E6zsCd4A6OwJNxHj4Jn4kvwtfiO/B6/BR+FX+I9+BfCTSCMcGR4EvgEMYQcgiT CaWECsI2wkHCaXiWOgnviESiPtGW6A3PYhoxlziNuIi4nriHeJzYTnxM7CWRSIYkR5I/KZbEJRWS SklrSLtIx0hXSJ2kD2rqamZqbmphaulqYrUStQq1nWpH1a6oPVPrI2uRrcm+5FgynzyVvIS8ldxM vkTuJPdRtCm2FH9KEiWXModSSamjnKbco7xVV1e3UPdRj1cXqc9Wr1Tfq35O/aH6R6oO1YHKpmZQ 5dTF1O3U49Tb1Lc0Gs2GFkRLpxXSFtNqaCdpD2gfNOgazhocDb7GLI0qjXqNKxqvNMma1poszfGa xZoVmgc0L2l2a5G1bLTYWlytmVpVWk1aN7V6tenartqx2gXai7R3ap/Xfq5D0rHRCdXh68zT2aJz UucxHaNb0tl0Hn0ufSv9NL1Tl6hrq8vRzdUt192t26bbo6ej56GXojdFr0rviF6HPqZvo8/Rz9df or9f/4b+p2Emw1jDBMMWDqsbdmXYe4PhBkEGAoMygz0G1w0+GTIMQw3zDJcZNhjeN8KNHIzijSYb bTA6bdQ9XHe433De8LLh+4ffMUaNHYwTjKcZbzFuNe41MTUJN5GYrDE5adJtqm8aZJprutL0qGmX Gd0swExkttLsmNkLhh6DxchnVDJOMXrMjc0jzOXmm83bzPssbC2SLUos9ljct6RYMi2zLVdatlj2 WJlZjbaablVrdceabM20Flqvtj5r/d7G1ibVZr5Ng81zWwNbjm2xba3tPTuaXaDdJLtqu2v2RHum fZ79evvLDqiDp4PQocrhkiPq6OUoclzv2D6CMMJnhHhE9YibTlQnllORU63TQ2d952jnEucG51cj rUamj1w28uzIry6eLvkuW13uuuq4RrqWuDa7vnFzcOO5Vbldc6e5h7nPcm90f+3h6CHw2OBxy5Pu OdpzvmeL5xcvby+pV51Xl7eVd6b3Ou+bTF1mHHMR85wPwSfYZ5bPYZ+Pvl6+hb77ff/0c/LL89vp 93yU7SjBqK2jHvtb+HP9N/t3BDACMgM2BXQEmgdyA6sDHwVZBvGDtgU9Y9mzclm7WK+CXYKlwQeD 37N92TPYx0OwkPCQspC2UJ3Q5NC1oQ/CLMJywmrDesI9w6eFH48gRERFLIu4yTHh8Dg1nJ5I78gZ kaeiqFGJUWujHkU7REujm0ejoyNHrxh9L8Y6RhzTEAtiObErYu/H2cZNijsUT4yPi6+Kf5rgmjA9 4WwiPXFC4s7Ed0nBSUuS7ibbJcuTW1I0UzJSalLep4akLk/tGDNyzIwxF9OM0kRpjemk9JT0bem9 Y0PHrhrbmeGZUZpxY5ztuCnjzo83Gp8//sgEzQncCQcyCZmpmTszP3NjudXc3ixO1rqsHh6bt5r3 kh/EX8nvEvgLlgueZftnL89+nuOfsyKnSxgorBB2i9iitaLXuRG5G3Pf58Xmbc/rz0/N31OgVpBZ 0CTWEeeJT000nThlYrvEUVIq6ZjkO2nVpB5plHSbDJGNkzUW6sKP+la5nfwn+cOigKKqog+TUyYf mKI9RTyldarD1IVTnxWHFf8yDZ/Gm9Yy3Xz6nOkPZ7BmbJ6JzMya2TLLcta8WZ2zw2fvmEOZkzfn txKXkuUlf81Nnds8z2Te7HmPfwr/qbZUo1RaenO+3/yNC/AFogVtC90Xrln4tYxfdqHcpbyi/PMi 3qILP7v+XPlz/+LsxW1LvJZsWEpcKl56Y1ngsh3LtZcXL3+8YvSK+pWMlWUr/1o1YdX5Co+Kjasp q+WrOyqjKxvXWK1ZuubzWuHa61XBVXvWGa9buO79ev76KxuCNtRtNNlYvvHTJtGmW5vDN9dX21RX bCFuKdrydGvK1rO/MH+p2Wa0rXzbl+3i7R07EnacqvGuqdlpvHNJLVorr+3albHr8u6Q3Y11TnWb 9+jvKd8L9sr3vtiXue/G/qj9LQeYB+p+tf513UH6wbJ6pH5qfU+DsKGjMa2xvSmyqaXZr/ngIedD 2w+bH646ondkyVHK0XlH+48VH+s9LjnefSLnxOOWCS13T445ee1U/Km201Gnz50JO3PyLOvssXP+ 5w6f9z3fdIF5oeGi18X6Vs/Wg795/nawzaut/pL3pcbLPpeb20e1H70SeOXE1ZCrZ65xrl28HnO9 /UbyjVs3M2523OLfen47//brO0V3+u7Ovke4V3Zf637FA+MH1b/b/76nw6vjyMOQh62PEh/dfcx7 /PKJ7MnnznlPaU8rnpk9q3nu9vxwV1jX5RdjX3S+lLzs6y79Q/uPda/sXv36Z9CfrT1jejpfS1/3 v1n01vDt9r88/mrpjet98K7gXd/7sg+GH3Z8ZH48+yn107O+yZ9Jnyu/2H9p/hr19V5/QX+/hCvl DnwKYHCg2dkAvNkOAC0NADrs2yhjlb3ggCDK/nUAgf+Elf3igHgBUAe/3+O74dfNTQD2boXtF+TX hL1qHA2AJB+AursPDZXIst3dlFxU2KcQHvT3v4U9G2kFAF+W9vf3Vff3f9kCg4W943GxsgdVCBH2 DJtGfckqyAL/RpT96Xc5/ngHigg8wI/3fwE6TZCz6wwr9gAAAIplWElmTU0AKgAAAAgABAEaAAUA AAABAAAAPgEbAAUAAAABAAAARgEoAAMAAAABAAIAAIdpAAQAAAABAAAATgAAAAAAAACQAAAAAQAA AJAAAAABAAOShgAHAAAAEgAAAHigAgAEAAAAAQAAA1SgAwAEAAAAAQAAAZIAAAAAQVNDSUkAAABT Y3JlZW5zaG90/COhKgAAAAlwSFlzAAAWJQAAFiUBSVIk8AAAAdZpVFh0WE1MOmNvbS5hZG9iZS54 bXAAAAAAADx4OnhtcG1ldGEgeG1sbnM6eD0iYWRvYmU6bnM6bWV0YS8iIHg6eG1wdGs9IlhNUCBD b3JlIDYuMC4wIj4KICAgPHJkZjpSREYgeG1sbnM6cmRmPSJodHRwOi8vd3d3LnczLm9yZy8xOTk5 LzAyLzIyLXJkZi1zeW50YXgtbnMjIj4KICAgICAgPHJkZjpEZXNjcmlwdGlvbiByZGY6YWJvdXQ9 IiIKICAgICAgICAgICAgeG1sbnM6ZXhpZj0iaHR0cDovL25zLmFkb2JlLmNvbS9leGlmLzEuMC8i PgogICAgICAgICA8ZXhpZjpQaXhlbFlEaW1lbnNpb24+NDAyPC9leGlmOlBpeGVsWURpbWVuc2lv bj4KICAgICAgICAgPGV4aWY6UGl4ZWxYRGltZW5zaW9uPjg1MjwvZXhpZjpQaXhlbFhEaW1lbnNp b24+CiAgICAgICAgIDxleGlmOlVzZXJDb21tZW50PlNjcmVlbnNob3Q8L2V4aWY6VXNlckNvbW1l bnQ+CiAgICAgIDwvcmRmOkRlc2NyaXB0aW9uPgogICA8L3JkZjpSREY+CjwveDp4bXBtZXRhPgo7 4yXZAAAAHGlET1QAAAACAAAAAAAAAMkAAAAoAAAAyQAAAMkAAIFgIjpqPwAAQABJREFUeAHsnQW8 lFX+/4+F6y52JygGdqHYiq2LohgomAgGdqBiYqxYiKiwuiYY2J0YoNjdKAZ2d+t/1/P/vr/7O7Nz 587cO/HUzHzP63W5l5nnOc95Pic/35zGS3FWDAFDwBAwBAwBQ8AQMAQMAUPAEDAEKkZgGiNUFWNm NxgChoAhYAgYAoaAIWAIGAKGgCGgCBihsoFgCBgChoAhYAgYAoaAIWAIGAKGQJUIGKGqEji7zRAw BAwBQ8AQMAQMAUPAEDAEDAEjVDYGDAFDwBAwBAwBQ8AQMAQMAUPAEKgSASNUVQJntxkChoAhYAgY AoaAIWAIGAKGgCFghMrGgCFgCBgChoAhYAgYAoaAIWAIGAJVImCEqkrg7DZDwBAwBAwBQ8AQMAQM AUPAEDAEjFDZGDAEDAFDwBAwBAwBQ8AQMAQMAUOgSgSMUFUJnN1mCBgChoAhYAgYAoaAIWAIGAKG gBEqGwOGgCFgCBgChoAhYAgYAoaAIWAIVImAEaoqgbPbDAFDwBAwBAwBQ8AQMAQMAUPAEDBCZWPA EDAEDAFDwBAwBAwBQ8AQMAQMgSoRMEJVJXB2myFgCBgChoAhYAgYAoaAIWAIGAJGqGwMGAKGgCFg CBgChoAhYAgYAoaAIVAlAkaoqgTObjMEDAFDwBAwBAwBQ8AQMAQMAUPACJWNAUPAEDAEDAFDwBAw BAwBQ8AQMASqRMAIVZXA2W2GgCFgCBgChoAhYAgYAoaAIWAIGKGyMWAIGAKGgCFgCBgChoAhYAgY AoZAlQgYoaoSOLvNEDAEDAFDwBAwBAwBQ8AQMAQMASNUNgYMAUPAEDAEDAFDwBAwBAwBQ8AQqBIB I1RVAme3pY/ACy+84GaffXbXuXPn9BtjLTAEDIGyEfj+++/d1KlT3eTJk90nn3zipp9+erfAAgu4 pZZayi266KJu5plnLrsuu9AQMAQMAUPAEEgbASNUafeAPb9iBDiE3XLLLe68885zRx11lDv00EMr rsNuMAQMgeQR+M9//uMeeOABN3bsWHf77be7n376qUUjZpttNterVy83YMAAt84667T4zv5jCBgC hoAhYAhkFYGmJVTfffed++abb9yvv/7q/vjjD/f//t//czPOOKObYYYZ3N/+9jc355xzuo4dO2a1 35qyXW+//bY744wz3P333+/ef/99xWDUqFFu0KBBTYmHvbRzv/32m/v2228dGo9///vfOp+nmWYa N9NMM6nWY4455nD8TDfddAZXygj88MMP7vDDD3dXXnml+/3339tszayzzuqOPfZYN3jw4Davsy/r EwH2XuYt4+CXX35xf/75p/vLX/6i+y/aSebsX//61/p8uSZvNWsyfWmlsRDw3ruvvvrKcXbmzEw/ IyBjnrK/Mm/nmmuupu77hiVUdDQdjjnJa6+95l555RXHgZyfzz//XAcEg4LrGCgs6NNOO63+MDg6 dOigA2ORRRZRkzJMUZZddlm3wgorODZ7FgzMVKzEiwAbLn146aWXuuuvv9699dZbLR5ohKoFHA35 H8bAzz//rH2Pmecbb7yh5mKQahZ3hCH8hHkMCGEuIyDhJ5iGMo+XXnppt/zyy7vFFltMiRdz3Uq8 CLAWQ5DOOecc3XwXWmght+KKKzo0UqzHzz33nPv666+1D0NLEHDdeOONrmfPnuEj+10nCCDcoM8/ +OAD9+qrr+rPO++8o/svh7IgxGTfDXtwmLPsq8xZDmqYf3YWk27m7XLLLafzFkEn+y/XW8kOAj/+ +KO76qqr3BVXXKHa53nnnTc7jbOWlIUA85L9lr2VefvSSy855u17772nZCp/3jJ32XM5LyPEZN6y lzI/O3XqpPOWfZZ5u+SSS+rnCDq5tlFLQxEqJF4fffSRdv6kSZPcQw895J5//vkWmzQdScezIAeN VP7CzOLO4YxBFRh4fuez0EOsevTo4dZbbz23zDLLqO2/abPyUYrub8yCMO9bffXVdZIOHz7cTZgw IdenRqiiwzorNTEHP/zwQz1oQ6AefvhhnctffPFFqyYyj/lhIc8XcLDQc6hjHoefwpvnmWcet8km m7i11lrLdevWTecxB30r0SOAMKRPnz66sQ4ZMsTtuOOO2m9srvQVpGrEiBHuggsuUC1jaMFqq62m 83/BBRcMH9nvjCLw5Zdf5gSYTz31lHvkkUfciy++2Kq1zFX2Xn7zk3/AYu6HQx37L4e2/IL1CHN1 ww03dGuuuaYKRZiz1GclHQRYlx988EF37rnnumeeeUb7gkM4PpFWso/AZ5995vhBUDl+/Hg3ceJE FVgWtpy5GvZazsFh3rJ+h3Mzcxarr8ICkVp11VXd5ptvrqbcCy+8sGPeUmcjlbonVHQm2qenn37a 3XfffTogMC0JZe6559aOm2+++RwHKDqSv1FNzjLLLKqmzDcHYjHHrh9yhsQUgvbpp586Fg0G3bvv vqvS8lB/Z5GesbhzMGPALLHEEuEr+x0BAhysWZhDH11++eXuwAMPzPWBEaoIQM5IFcw5DmIs6Mzl /MMYizfSahZh5jFzmHHBb7RPzGUW7VBYF1jY0WBRL3OXeYy2k7/5jfQ8FOpfY4011H+Hg9oqq6xi Jr8BnBp/Y9LVvXt3hwT7jjvuUC1DqSpPPvlkd9pppykJDtdce+21SsbC/+13dhBgv0SK/eSTT+qc 5WDNoSqU+eef30GGC/dfTOqZswgi8wWaCD8YJ8xZNFlBsMKc5YeDOs8MBc0Ve+9GG22kcxaLEivJ IMA56+abb1Z/SIScoUB6p0yZYoQqAJLB38yhIKxkr3388cdbzFv2VuYtP+y3Ya/FFBerAvo4ECpe jznPvMWUF8HKxx9/rEIy9ln23fdEw4WiIhSUEsxZCNbKK6+s60P4rp5/1y2hYsG9+uqrVbWMapJO o8B4kWDh0Ix0E4KD6hliFQ7l1XQYC31Y4DEbZAN59NFHdTMJ9XHgQ5Oy1VZbuR122KHh2Hd4zzR/ 33rrra5///664dIOI1Rp9kY0z2YejRs3TskUi3yQSnMIQ1gB0cF0ADLFXK41AhxrBxoRhCXPPvus e+yxx3RDYTOgcMhjwV977bXdvvvua0KSGruZvkUIwm8Ov20VJJ1osm666abcZf369VMzonwNZO5L +yMVBDgo4Qt3zz33qEk9eyOFgxbked1119WDUpcuXXL7by0NhZTzDIQgb775pnviiSd0/+XvUCBX CEO23XZb3YPzD3zhGvtdOwJo/v/1r3+pNgqzTNZSrEjCum2EqnaM46qB+cI6jOADVxj2Qgp7Hvss llcQHAQT7LUoHmopKCdQRkCw0IAhLIW8QbAonMkxweeszrq/2Wab6ed1+49IcuuqyOT1//znP70c eLxItrwA72Wj1f8PHTrUyyDxwpC9sOFY30sYuReJmRdi5Y855hgv/hheBoe2R9SiXrRV/uKLL/Yi xYm1Hc1WuSzcXjQSijN9L4Sq2SBoiPdl/ogGym+//fYt+pO+lQORF98ZL4cnL1Kv2N9XtFheFngv ZN3Lgu5lc8mNLyF1XiLO+ZdfftmLUCX2tjTiA+jPXXfd1cuBq6zXu+uuu7yYlOT6QEwyDfuykIv3 IvqPOTls2DAvwsNc/4i5nZfDmBeTLy+aCS+WHV6IcayNEZ9KL6TOi2m/P+SQQ7xYnnghUNom5u/6 66/vxczUc52VaBFgHbz33nu9aAu9EF0vgijFm/2YHyFUXg7Q0T7UaqsaASHAOm9PPPFELxqnFvNW 3Fb0PC1KAu3Hqh9S5o3s5yLI1Hl78MEHeyFtufaIxtpvscUWXswOdVyVWWWmLsN+vS4KC/no0aNb LORibudFW+FFSuY5oKVZWFjEnMX37t3bi5lDbpCItsyLJs2LdC3N5jXMs41Q1XdXMk/FJ8r37dvX izY5twGLZNmLuZcu/OUevONAgoMgh8JTTjnFi7Y5d0hDSLL77rsrCYzjuY1ap0govWgrvEgly35F 1sp8UotwKu31vezGN+iFzInTTz+9xQFo8cUX9xyK6FsObWkWhCIQKA5kYk6Y239Fw+3FD9cEmzF2 DmsmQicjVDGCXGXV4g7jxWc1NycQOkiQCJ23KAPiFny012yUEuLGoYJMMSXMjSExBfR33nln3a37 mSdUYuvpOUQjAQsTloVccg+p1Li9Dkvjew6MED1Rm+bavM022yjzTqM9jfRMI1T125vif6jzVnyd dF6gYUYjNGbMmExqIJCmnXXWWV7Mh3PESswO9TOkbFbaRwAMxUa/ogO3+L61kKQyRtgHrCSPABYW l112mReznNxeJua3/vjjj1cNRfItav+JHMTEfMiL70euzXvssYcX/8z2b7YrKkYAa6B99tknh7Vp qCqGMPIb0BqKWWaLdVRM+fyZZ57psfLKYhF/PL/11lt7NFWc9SF/Bx10kBcfzSw2t2ibMk2oYNBI nDDpA2CIlITP9qgn66FIAlqPGaLYoWr7kXLvtddeXkJ/10PzM9lGI1SZ7JY2G4XZDdJt8WfMbboc cCSfWF1IoCTHlb/77rs9QpEg1MHkGNPjtCV8bQJfp19CqDC1DFgjYU1Ta1mnMNbcbIiw+BHm+oED mQQIUZOdmitPoAIOYocddpiaoDGW0FxJXrPMHigTgCSWRxihigXWqitljopPUm7eoqVFe4s2KOsF TTeCj/33398HwasExFC3GvHFynrzfSYJFRuqRHrKERGAxU4aP4d6Kxy48L+QMME5vwBMFceOHWtS 1yo60whVFaCleItE3/Ti6JrT8GC+ddttt9WlbwPECrPjoHnGz2eXXXbxU6dOTRHhxns0PrDi7K4H AqSU2NRbSQ4BcVRXTbLkW9Q+wK8Rc9x6OJAVooRmU4LO+I033ji3BqFhw00gbTPFwrbW6/+NUGWj 5yAcu4tZelg7JRCblzQU6tOYjRaW34rgGpBPDCXybkWm4+U/LborM0eosNXGUT1IJyW0on/ggQei e+OUamLxvu6663KmE2jd9ttvv0QcAVN65Vgea4QqFlgjr5RN9oYbbsj5E2J+g/oeh/V6L/hzYuIS bL67du2qZm31/l5ZaT/awBCUAjIOwbKSDAKSt9Gz57L/YpKLVlYiYSbz8BifwgHtoosu8p06ddJ3 49CJ2SI+flZqQ8AIVW34RXE31lxh3qKAwJefuVzvBZPxs88+22Nqz5okYds1EBkxC7JYMkWoJKSi X2GFFRQ4CY3sDz/88IZb8CRspZcwwLkIhRJe3eM4aKU8BIxQlYdTmlcRVIDDCiauLIIEd8B8qNEK ZhQh2hkLvSSmrQsTxqz3wwEHHKDaBIKWXHXVVVlvbsO0jyiXYTwjADn11FNjj5abNHhozP/+97/r usTatPfee9el5UvSuLX1PCNUbaET73dEXMQHOUTvI9o0VhSNZiItaRJUy8yc5QfhbBYt1jJDqGCh IRw2UUga2cyDBYiDAqZ/DA5CvmL3aqV9BIxQtY9RmldITjiPzXZY+I444ghfD7bP1WKGRn233XbL vS8mgI38vtXiVO59+J0GLUKvXr3qNnxuue+bheswi0N4GXwWNthgAw/xaNSCVooQ7+G8gT/kQw89 1KivG/t7GaGKHeKiD0B7g09+SB+Ehor1s1ELAXIwPQ4mjZjuSt7KTL1u6oQKhn3sscfmQihzOCG/ QTMUVLKEVefwiYQbJ/dGkyxE3Y9GqKJGNLr60LTiuM54xn77wgsvzGT0vuje+L81cUA744wzcgs9 IV8tCmDlKLP24SvL+CGqnCSCrLwSu6MiBDiUDRw4MCcQIIhDPfpKVfTScjFjTZKb5gLl4BdJlDEr lSNghKpyzGq9AzPoEKoe9xEEl41gTt8eLrjOME+D0A1ze3wks1JSJVRE/0LlzgaK8zF+Cc2WiA9/ jK222koxwEQKda05y5aeHkaoSmOT5jfkoglkCrMhEj82WyEZcQj5Sl6t119/vdkgqOl9n3vuOQ11 jeaAw66VeBEg+AQm5+y/JOc9+uijm27vIbk4cxUMEGoyh61UhoARqsrwqvVqzozbbbedjln8eIcP H950gniUEQSpYN6S95Vk8FkoqREqnEQJYQogqCzJK0V0v2Ys5AUgCiBYoM4cOXJkM8JQ1jsboSoL pkQvwr6ZlAaMX8xnHn300USfn6WHEb0zJPYmouH777+fpeZlti1o+QhGxPp3ySWXZLadjdIwEuES ESzsOaQ1aNaCXzPBT8ACzbqZ31c2EoxQVYZXLVd/+OGHHgsIxirCu8slKW6zFixiQswF9lyiB6dd UiFUaGAGDRqkg4LgE4R2bPZ8LpBJTB+ZKKhwkTpYaY2AEarWmKT5CZqE4MiOpDeLjqJJ40PEJUwR mMtgYmHV2+4B1v6wH2AmaiVeBPBFCBJuDiJEn232QiLUYPrYsWNHP27cuGaHpOz3N0JVNlQ1XYgp bvBPxu/+9ttvr6m+RrgZgWUIMoO2jsB2aZbECRWT74QTTlATP8z8GjEiSbUdij/ZnnvuqQcxFnXC vFppiYARqpZ4pPk/fFwIIANxWGmllRraIbZSnNHadenSRbHBWdgCVZRG8LzzzlMfWiI3mblzaZyi +IY9JhAHglCQ2sDKfxGAaAbze5KJ3nHHHQZNGQgYoSoDpBovQaMc3GMwTc2KiVuNrxXJ7Z9++mku AiDC3TQD6iRKqHAExXkbXyHIFCZ/VloiwKK+884760FsrrnmMl+ClvB4I1QFgKT0XxaxLbfcUsfp Ekss4fFFsNISASKHheSomLOxKVppiQA+K1gpEK2KaHNW4kMAfEPQD/J8nXXWWfE9rE5rxqQqmP8R gvrll1+u0zdJrtlGqOLFmnlLsBgEl+wnpj1tjTeB7IIvJEJeou+mURIlVETjwEaZgcEGmtXkXGl0 RP4zOawG1S6Zot999938r5v6byNU6Xc/G2iQlhFtxwIIlO4TInf+7W9/89NNN506/Te7aXM+Uq+9 9pr6m2299dYeQZKVeBEgOhZjEWHmMccc03SO7OWiy7gMvhkIjTAHtFIaASNUpbGJ4hv2EM7MKCLM PaY0ogh1MYUEK8wA04h6mBihwreCuPG8bJ8+fRouYW/pbq7uG2xD1157bcVrs80284S3teJNQ5WB QfCPf/xDxyU2y3fffXcGWpTtJowaNUoPsZhYmd37f/uKfClLLrmk79u3r61tCQxfIiiG5J/knDJi 3zboRBFbaqmldJ1D+GumqKXxMkJVGptav7nzzjtzVg4HH3ywzdt2AJ0wYYJGikVotO+++yaOVyKE ioh+kCjIFL4Waanj2umLzH39yCOP5JIPEtLWNkEjVGkP0ltvvdXPOeecOpdtgS+vN/Bb2WOPPRQz SESzh1PHrIoQ+ySQLVeKyB4yadIk/9VXX5UHul2VQwANy7rrrqvjjwhhzZBnKvfyNfyBOSqmkWiX LVhKaSCNUJXGppZvCI/OeZlz8yabbGIm42WCiU8umDF3sWhKsiRCqM4880x9QSS048ePT/L96v5Z Q4cO1QUd21lzIDZCleaA5iAWTGE4mJmZVvm9wea4+uqr6zrYs2fPpsu3F5AiOAdECpNmiFW5hX0D 39Jmy1NYLj6lrkMId+CBB+q4wycXTZWV8hEgNyaHM4JUNHM6iLYQM0LVFjrVfQemBOlh7HXu3NmS nFcAIwLM3f8vJQTRdpNU4MROqF544QVdjJDyMECsVIYApn69evXSiYU/FckYm7mYD1U6vc8CP2zY MB2HmA5ZEIrK++Hhhx/2mEmySTajxBsC3rt3b3Uexom4nMJ6RyjctdZayzdzrqRysCp2zT333KMm Qx06dDD8igHUzmcfffRRThCCP5UR+taAGaFqjUmtnxDFDwUEefksCEXlaCLAJA8key3+3kmVWAkV iw/SWF5qjTXW8N9//31S79VQzyGPzUILLaR+GERmambTvyuvvFKjgjGm+EG9ayV+BAgoEyLWXXPN NfE/sEGfgP8K43aRRRbxL730UoO+ZevXYu0PKSGWXnppv+mmm6qWCk1VqR80WWyKjDsirpm5X2tc 2/oEbWD37t11vO2www4eya2VyhEgDDORKCGltva1xs8IVWtMavnkyy+/9KyR7BNEwm7m814tOD7w wAOa/BhlTlLWXbESKjIXk6R2xhlnNFO/WkaG3Eu+LibYfPPN17TaARyDDzjgACWWYMHPfvvtZ9Ei axxb7d1O0mkOwODdr18/CyLQHmBtfP/555/7FVdcMYdlM2yWRHNlnk477bT63mHuVvKbcN9WKkPg X//6l2KOz+Orr75a2c12dQsEjjrqKB27hGQmYJSV/yFghOp/WETxVxhr5DF86623oqiyKevgvBhS EOGzS/TsuEtshIqDA1opNs3999/fM+msVI8AzttbbLGF4rnTTjs1DZ5MAkylMPXDF4DoLYUHMUgW KnJMgzDRsBItAiFsK+Zqzz77bLSVN2Ft1157rfpFzjLLLKlndo8bfsz8Qoj9wnlb7v+Z85iOWykf gTfffNMvvvjiulaaqWT5uJW6En+/ECCAA6+V/yHA2Y5IiGE+E5r/k08++d8F9lfZCGAJgq8jWhWi 6VqpDYH8UOrMW3LhxlmmoXKZCJGXMWPGOIls5cShzokdtxPnsMif0WwVSr4ft8022ziJeOUkAqCT RGYND8ETTzzhrrvuOicBEZxIuJ1oO50csHLvzfAVUxb9bvbZZ3eSQNWtv/76ue/tj9oQECLvNtpo IycJLt2AAQOcSL1rq9DudiI5c2KC5SRiouvfv7+TsOpOcow0JDIizXfDhw93P/30U9XvJwEB3Ekn neTkkFF1Hc12I3hJQCMnfrfujjvucPPOO2+zQRD5+4q5ua6BQhicCJacmKFG/ox6rJA9WMx2nQg0 tfni++Mk+IkTs7V6fJ3U2izWCnpmvuqqq5z4jDqx8HJCrlJrT6M8+LTTTnPHHnusEwGTe+ihh5zk qorv1SBUURfs5QkPLK3WRGRxs8Ko25/V+rCBF0KluBJlzYohEDcCship2S4J88oNJBB3mxqhfjR9 aKhI1iiLfCO8kr1DRhAgEfwcc8yh2nxCf1uJBgF8wgmOwrlm4MCB0VRa57UQ+ZU9ghDV4MIPGuVd dtnFf/zxx3X+dsk2nwicIhRWM10RgiT78AZ+2nfffeeXWWYZHZsjRoyIVUsVi8kfiSyZWIsuuqh/ ++2366Kr7rvvPjVNIcR7loNn3HTTTXoQ4zBGBCcrhkBcCOAc261bN53LRxxxRFyPacp68UsLpnCi VW0aE96m7OyEX/rII4/UObvKKqt45rCV6BAgCBJ+4UQ6bVYzVEz8OCeJ5YL6g84///xK4PHVCz/z zDOPfkdkRELPV5IiIbreqp+a8Pc55phjdN4SjMcCyETbd0TVhZMQRj1Ot5DICRU280RmQkpBpuJ6 KCwQ66yzjgKO7SoJdbNacGIPAQK23XZbO4hltaMaoF34rTGPkZqZdir6DsU3EA0V0cPEtDX6B1iN TYcA85QIkuxjp556atO9f9wvjLQ7BJXBN7xZrW8gAH/88Yf+8Dfnkvyf/O85XzUrTuWOx9dee00j OTNvk05GW24b6/m6kEweUnXBBRfE9iqRE6rLLrtMY+fPPffcdSPBISwqBxvA5mfQoEGZDlUpvhd6 0EUyZNGbYpsbTV0x+c/69u2r84H8cWyWVqJFAIw32WQTxVh8qaKt3GprSgROPvlkJVNLLbWUJxeL legRwGyIcwJmRGbWFj2+zVYjZPPss8/WMbXeeut5ApBZiRYBMB45cqRijEBE4hBE+4D/qy1SQoVU Ivj4EF65Xspuu+2mBCUQKvKeYIee1YI6OJhiYV5pxRCIGgGi45BUsGPHjnUjGIkagyTqwxQBYQ5a BdMCJoF44z4DU/W1115bDw3ihN24L5rym33zzTdq8ofp380335xya+zx9Y6ABOxRUzTOn+TZtBIP Am+88YbOW3COy10m0ih/U6ZMcSJxdSIZc3feeaf7+9//Lm3PdhEfLycBHpwcZlo0VMwlNDJIiw8z 9J9zzjnHSZJQJzbKjuhD4oScodZZU+odAQnZ6o477jiNKnnFFVc4ETIk9kqSt8iJRiyS5xERkuiQ /MgBSH8iqTiiSoheKebG7r333nMipXSSbymimq2aZkPgySef1L1M/PM0yprkTMo8BCKE1aiXzHfm KpEcJcCBztesNl6k3e7ggw92YjrkxD/IicbKEdnOiiFQDQLjx493m222mVtooYXc/fffn2hEbKEu jv2WMV1tYd6GH/ZZ/mavZS5nqbDGiJuMRj0VJYojEnnUJVJCNW7cOCdmQhqe8Pnnn3eSXTzq9kZe 3xlnnOFOOOEEJ/bALepeYYUVHCG7RUrf4vOs/EfYtobEJWT4pEmTXPfu3bPSNGtHnSPAAst4Ertu d8kll2ho7yRfiTUE4UwUCzJh9kUD5MRZ2okjuWNeizmU69Spk5Mk2Um+VslnEY7+0ksv1cPw7bff rgfKkhfbF4ZAEQQ4EJ177rkqZCOEtQRZypzwIDRbchQ5SVjqRAuuwlfJNei++OILJ76EKhhkfkoO S52norkNt+V+iz+Ehj9GiIgAl/mddCFEuPgyOwm+oOHCCclsxRCoBoE9JL0Qh/utttrKif9UJPte ue2QyJUOckF6i1r2WwQK/JBSgDMz85a0Avywz7L3ZoEPjB492okLg+7/hFDnHBBpiUq5htpy1113 zZkbYP6X9SIHR7/xxhtrmwXUFr8xdbrmmmsy+wr4X/Tp00fbjN28+bhktqvqrmFC0DV0Kz56r7zy SuLtl0W4xVwsnJu1/h9THQK7kLCYdSvtIlJJNTkWCaXHOdmKIVApAp9//rknOhhz4+KLL6709kSu JyresGHDfI8ePVqY2JeazyLU8fhkE5o7FHwfgm8nqVnijNgVnlnsN20KIdTHjh1b7BL7zBBoFwGi cBINm8BE+OYlXQiyIoQn1v1WSIvHrYb9Nu2o3/iV0h4RtPo43GUi01DBcEkiSCLQxx9/vC40Jmig hFCpylMW9ValZ8+emnyzFubeqtIIP7j22mvdzjvv7JZffnn31FNPmdlBhNg2c1WDBw9W8zMksHfd dVfikm4S3SK1RkUvUUMd2tgJEybg71m0W5B+MY8lEE5OoyyRpXReIw1//fXXVdtW7GaSQKOlTlPD S6JuiYzqJk+e7NDyi6CkWFPtM0OgJAJCVlSrQ3Lzxx57zHXp0qXktUl/gVkriYZJVMq8DgXzIDTG SyyxhBPhjZPDnRPfZSdCHCf+YOEyJ07kbsiQITovzjrrLP2btUEIlbv33nudHEhz1yb1R75GsFev Xk7SmdQk4U+q3facbCEgQnu1AGH8s8d17tw50QZi4SREx3311Vdqesu8wzIFq6dSRQJnOEnJoNqo cDZmD2P+cv5nDqN9LrZfsy6hicNdBRPHNMruu+/uRAjiJF2Ju+GGG6JtQlSMGCmrtMyvvPLKdZFz AI0Omh3azI8MjNzf4TOY+8svvxwVRJHXg8SPaIq03STbkcPblBXKQSEneSWfTRqFuYmGm3C7SKSJ enTggQe2mp/MUyJtkSSXpJuE8eW+cC/BW9DkIr0nLPkOO+ygmrcwv8NvIqLhsJpW4X3Fd0rf79BD D40tAlFa79dMz5WDgiev2L/+9S/dO0gjwjiOu/A8xvPWW2/tCZqQlSKmcZpGJcw1fpNDcc899/Sk DRBTP52jzFXmMHMdKTbJYpmX4T4CRYmAU6XL4TMkzSKESO1VH3jgAdUskFaCdlupTwTEh0ktFkgz QHLdb7/9NrE1OOxr5PRi702j5O+35EdkTgZrszDXwm/WF7Q8zNew14b9lntZ77if6NNogNifi52t ibQHZ0ijiNBS1xUR5ngRuEbahEii/DEQjj/+eG0kuRkANuuFcKfLLrustpkFMSTZDAMn/CaRHwMu i4WJL7bm+g5EC7PSOAiwSKVhjgaxwPQMk9csRbAi8XaYk/m/STgMVuUU1iVy44lkvFVdmEuxGaRV JIiPton5LFL8tJphz60RAXIDhvGJGQ9ma6Lx9aS6IHIm5D7qwvgnqi7PhYikdTArfC8OTCTADXjw m0MMB9hyCuZQmPdhoptfR/gbk+SXXnqpnKpiuWbq1Kkes0PaI5qyWJ5hlcaPQMi3SD9KQAWPyTkm apjOIqyDQCDYi7ogaBF/Rx0/J554YtTV11Qf7i5hnuX/FmuOiupFuANRJeFzfj38jTJALGAqqi+K izETJrKu+HR5CeQTRZW5OiIhVCzo6667rgImTuy5yrP8Bxtc6OC99trLSxANlZyFz8Jv3iuOTTAq bMTkT99D1JhRVWn1ZAABpDxi5uLF0VxDfCZle4w/QAjjHbX0phZY0TCFOZn/W6IRVlStmDbkQkvn 18M7x2FTXW7jJAiHLvAQWcstVy5q2btuu+22KzpOGWuzzTabl8i3esCQ4CNqVVCuMKCtN0XwgrYG STDEPAsFzZSY97TAYumll65Yo4SfM+tgMSGIBKXwzzzzTGqvi5QezQJ9KyaNqbXDHlwbApwFi2lR 6FdSh6y55ppqISGBI3S8RaUBZk9njkDi0HZmqdxxxx0t5m7YK6tNinv11Vf7BRZYoFWdkNdHH300 0VdHsLr66qtrW8RtJtJnR0KokKhKdA8lJOI/FWkD46gMjVNYCJlIjzzyiJoLQazCwAm/GexiHx1H MyKpU2zKdbNBtRrF5hxJo6ySmhFAKoazKuNQwgjrwoszNxoZJGpxkfz99ttPnynh+Gt+hygrKEWo kMhXWpjPxaTeOJmj9U2jQPQkdK5if91116XRBHtmBAi0RajCnsJv9pWFF15YBZEIwzDZe/PNN6tq AaSCOiFVaZquhsZjNsW75b8vmirmcLWFdS+/Pv7mzEEAnTQLSc9pCwm6rdQnAm0RqsIxJ1EdvfgP efGb80OHDlUygKl5NQVNLfvQvPPOq2av1dQR1z2lCBWBJaotWLxg7luIKVpetL1JFc7JWA3QDn5X 23/F2hsJoXrwwQd1g8DmWfKpFHtOpj5DG4XkAUCJ8odpAYVBVEwSxuRBGpXFgkQSySfmDxKKNotN tDZVgYCEBvZIdAsXH/6PqhqzPMwFTj/9dI8QA6kZ0txaCqZCECmekbXEoFESKiIbsYkVYsuhLy3t EOsL/lO0SfJ/ZdbMuJbx1Qz3lkuoCsceGlLGJJLTAw44QE0E0RDjV9SeCR9WIdSHuSjJfdMsPB/B T/77QR6HDx9eU7PQ2KPdy6+XwyhnjzQLpvYIvLp27ZqKiXaa794oz66EUOWPP86KaEk59+JzhIUD QhHmQDl+k5dffrmOZ8h41oThcRAqFBmsj6wH+TjyN6a9SbrWkECZ50qAjEiFqJEQKvyMaJwkqKwL /ylJypfrUIlLn1sX2MCCX1V+h7PZpXXQyjWuxB+QKCSTHLKzYu5Roqn2cQUItEWo8scmf7NAEUAF /w0k3ZAPibRT8VxEsNCtWzedG1lLGRAloUIitfbaa+fWgICn5NHwEyZMqKCXor0U6R9tYdOxUp8I EPgkjKdaf7OmQyIwa8UkCO0TQVYKy2GHHabP3GabbQq/SvT/HCJpS+GBSXLSRBK0QfLGqDlyPq53 3313ou9Y+DDWCw7VmDNl9YxQ2Gb7f0sEODeVMvnLH2vl/A25XmmllTTI0I033qg+fsWsSSAPCC2p kzmTJJlo+fbF/xcHoeJJ+CzhO1WIJXEMkvTZph0QYskfF2nqhUjCpsuA0GzhhA8Vti9YZbcQHnJ9 CZVMKGWRCGoCRMKyhkLmczmUhv/qb9kgNMwjIVuzVkSyrSGXZbN1QmzdoEGDstZEa08VCIjjpCaO JJR2pUUWCg1HLLbfGkqZpJOEK2W8t1VItrnFFlu4d955x4kzro6rtq5P8jtZAB3vU1jE5E/DKBd+ 3tb/5eCnIZhJolhY5ICmGBR+nsT/ZWPXkLIi1NEEjyQ6tVI/CIjGxA0cONDdc889sTSaeUzIYtKT iFRc5zQJNIWAOzmMOAkI5cTHIZZnl1OpmPrp3BHBTIvLxeHe8cM+WksRXzHHGYOEnKFw3uCztIqY ZjsRJGvIaBIrk2hYNIppNceeWyECjEkxvXMSrEjTdFR4e7uXzzXXXE60zroPkyJANJk6b9mj+/fv rwl9CVvO87NUwl5U2KYo2iruNi3mcHiGCIQdqYCS2PdEk6hrKWHiSdNA6oYoSiSESkIpOmG0TkwV 3Pnnnx9Fu2Krg0VPwkE7DlUsxCJFaJFnRxzkND69SBVatIGMzxLmNbXY+S0aU/AfcvCI6YMjf9CZ Z55Z8K39tx4RkCiUujlXQ6gK31dMQnXccviClEigFV3gJbldi0uffvppJXHklOD5Epmnxfdp/idK QiXmFUqoOITmF9EI6GFYtFf5Hyf2N/mDxI/KISTpLPlIaj2AJtZwe5AiIFJuhyCEg3/cRUzWdU6T i0m0t05Mfp34dLgTTjgh7kcXrV/MjZ34OWlOm/wLWGPEx0tzJeZ/Xu3fCDvFNDaXO5IDWJp520Sz oMIr1mny4YlflxGqajs3hftYY5mv5EcTBUrsLRBrotxeLK4njoM9hA4inqUSJ6FiDouvdqt5wnlD NPFONHyxQ8E6jSCKMw9n/qj2/EgIFQycRbMaaXHsyOU9ABIF+SMZIBsS0jzJh5F3hVMphZhZqOYq /wtYs/ir6GKe/3kW/kbSIfa4muRXbLpjkbRk4T2bqQ1ifup69+7tJPpbpK/NoU8cQ52Yqeghh4Vc fLH0MMCBXnyonDiUazJdMYGL9Nm1VBY1oeKdC5MXcjiV8OxKZmppa7X3IinbfPPNHX2PtsMIVbVI pnMf/QVZT0pDwZ7EXJZAKk5MjRwWFAg10ygkFsbyQ0wSWzweAQ5aJHHmb/F5tf8RXyo9/EiENK3i 0ksvVUl/tfVFcZ/4jLmJEydqHzAGkjiYR9Fuq+O/CNBfzNskCus6Qgb2WIT2zF3W/eWWWy6Jx5f9 jDgJFVpdNOwIbguLhKp3AwYMKPw48v8jgJIgdLo2RSmUqZlQiT9CzuRMnPKc5HOK/OWjqpDszZtu uqnDJAHVK8y0mBReQjw6ibzUipiwcGLOUSjZj6p91daDxo3NFJMQVMyYbHFwtlK/CCD5ZLFNYqFn kcfsFQ0NBwNMzpB68/+slCgJFWp+5grmv/llp512cpL0L/+jRP8mwzyECtNL1lKJ3JnY4TzRF23Q h0FwjjnmmFZEParXFT8DJ746ajIUNM3sX2g1GdPi96gCkaieV249EEi0UyNGjGh1C58jaIXwRVU4 CF122WVa3ciRI51E2ouq6qrqEb85tXQRB3d31FFHqYa5qorspsQRwPSOcyAmqXEIQthDxWdItVKr rrqq4wyJNgTBAJYiEnTGvfzyy7ofJf7ybTwwTkLFO6OFCkKR/GbssccequhA0xtnQSvJuoEigr02 MlcZYec1FaLvEPYQh+4sh/vF6U/MEXPOcETUKlWImIYjrXRoix+cT5966qlSt6X2OaGjaSuhauWg qNnbhfR5+6lfDORw1sq5u3A8Rvl/nEIJbEGdhIX9+uuvUxvPxR4cZVAKIvwIiWwxt+VgmnouEILi kPiUPshaXpJifWKftUZg++23bzGuapmj7KnLL7+8Bps5+uijdX8lWE1+IVkw8xZHb9Ew53+V2N9E F+UMUOxdCZITdSGHVwgiwN6XdhEhsr77LrvsknZT7PlVIEAAhjCeio3hSj4TDaWmOCFynxzSPZH8 mKOFRUiU7kFEZ04yZHhhO0r9P66gFDyPJMniq110vSD9j7gblGpWZJ8TmCpE1SXxcFSlZg3V+++/ ryZDMG5UZ5jLZbGgXsXhHtMETJn4jdqxVJFEfW6o2KQXluOPP97xE6XErfAZlf4f08UDDzxQ/WII TIFWw8yFKkUxO9fTd4xXiUbp3nvvvVgaJpErnRAnlZZ1795dnTKxXz788MPVhxBNDZqrrJSoNFQv vfSS23HHHVuYUqLNRdKNU3+aBTMEtA0EBMG/CyddK/WFgBAqJ3nOqmo0816ibOo6LiHQVRMl6RHU HLdUhZIyQX2B2Y+wnsgPsFTqnqg/Zy9lDcGkvrDgW92zZ8/Cj2v6/w8//KBadPwg0AhJFMRULTLQ wklYePXJwCfbSn0hcNttt2nfYRVSTcG/nvGP5kkEIDpf8adjjy1VsJZaeeWVHWbm+L8zz7NU4tRQ gTPzljlTWNiLJVqmWpAVfhfl/4VAqb+pkCknwirVokdyZq6VmRG2u3PnzpqwS/wPaq0utvtlgOQk /uJH1W4yL7Fr1cSB0oktmDS5gbImUUAKSDslAlS7OUtiA9gqjhQBNL9IawrHXzX/R1NJrjJSApCI 8vrrr/diFqpaqPykdiGfjZi+tTs/In3ZMiorpaE644wzyrjba44YCSrjxVa9BabkoyNHjhwGy6on zotIKkwuIfpYCG2cj7K6Y0KAkPflzFHm5KyzzqpzXMxcPFpTwqKT4BkJbrlFTHQ1bDc51F577bVy b4v0unPOOado/kbmlphTRfosKhPTLD927FiVMCNJFwFi5M+opMIhQ4Zon6cdtr6SNtu1/0Og3DxU aLHEhE8tgehr9h6SWEtAi4pzkHEf6wT7URIamf+9bXl/xamhYv6SP7PUOnn//feX18garzr55JO1 DYStp01RlJrzUJHITCKX6OaQVTMVwMo3xbjhhhvaxY58H/369Sva6VdccUW79yd5gTjmajtFQlJz ctck223PKo1AJXmoChcm8qZhskqSUEkD4MXfwIu9cruLRsiDRJK9fKJVupXJfVOKULEYsgbl/0jE Lc0JQwJv1iTR4HrxTVIT2IAVJpUiVfR33XVXci/RzpNICCm+MTqXr7rqqnautq+ziEApQsV4wySb MSc+QDonIVC1buTkZsIUnUTfjPs0ym677VZ0n8QUsZi5UxptjPOZJOJmXUFQa6X+EGiLUJFsG7Nb iQjthw0bpnmUfv3115pfUqwQdMxg4t1shArwQu7asB/n/0ZYkkTB1I/nkpe21nU4tLdmQoWke9FF F1XmLiYHod5M/SbJKRJ6wBOTCI/0v5yCrbaYUuh9+R2+wQYbVCRFLOdZtVwTDsJoqCTkci1V2b0Z QaBSQgWBEodXJVAQCDEFqphcS4QdHeskJ60XQoXvE/4b+T+Sc8sjsZcIaK3mLtdJwBnPu6INyFLB dxMSzFqDFtFK/SHAoTrsFRIgSBNISyRZPUCgrYl6Xj3yyCOeOUBiWawq0igkHw7vnP8bApmW1ixJ HMR8Sd+fxOpW6g8BEsqGccuewRmRvpQUBJ7E0WJ+H/lLIezjmVg8ielq5PXXWmGcGiraFpQAAff8 36NHj661+WXdL4FItA/EZDcyQlWzDxX5agiX+tlnnzmi46WZZE86pWgRlbwT9ayGM6WthIZuzz8k +LEQhpwISvmFewmvTOjlLBRya5Gbgwgyoi5N1Z48C3g0QhvwDyAiZak8VNhoY7ct5F79CYKvRS3R ccTsyIm0WVMLiBY3kQR75fZVKR+qcu8P15GLC9yIsET+NtnQwlep/yb6KFH+yE+CXT8pHqzUFwLk YWS/IPmuOJw7xht54OIq5FHBRwnfA/weiCSWdAlpUwqfi28Jfl34iTRyOeSQQ9QHk2h/Ighp5Fdt yHcj5Q9+j/g0Ef2VSJrM3TgLvrxEumOOEFmXMOpZKnH6UPGeEsDOEVW3WDn77LPVl7vYd1F9hh+X aJY1FRK/TznllGiqLovKtXERZiqwbEwasAPPWkHqi8pW0NIf7GDROhHlq70frhNilbs31MFvzAGz UiR4hraRyClWGgMBydWgERsZf0KSPKYHQrC8JG7WaF5EhBPn7EhfVhyqdRyJ0CFTGlhespTJH5JE tE384EvIDxpbETKoiYYcdlTaKJnQW2ismPtERpNQx16cgjPxvvR58JvDN8ZK/SGA/1NU5iPlvP3r r7+u2inM/jD/S6OEMZu/P/I32mCsQxq9oPHmffGFs1J/COA/m7QPLZpbfAyZt1h5Za3EraGSFA9F z9XMI8wB4y6YbRKFkedJyqHIHlezyR+bBypSDn4SKSuyhkVVEf4jHTt2LNl5AFrNDyZF+G1koUiE P30H/MSsNAYCovH1kuDOY04iiag9gou4C+YNzAUOSFHYiUfZ3lKECrv2cgqO65hZENoYx+L8OS+5 SPyuu+6a+uGP9QTzadbStMy3ysHSrskOAjjEExSKPU6k7Ik3jP2fYDf58yn8LVF0/dSpUxNvU9IP DCaPCG+sGALlIEAwN/we2XvwpcxaiZtQtWXyx5k97sJ5Cl9x1qoon1ezyZ80yInvjiYzjFR1RsU1 FsK4CmiadA+TiI022shhniCdVVHNmD9NmTKlxT2EqeV9xc62xedp/KdPnz5qajBw4EAnEvo0mmDP bAAExB/DSf4MTehLOoRazAejhqOUyR9JQzHpraTIYq4mBZhm5RfMtAh7jJlWGgVTP8Kmf/fdd058 6Jw49afRDHtmHSEgPrMaKp2k0KTPkJxIibeeEO+Sn7HVc8WX0YkwKHNJS1s1tMYPMCHG9BKzIc4E VgyB9hBgfScRNKZ/mBySLiFLJW6Tv5Dqp9g733LLLU6iKBb7KrLPSPOEewOuO0Ieo0vtEAUTDFF+ kPJmqSDlxVRKesGTQK1ajRJsGhMh6sn/kUmQCcf24Mgu+TiyBL+1pc4QkMVdk4SiIcmaZLmUhqra xJ5IpTD/zZ/P/C1+kbE4IZczFAgXS5uQXJIs1YohUA4C4g+o4/jYY48t5/LIr8kPxJE/nxjHklMm 8udlqULMrsUPxhNZdcyYMVlqmrUlwwgQEEl8H3XeZjEAUZwaKrTaWJbkrxX5fycRGRRT5K5du2ob SLIcVanZ5I+GEA0FQES6mqj9eFsg0GkSUCLXaajl+ayaQn4YNof8TudvfKzGjx9fTZWR3YOPGKYV 5DWxBT0yWJuyItFK5Xx40vLHKAV81ISKOV0qW/uoUaNKNSPWz8VRV9eYddZZJxM+XbG+rFUeGQII MtmP8OVJo/Tv37/V3kh7EGZK0t80mpTYMyGMCGuJtIgvphVDoBwEMKnfb7/9dN6Um0uxnHqjuiZO QoW/WnBTKTxTzzPPPH5qAmbCKFvwYZt99tkjNfWPhFBJdD8dGBJhSJOFRtWptdQD0SC8OR2GxP3a a6+tujqI2JFHHll00yCGfZqhysXUIregP/bYY1W/o91oCPz0008+SLsJvZ6lEjWh4t0uuuiionOa dSxpH7J8qZ2Y7qaerDRLfW9taRsBLBPY58RcN5Vxg1M3viCFhyOC6cSR2Bc08ImMOihP2ygX/5aQ 27wnfmwIpKwYAuUiINHsdM4gCJGoc+Xelsh1cRIqAvdIpO1W6wXrh7jlJGL1hTUIzyMvYJRh8SMh VEihMFUhFw5Rh7JQJk2alDPpIYCEhCSuqVkQFxht4aZBro00nQpJADrTTDMp9lnLq1MT4HZzKgiQ g4oxvu+++6by/FIPjYNQIVEuZvaH+U7S0ckgs0QJA/tzzjmnFAz2uSHQCgHxOdBxQ3AoglQkXcQH pGi+RsYyuRzjKO+9957H1eCkk05KRKJd6h1OP/10FdhKyO3MHYpLtdk+zwYC4puv83aVVVZJPMpg ewjESagQVgZzu8LzNNZucUdcRHhJAD2eTZAq9t6oSiSECnt/iAV+RnfddVdUbau6HgALfl2Ahhap VgkAoO+8887aCYWDgEW11vqrfVnJP6VtItS1FUOgVgQ4oDC+s3ZAiINQiSO5qvwL5zOmvEiwkiwk cl5uueUUewuZniTy9f8sEoNi8k1SUgnekvgLsf9jdl44j/h/XJrucBjlGWm8cwBZcunoe1vI9ICI /S4XAYT0mJwhEJ+agJlbue3iujgJFWHiEVoWrhfsuxIkopJmVnUtydUlkJs+H+ElfCGqEgmhokFh YcEeNMoGVvOiSJcZqKHDxo0bV001re4hLG0x0wY2kzTMDyBxQXVKeG0rhkCtCBCinbmDLXMSzqHl tjcOQoVmnfcM60T4jWBIEuuW27RIriOkO2sLvppZzEsSyUtaJbEggAkNpiuM3zRyQWJ+t//++7ea R7QHXwnaF2Vh3ws+GJKI1ZO/LY0i0ThzuGM+bMUQqAQBTM0kuW9q87attsZJqJgruOGE/Tb8BgvS xcRdfvzxR7Xoog2SeDzSx0VCqGhRCADRu3dvj/9SWoXFFme//A5DmhVFyU+8GQYBvzkIRUXaKmkn NttBdRqXaUUl7bFr6x+Br7/+WqXNSIvSCs5QDMU4CBU+h/g/5M9l/ubdk5R6I4AiGTHPlnCxnoAZ VgyBchFgz0Ogxvg56KCDIicw5bSDuVTMJB6t68cff1xOFWVfw4Eo7HtImtMQZtJYoqIikMFsmL+t GAKVIsB5mXm71157VXprrNfHSah69erVas/lDH344YfH+k6h8meffVafv8ACC0QehTQyQoWEFcku jSRpWRqFg8n555+vpg8M0vCD019UWrNig4HnEJmLw2iSBdMg1MWYeqRhO5/ku9qzkkOAQz1jes89 90zuoe08KQ5ChXlyMY0zJCvqQ2Bbr4eEf7vttlPM0fBzQLZiCFSCAAI15iwpNJKQ8ha2DZLTr1+/ 3J4b9l5+Rx2Y4tZbb80JTCXvYmFTEvt/MDtcYoklEg9ik9hL2oNiReDUU0/VPQg/qqg1ubU0PC5C RXQ9ya/Yap1A0zx58uRamlz2vbjosC5xZmfdirJERqhQXxIdi4ZGpREq50UhSqjeCfNM+Nhi+aKQ IOH/hHoP4sHALefQwkEHBzlsxNFOkY+KABf5m0X4G40YYZixi0XCjJ1mVCSuGA60P0R3QsrB86wY AlEgMHr0aB3jLPJZCXQSNaFiXpO3J8zf/N+ScDHR+QR5m3XWWdWuPGvh6qMYT1ZH/AhgJoowE+3q 448/Hv8DizyBsduxY8dWc2rAgAGR7YXM2xCJFPPYtAJCcSYgcA/rxhFHHBHZ+xWB1T5qYAQQNswx xxyZC7sfB6HiPByCXuXvt5zPr7jiisR6ea211tJ5izY/6hIZoco/oABaUgd8nNiWXXZZP9tss7Va yPM7jb85tJAzggAaON+3VT755BO/3nrrqa0lCzesGm1QYZ2F/2dyQLo4jEaZMKywrRDY1VZbTdsz duzYwq/t/4ZA1QhMFQdZtDSM9wkTJlRdT5Q3Rk2oeMdlllmm1XxmcU9SIARGgcCusMIKpmmOctA0 UV1IWkOUyMGDB6dywOcMgFa7cE+ceeaZPRYsUZSLL744Z1rYt2/fsgSjUTy3sA6scDgXoOHOyhpZ 2Eb7f/YRYM5wjkMgT/C0rJQ4CBXRSIuZBeOiAw5JFAgsPuLwhTgC6EVGqAADCVWHDh30MEZY0yQK h59iZjuFi3rh//fZZ582m4d/UjGH9cJ6Sv2fKCZoq+IqYM2zIYdvv/12XI+xepsQATSzwezvxBNP TCW3TSHs+GgUm2uYTFRa0FCXcqInOuj3339faZVVX89GQu4N3i1rdvRVv5TdmAoCJIZmLyQnUlp+ RQgiQ4CM/PmKFUWt4YlJybLYYovpXIHMEK49jYKkHYk677fmmmtGmscmjfexZ6aLwLBhw3QsYa6b ZvyBfBSCCXH+HObvaqN2Uh8a9ML6sAb54osv8h8d69/4adEGsI4j1+Q0tF4eEEkR8yC32WabOZFG OYnz7kSlFkm9bVUikcicLG7u559/buuyVt9JEkS34447tvo8fCBme04Srznp7PBRRb9FG+YkEpHr 1KlTRfeVe7GweieBQJwcDJ0kVnSiTSj3VrvOEGgXAUmE7cRM1knkHSeSHCeLYbv3xHmBLMhO/Bdb PeKAAw5w5557rhPNUqvvin0gplFOogzpPUJmWlyy9NJLO0nU6cThvcXncf5HQre7nj17OjEhcpIg veg7xvl8q7txEBCtiWNfE2GgE95Z9YEAAEAASURBVAmzjqs03u7hhx92oj1yQq5yjxcBozv66KOd CGhyn1Xyh5jF6n4qUm69jXqGDh1aSRWRXSsCJ8VWrGOcHIadaATLXn8ia4RV1DAIiNmqE4smJ+4q 7u6773bi25P6u1122WVOBHyt2nHKKae44447rtXnpT4QVxl3/fXXOwlP7sTdpsVlrFU8R4QjLT6P 6z8i0NH1UQJO6ToUy/oRNR0MeZHwp8qSk13U75lmffhcYFqIvbxMwDSbYs9uUATIbRMiaSVtAoeG DJNhJEiYtmJSs8Yaa6hkSRbbFr/nnXdelRYj5eL6cC8+Dvgyor195JFH1KwO7VOQcBfWs/XWWyee zJehg5kH5h6Yfdh62aCTKaHXwq825FdB8ptmwY8r+FSHuYb1Cn6LlTqCY5oTcrRR1yGHHJLqXHnu uefUVxvTIXLZWTEEakGAPSsEJRoyZEhi7jKhzWHPZP8koA1uNMsvv3yLfTbMYczkiUVA3ILff/9d TfWwsuAHrTgpi4iih2ku+22x/HTMm+HDhycexO2BBx5QP2XcGeKyoIvU5I8OEumUmsph8nbVVVeF PrPfESJw8skn62Bn0Ft0vwiBtapyCLDIHn/88TrOevToEYt6PPewgj9EcqWmrJj14PPYnn8kCyTX cT0msPzwNyYGmO1yP4e5sCmE36xR+F+KlCwVEymS+YpWTNtFdD8rhkCtCFxzzTXqpzDnnHOqCX6t 9dVyP1G7MP/LT2FC0CicwhEEEhW3mK81hzNIF6HIMc1HeMicxZyR/3OYS7P0799f27PBBhtowKo0 22LPbgwExDJCxzf+90m6cDDPiHYX9kz2UWINhD2y2G++p51hrw2/+Yz9lvlauN/im8w+jI8l/pRx BmwrNiIgi/hq8T7bb799bM+PnFDxMmJKpw3nYGRS12LdW/1naKdg/WwuYkJRfUV2pyHQDgJIYpEm cSDCSTWpImaybS7oxRb5cj6DQLHoI4hAIkgwl7R8TfL9MGiTCUaSGl2N/RykxmuvvbbOH6LeIhhJ szCuyZHFoatwjuLrRYJepNXMRTEN8iNGjNCoefgVYoER7uGgdqL4cxYjYEm+H4dB2gIxJHecFUMg CgSwsEBwyXhnnCdVEE7MNddcuXkW5lutv9lrmSdYucADUAKIe05Sr9XqOWiSOcvMOOOMsQqaIvWh kk7QIiY2aqsoET0cvg8S5jR8Zb9rREBCpTuJUOhEkuAkMIXr0qVLjTXa7YZAcQTk8KJ+VPgVbbnl lg7/BZE8Fb84wk8Z32JyGEmNtFc0WE7COTvZOJyYLDjJG+OExERSf7WV4G+67bbbOok65LBLF1Mo J8S12ursPkMghwC+eLvssov6PYqZi8M3MO3COL/kkkt0vOPHWG4Rk163/vrrOzEfcn//+9/LvS22 6/BZlqicTswZHT5UogmM7VlWcXMhQCwASTGgZzsxm3OM/biLKDx0/6k2VkBoH3uXkBXHmR9/fomK 7USI4pZcckndb8N1afwWduXwtWbeSnAcjbkgkUfjaUorKhfRB4Q0lRariq9Sm+mImtBw1eDXgokS uLYX9r3hXt5eKBUE7r//flXhI9mRQBWptKERH4qNOfMYkz9CuFsxBKJCAPMWzHgYX+JAnrpWJ/+9 yJeFj8YxxxzjRUij6UXQ0CLRxiRIBIQaOU8OQP7KK6/0JALNSiHKICZRaOwtVUlWeqVx2kHOxxVX XFHnLVpdK9EgQDRQUsDww3kmzhKLyR8NJm8MdpT8JGkuFCdYadeNOQSLORsQ4WmtGAJxI5DvMEtC zSRDisf9bmnVz9wNwTEwd0ranjyt97bnJofAjTfeqGbhmLmkFV68rbfFT4q1hEMkZoH4E2LOThAa QkdnzVWA9oaQywTbkKjCbb2efWcIVIWAWCApocIHWKLRVVWH3fQ/BJi3BJxCuIRJZdzzNjZCRZQt IljxIiS5xQHVSvUIIKljkoHn+eefb4ew6qG0OytE4IUXXsgFhiCAgxGACgEsuBy/EeYxvpBxRRsq eKT9t8kQIMJliBxGxL+sEZR66w7yPorZsPpg3HrrrfXWfGtvnSCAMKFbt266PzB/8Ym0Uj0CYmas mikCVyFkirvERqhouMTX92JLqYMD5m2lOgQ4wO6+++6KIywbqZ4VQyBJBDDRgQSssMIKqYQXT/Jd 43wWIeBDFKQzzzwzzkdZ3U2OwKRJk/wss8yiVg3iV9XkaFT/+iQk3nDDDXX9IxR0rQmKq2+J3dkM CBDxj6AnzF3MY61UhwBKnJVXXlnnbb9+/TxpJeIusRIqGg+RIloPpgcTJ06M+30asv4xY8bkzDfI qWPFEEgaAaIQYfIHqSL0adrRw5J+/yieh/QxYCgO9omGoo+i/VZHfSHAAWLQoEE6Z/FNeu211+rr BTLSWgkaoxgSqdAwzEinNHAzEKCHEN/kJ7QIsJV3NueTU089Vect0USJP5BEiZ1QEZZYovToi+Eo y6HCSvkIELqazZCD7B577JEIyy6/dXZlMyFAgk2EI0jPUKVbqQwBNFL4QOJ8T/hlK4ZA3Ah88MEH uVxnElXSTIgqBJw1b+6559b9l6SrZu5cIYB2eVUITJkyJZcUF6EIvkBWykeAeYuJLumFLr300vJv rPHK2AkV7XvqqadyixLJQk26XV6v4YcWTA2I/kKEJCuGQFoIcJiQsK56uCDa1eOPP55WU+ruuSQy lVCtngSH55xzTt213xpcvwhgQkSEK4Ry5n9bfj9++eWXOZMhcumYMLh87OzK2hG46aab1GePPSNJ UlB7y9OtgXOypEbJKSGSjDKeCKEC3vPOO08l2xwqJJ9NuojXwdMx1whR/WDaMG4rhkDaCLBYYYbA 4cw0zuX1BoEnSCYMZjvvvHNqyYTLa61d1YgIDB48WMcfgpDHHnusEV8x0ncigXDAbIEFFjCNcqTo WmXlIEBACnz22DeI7IxiwkrbCODfuOOOOypmiy66qH/77bfbviHibxMjVGiljjzySH1RSVhm/lTt dCR5LohMwmS64IIL2rnavjYEkkOAqH8h2IwkujQn7Tag/+yzz/zGG2+s8xhSZekO2gDLvooNAcIF S7JfHYfkPiNglJXiCKCJP+2009S8WRKVeovqVxwn+zR+BNCSBpeZ5ZZbzk+1nIUlQWfeHnLIIbrG ScJtf9ttt5W8Nq4vEiNUvACO7WuttVZuUedgZqU1ApgHMSAgUwcddJA5r7eGyD5JGYGrrroqZ46A Ga/ZeLfuEEx2g7QMvzOSclvUptY42SfJIPDmm2/6rl276r6Cdvn9999P5sF19BQOZSTdJtEw+y/E is+sGAJpIcA5OaTM6d27t+ZqS6stWX0uc/Sf//ynmtTjNzVs2LBU5m2ihIrOQG3JwYLFipCGSUXf yOpAKGzXww8/7BdZZBHFh0hgZrddiJD9PwsIYJJ67rnn6gJGoAX8gpIIS5qFdy+nDRBMnNhZ55By h+h+rH0vvvhiOVXYNYZA5AhgOo75EOMSzakl6m4J8fXXX69pDcAH81wLkd4SH/tfOgiMHz/ezzPP PDpvSaGTpF9QOm9c2VMR8AaLrgMOOCC1OA2JEypgevDBBz12ySxaffr0Uc1VZfA15tVvvfWWR60L Lhy8MJF89913G/Nl7a3qHgE0MIRQh1DhG0nSXyteieVZZ52lPqMzzjijJ+wy2gESnDO3N9poI48p oBVDIA0ErrnmGs1xw1jk8GGHs//2wtNPP+0JsQwum2++uf/www/T6B57piFQFIF80nDwwQf7cePG +Weffbbotc30IRZduBExb+ETJDVPq6RCqHhZMo+T1wEQMAOcPHlyWhhk4rloppZccknFA1+LHXbY QaX/a6yxhp9qdrOZ6CNrRGsESIuw995767glkhhRxJo5iuevv/6qdtyYHbC2nXHGGTnN3SuvvOJx lOVztM8kHrRiCKSBwHXXXednnXVWHYtbbbVV0xN8/KSC5s4EHmmMSHtmOQgQqCxoYthH0gi8UE47 k7pm1KhRuXVss802S104lBqhAnCYZVBjYv73zDPPJNUPmXrOnXfemVvMiaCGSRCShyAtY4H//PPP M9Vma4whEBCAVJEjDU1Vhw4d/NChQz3aq2YrSPrJyM5GB6E67LDDWvmWIWUkyTnX7LXXXk1NPptt fGTtfa+88src4Yw9JumIWFnAA+EPOfUCuUQzZVYhWegZa0MxBDCr79+/v+4f7CFLLbVUUwaYYd7i M8V5Axx69uzpP/7442KQJfpZqoSKNyUSx+KLL66gLLbYYn7ChAmJApDmw3Cku/zyy3M5urp169Zi cmAaGRZ6NFbfffddms21ZxsCJRGAQB177LGqVWWB23fffZtKCIB5EKSSd8ehHTO/Us7s+JsRpALS hYSt1HUlwbYvDIGIECCabDCXwSS1mfz7CEt9+umnq48j83bTTTc1n+6IxpVVEw8CpDzo1KmT7jPs IYxbcpU2k4UXAtyTTz5Z90/ef6eddsqMtUfqhIphh7nbCiusoIODwYLEiDwQjVyQZuNngcM6g2KD DTbwL730UqtX5sCFipfDFyEhf/vtt1bX2AeGQBYQYGwefvjhGm6YMY1ZG75DjV5IcBxCo6N9OvPM M9t8ZQjUgQceqPMeDb3lmGsTLvsyZgQIxBCiiGFu3gxhwvFhPProo3MCIKJxfvDBBzEjbdUbAtUj QMqNcE5effXV9fwYokFj4dUM+wg5HYOLAWeMgQMHZkrRkAlCxRBDzY4WBpAwHcK5DPAasWDO16NH D31X3pfQ6OQbKFUuuugiPaRCqv7xj394JGtWDIEsIoAq/oorrvBzzTWXjm8EJGPGjMliU2tuE5H8 kJTNMccc+q5o2InGVE7B12qfffbR+9AQNJNmvhx87JpkEXj++edV0s1+hIaVYBWN6uPHHF1ppZV0 7gVtskXzS3a82dMqQwAytckmm+iYxdc+aKQmTpzoV1xxRf0c4fyJJ57oyTnXiOWee+5RE0fWKIJg ERo9a2fhzBAqBgBam0MPPTSXA4KId5i9NYpWhoGOxilIAzmIcfhsb1BgN4tpAoQKm1FL9NuIy0Vj vRNamzXXXFMXeiLdITRoJAnwlClT/K677qrvxwKP78Vrr71WUSfiF7n22mtrHUT1rPT+ih5mFxsC 7SBAnsjddtstp7UhWBTCv0bJMYepEKa4QQBCepLbb7/d/BjbGRf2dboIMG5DPsP5559fLbryW0Q+ OczepptuOt1LttxyS0/uqkaZt1999ZU/4YQTlESx15KYHKEIwtuslUwRqgAOYV2DXxV2oqj46j2z +5NPPum333773AEMfykYd7kFH5UjjjhC7yeaGiEzrRgCWUaAA9ouu+yi/kIshGirmNv1LA2GBI0e PTonFJltttnUzLHa0NOsCzgWg8/666/v2TytGAJpIYDwjkid8803n47Jjh07aj61ek4CzMELwSw+ UswzfjDRJSemFUMgywggbMfVgzGLBoqYA8UKSgciALIfcW2Yt/WcngO3H94X88YwbzlDv/POO8Ug yMRnmSRUIMNiR1ZozP8AE9tuMpjX24EDU0a0S0gWeA+kYxDEakKhY4KB9IF68L247777MjGIrBGG QCkEEATgKxhSAswwwwx+wIABnpwv9VTwe8K8gmhCYXHHbOjaa6+t+TWQkofIfwhNGkUjXzMwVkFq CNx77705EyPG+zrrrKNjvT1ritQaXOLBaH1JsI2JEO9BaHTyOyL1tmIIZB2B8847Ty222DePP/74 dpvLfoRmOexRnBfxraq3mATEExg8eHDOHxtt8jHHHJN5YWxmCRUjB5UlDrLBdIhBgvMdfkRZt+/G vImoZ/hVhMGNhKxWqRgScpz9qRNShYTbiiGQdQQQIGDfjc8CYxcfK8gJkuMsF9agW265xZPjAqkf bZ977rn92Wef7bFrj6qgcUYCiVkvGweaAiuGQJoIYKJOmP9lllkmt4dxWCNKZdYFmxApAr8E83rm LdpyM6tNc0TZsytB4IYbbvBYIzF22RPKFWZ88803GthtiSWW0Hsxuce0HHKWdWEdglbMjoMCAgs1 IgbXS3CrTBOqMPiQJuH8vcACC+QW9i5dumg0LWLP4+CdhYI0/vXXX1cJWDCZYDJg0nPppZf677// PpJm8s6BZKK5a6ZQt5EAaJWkggCmN2h5MLcJxAqSsu222+rnaWY4zwcEbRRtIU8eG1FoK5sbiz2H sqhDnVMfJhusF/hJsl5YMQSygMBHH32kZkchohhjlH2HYEkI+Mo96MX9LhDA5557TiN/BT8p/EoI B49QpFGd9ePG1epPHgGCFIUzJL66nC0rLQgxSeUxyyyz6L6CtRfnxquvvlqDoGXFxwpzeXw1aWtI EwSRwtQPHLJOAvP7pS4IVWgwRIKgFcG/ioWdRZ6OIDluGnbeSJLfeustf+ONN2pSz3D4om2EuBw+ fLgezsI7RPUb4samxnPWWGONVN49qnexepoPAeYrmtb8rO+Y0J177rnqUNuenxWbBQFeID1RCVTI 8/bEE09o9KAQBYz5hUZqm222KTuCX7W9ycYRAl3wTDCyYghkBQECsZCMGvMb5gU/SJIHDRqkmuYo NbblvjNkjr2QJMW4CITcPPzu3r27SuqrOYyW+3y7zhCIGoGXX345d8Yl2BG+yLUUyMqee+7ZQlu7 8MILq08+ea3aijBdy3Pbupe97tVXX9XkvFtssUUupxRWGqQQYj5Hta+31Y6ov5uGCmVhrKsiA85J QkJ3//33O/4OZd1113ViRuSEaDiJBOI6d+4cvor0tzB7J45xTgJlODmAOfFlcmLzqc8Q6bJbddVV nRwWnRyOnGw+kT47vzIx93Ny0HMiJXTbbbedE2d5J2aA+ZfY34ZAZhEQYYTO45tvvlnnkZjxalvl kObE9tuJdsiJUMKJAMWJ5KrFe4jE2ckByom2y4m5nBMTwhbfl/sf2aycmBM4OZS5SZMmOdoiC3mu HRtttJGTFA66rpRbZy3XSYJgXTckN5/r2rWrk8A1sa1jtbTT7m1eBCSCp85b0Tbr3AEJMVXVuci+ JyaCOnbF3C4WkJifIsR0QvB0zjJH+D9FNN5utdVW032xX79+TgSusbTBKjUE4kBAlAK6/rMXibuI E4GhEwunSB71yCOPOMnx6h599FEnAkmtUwiME1cUJ8mBnUSadRJZO7YzJPOWfTacm5m3EmNA2yE+ jk4EIG7nnXfWH7EGieSdk66kLglVAOnTTz91Eh5SDx2iIXIS0US/EumUEhlxQNUDGYcyFnmxKXWS 8yXcXtZvMcVxohnTjUNi/zux8dTFW6RxjsNPKOJ07yS0pR4EmQBichC+ivU3E65///5KqiBXEoa9 1eEz1gZY5YZAjQggoGCRZW4hKGHhDwWixMFMIgQ60RrpD3OZeS+hYpXocI8EdQi3lPwtkmp9DgRK pGMqBGFjYR6L2YHeJxpmJ1JBJ9GEnJgKqWCmZIUxfcGmClmU3EBKKiGMIlGM6WlWrSFQHQKMU8ao BFVx4uvsRMOrFTGHECSy/zJn2X8RcCIYKUVwIERiWqjXialTrkGsDXzO3hv2Xw5hfBb2ey5mrkoe Sz0cshdDrKwYAvWEgLi26J4mfsVKpiQirpKMqN8BZYC4ieic5dws2iJ9BCRm0UUX1Xkrua2UXKGc gNhJ9MBcM2gnxIg9FwImpoS578IfzFvWBzGP12vZr9lr+Uw0YuEy3d84N0vQGxXCQPDqudQ1oQrA SwQTRydzELvuuuucBH5w4pjnxBwgXOLEtMgxYJB0c0Bj0WZAMFDEztqhWaIe7hFfJ70f0sTCLbbX KrUOkmsqpePRBsHue/Xq5cTeU+ujrqSLZLp3YorhxEzKSQQjd9JJJzk2NSuGQL0hwNzjcCXhUp3k mlACJA7wuddgnoZFlwMcAhKka8xn5jffo/kSfy0HgWJd4Id5zG8+Yx7zPYX5KjbmujGI6YESGQ6C aR/InnnmGT0gsgGJj5kSzbTblOsE+8MQyEOA+YSm94EHHnDsRRyemJscqihor5izzE8EjQgHxKRV 98ugeUYjy+FLzNeVjFEfAlPmLfUzb/P3c+YC85Q5iyCRgx/7ebHDXV5T7U9DIJMIMMaPO+44JwFf dByLn5OO7TgbyzMRJkpET3fHHXfk5i37J4V5y7mZs2SYt+yznK3FVFDnHxZh7LnMT+Y8ZAkFBHMX osbZmXN1KGiiIG2SpNhtvfXWKmzJJ2vhunr93RCEqhB8DmWYw0Gs+EGSxSDgcw5nYcAU3lfs/wwW BgGdjnQNti45pJw496lULCvERXKHuKOPPloH9qmnnuokVKxOiGLvZJ8ZAvWCAJIwTIzQXqHFYsFm 4eYnSNbKfRcOYRzg2BzQfKHpWm+99XQuZ1EDhPYZ6R2b0uGHH+5OO+003bzKfV+7zhBIAwHIEKbw zFkEA8zZ/P23Ei8D9lf2X8gS8xbtEyZ9Em1QSZSEk07jFe2ZhkBkCDAfJHK1k7DoKsiTaHxOfJ4i q7/cinAdQbDBmfmVV15RIQlm+JyZ84Wa5dTHvEVQyZzlB+swlA6Sa1G10JC1RiwNSagKO4rDF1Jv CWWujJwFHxaNmQIDpUePHkqYkG6xQDMYOHyxiCMFw6cDVo3JQpCOFz4j7f8jDZRIiHrowuRRHPad 5PtJu1n2fEMgUgSYx5gOQDZGjhyp/kX4WrEpMQf44W8JFavaJ+YxCzsSceZxZ/GrlAihOq8jbVhM laFtZrNlTkuodicBAGJ6klVrCMSDAPstZkZIw/nh/wg3ERQwX9E8YTrI/ozpHmaCSMbZfxF0SHRf 3X+Ztwg4rRgCjYSABGBwAwcOVKuJE044QYXhWRAUQLAwj0dLjLUW85bzMubyaKggSigWmKsQJDTQ 7LUoHthrOTtzZmbeNiqBajUO5fDRlEVIloYzF0C8LOYNgYFsTH6fffbR6EtCCjWCSkO8mL2EIVCA gDi06jgXc9sW0YAIPy4a6IKr6/e/JGQU7ZS+qwhzPEmArRgCjYSAkCpNR8BeLIGVGunV7F0MgTYR IJqdCP10fSdaNWe4rBdxq9H2kpMuK6lOsoJZXYVNjxI0kZT5kPiskfI4idTPS6QUHfBipqhhpaPE zeoyBLKAAAm/OYARel18o7LQpNjaQJ4OcbjX9xWJvYZ2j+1hVrEhkDACCEA4TDKfL7jggoSfbo8z BNJBgBQdIbeq+BN5hPz1UMhjxVyFUInGqh6anFgbjVDJwBAn2sQAT+JBYvfqyV/AoBeVqxcflCQe a88wBBJDoJkIFaCK2YUXfy+d0+S3E7PHxLC2BxkCcSKAhmr33XfXsS2+wHE+yuo2BDKBgJjSaf5Q zmgk25UgDploVzmNuOqqq3KEql5IYDnvFcU1RqgakFAxMDhwkdiQCStOvJ6kjFYMgUZBoNkIFf1G wscg0ZS8cw2vmWuUsWrv0TYCRqjaxse+bSwEEHiTKJ6zmQRZqTuBvhGq0uPRCFWDEiq6XByBveQJ 0IkrkQk1o3zpoWDfGAL1g0AzEip6R0LcegkVr3O6b9++XsLV1k+nWUsNgSIIGKEqAop91JAIYCKH MAwyJel7vESjrrv3NEJVusuMUDUwoaLbJ0yY4CWymU5gyddjUu3Sc8G+qSMEmpVQ0UWS7d5LFEOd 0xL5zxOIw4ohUK8IGKGq156zdleCgOQ+9Pvuu6+u25K+w1922WWV3J6Za41Qle4KI1QNTqjoekna 5iXvjk5kCc/pJQFw6RFh3xgCdYBAMxMqukfC63pJSuyJ5skGZ8UQqFcEjFDVa89Zu8tFAKEXAVck fLiu2wjC6rUYoSrdc0aomoBQ0f0XX3yxlxwBSqqOOuoozyZmxRCoVwSanVAR+S848uNXNWnSpHrt Smt3kyNghKrJB0ATvP5NN92UE2pLLkGPtqpeixGq0j1nhKpJCBVDAFIliRGVVB155JGlR4V9Ywhk HIFmJ1R0D/b4mPFijy/JE71kuM94r1nzDIHWCBihao2JfdI4CNx1111eklTrOn3AAQf43377ra5f zghV6e4zQtVEhIp8H2inpplmGj/99NP7U045xfwvSs8N+ybDCBih+m/nTJ482a+44oq6WRN+VzLa Z7jXrGmGQGsEjFC1xsQ+aQwEnnnmGU1dg9AL4RcR/uq9GKEq3YNGqJqIUDEM/vjjD7/ffvvpAYwM 3TfccEPp0WHfGAIZRcAI1f86hgSR888/v87pAQMGWOS//0Fjf9UBAkao6qCTrIkVI0BuqVVXXVXX 5ZVXXtm/8sorFdeRxRuMUJXuFSNUTUaoGArffvut33bbbXWik/iXSIBWDIF6QsAIVcveuuKKK3I+ kmierRgC9YKAEap66SlrZ7kIYI4dfFwXXHBB//DDD5d7a+avM0JVuouMUDUhoWI4QKr69OmjpAqn 9okTJ5YeJfaNIZAxBIxQte6QCy+8UCNIEf3vrLPOan2BfWIIZBABI1QZ7BRrUtUI4CMVyBTRlckd 2EjFCFXp3jRC1aSEiiHx4Ycf+u7duyupWmqppfzzzz9feqTYN4ZAhhAwQtW6M4gctffee+t8xgn6 mmuuaX2RfWIIZAwBI1QZ6xBrTtUIMJbxU8dnCj/1q6++uuq6snqjEarSPWOEqokJFcOCTN3LLrus LgDdunUzp/bSc8W+yRACRqiKdwaa5169eul87tSpk3/hhReKX2ifGgIZQcAIVUY6wppRMwIjRozw M800k1oKHHvssTXXl8UKjFCV7hUjVE1OqBgaL774ou/atasewjbYYAPVXJUeMvaNIZA+AkaoSvfB F1984TfeeGOdz0QAnDJlSumL7RtDIGUEjFCl3AH2+EgQINdUyPU5ZMgQDQAWScUZq8QIVekOMUJl hEpHx/jx4/18882nh7DtttvOkzjUiiGQVQSMULXdMy+99JJffvnldT5vuumm6jPZ9h32rSGQDgJG qNLB3Z4aHQKPP/64X2ihhXS97du3r+YIjK72bNVkhKp0fxihMkKVGx0333yzqqux/+3fv3/dJ6DL vZj90XAIGKFqv0vvv/9+P9tss+kmv+eee9p8bh8yuyIFBIxQpQC6PTIyBLAAWGaZZXSdxTLgo48+ iqzuLFZkhKp0rxihMkLVYnScfvrpfoYZZvDTTjutHzx4sMfR3YohkDUEjFCV1yPnnHOO79ChgzpI H3/88Z7k3lYMgSwhYIQqS71hbakEAXJNrbvuukqmFltsMf/6669XcntdXmuEqnS3GaEyQtVidPz5 559+5MiRegCbccYZ/fDhwz0bnhVDIEsIGKEqvzfOPvts3fD/+te/+rFjx5Z/o11pCCSAgBGqBEC2 R0SOQL6vKgGAHnvsscifkcUKjVCV7hUjVEaoWo0ONrgjjzxSD2GzzjqrHzNmTKtr7ANDIE0EjFCV jz55UUI49XnnndcSeZcPnV2ZAAJGqBIA2R4RKQK//PJL7ow088wze/ajZilGqEr3tBEqI1RFR8f3 33+fO4SR0+auu+4qep19aAikgYARqspQ/+yzz3zPnj1VSLLEEkv4yZMnV1aBXW0IxISAEaqYgLVq Y0MAU2ryTOEeMWrUqNiek8WKjVCV7hUjVEaoSo4ODmEbbrihHsIWWWQRP2nSpJLX2heGQJIIGKGq HO033njDQ6YIOrPOOut45rcVQyBtBIxQpd0D9vxKECBhOu4Q+JkPHTrU//7775XcXvfXGqEq3YVG qIxQlR4d8s3777/vN9poIz2ELbjggpYotE207MukEDBCVR3SJPJGOAKp2mKLLfw333xTXUV2lyEQ EQJGqCIC0qqJHQHIVMg1RSRkTP+arRihKt3jRqiMUJUeHf/3DZLtEBZ0zTXX9O+++26799gFhkCc CBihqh5dElASoGKaaabxJ554YtNJWKtHzu6MAwEjVHGganVGjcALL7yQyzVFeHSCUjRjMUJVuteN UBmhKj068r55+umnfZcuXVSyTaLQZl1M8iCxP1NEwAhVbeCPGDEi5wNw0UUX1VaZ3W0I1ICAEaoa wLNbE0Hg7bffVjNpNPsrrbSSnzp1aiLPzeJDjFCV7hUjVEaoSo+Ogm8eeuihnLp7hx128N99913B FfZfQyAZBIxQ1YYzpipHHHGECkgwYbnnnntqq9DuNgSqRMAIVZXA2W2JIIBZ9FZbbaVrJbmm0FQ1 czFCVbr3jVAZoSo9Oop8g7nQnHPOqYvLzjvv7H/44YciV9lHhkC8CBihqh3fH3/80W+33XY6lwmn Pn78+NortRoMgQoRMEJVIWB2eWIIIDTu06ePrpHzzz+/xwe12YsRqtIjwAiVEarSo6PEN5gIES6U KDenn366Jf4tgZN9HB8CRqiiwZagM926ddMDw/LLL2/+kdHAarVUgIARqgrAsksTReDQQw/VtREt vplG/xd6I1Slh6ARKiNUpUdHiW/+85//+FNPPdVPN910vkOHDv6CCy4ocaV9bAjEg4ARquhwxYQl RP7r16+fRf6LDlqrqQwEjFCVAZJdkjgCl19+uQqNCd5z8skn+3//+9+JtyGLDzRCVbpXjFAZoSo9 Otr45ueff/aHH364Sm9mmmkmP27cuDautq8MgWgRMEIVLZ4k7p5rrrl0PiOVtcNDtPhabaURMEJV Ghv7Jh0E2F/mmGMOXQ/3228/Ww/zusEIVR4YBX8aoTJCVTAkyv8vpGr33XfPqcSvuOKK8m+2Kw2B GhAwQlUDeCVuveGGG3zHjh11Ph933HElrrKPDYFoETBCFS2eVlttCOQLl/bZZx//008/1VZhg91t hKp0hxqhMkJVenSU8Q3h0zfffHM9hM0zzzz+iSeeKOMuu8QQqA0BI1S14Vfsbg62wWfgL3/5i7/w wguLXWafGQKRImCEKlI4rbIaEHjmmWd8165d9Tyz1lpr+a+++qqG2hrzViNUpfvVCJURqtKjo8xv Pv74Y8/iQ46GFVdc0b/88stl3mmXGQLVIWCEqjrc2rvr119/9TvttFNOQPLoo4+2d4t9bwjUhIAR qprgs5sjQuDzzz/P5ZpaZpll/PPPPx9RzY1VjRGq0v1phMoIVenRUcE3b7zxhidKGKSqe/funuhh VgyBuBAwQhUXsl6Tdq+77ro6l9dYYw0/ZcqU+B5mNTc9Akaomn4IpA4A7gt77bWXrnmER58wYULq bcpqA4xQle4ZI1RGqEqPjgq/mTx5sl9yySV1UVpvvfU82cWtGAJxIGCEKg5U/1fne++95wOpQvv8 ySef/O9L+8sQiBABI1QRgmlVVYzA77//7vfcc88cmbr33nsrrqOZbjBCVbq3jVAZoSo9Oqr4BofO +eabTxen3r17W+LfKjC0W9pHwAhV+xjVesXjjz/ukdaidSaJN1JcK4ZA1AgYoYoaUauvEgROOukk T2j06aef3l988cWV3NqU1xqhKt3tRqiMUJUeHVV+Qwj1v/3tb3oQGzx4sP/tt9+qrMluMwSKI2CE qjguUX9KYIowlw8++GBPDjorhkCUCBihihJNq6sSBM4//3xP2heERgcddJCtb2WAZ4SqNEhGqIxQ lR4dNXwzcuRI/9e//lUXKpIA//nnnzXUZrcaAi0RMELVEo84/zd06FCV4M4444z+yiuvjPNRVncT ImCEqgk7PQOvPHHiRE9kYsjUrrvu6n/55ZcMtCr7TTBCVbqPjFAZoSo9Omr4BgI1atQo36FDBz/d dNN5DmVWDIGoEDBCFRWS7deDVmrIkCF68CD5780339z+TXaFIVAmAkaoygTKLosMAdK7LL744rqm 9enTx1wTKkDWCFVpsIxQGaEqPTpq/AZnz4EDB+qihXR79OjRNdZotxsC/0XACFWyI+H777/3/fr1 07ncqVMn/+yzzybbAHtawyJghKphuzaTLzZ16lS/8sor61rWo0cPTwAeK+UjYISqNFZGqIxQlR4d EXzz448/+h133FEXrznmmMPfd999EdRqVTQ7Akaokh8BHERWWmklncurrbaa5/9WDIFaETBCVSuC dn+5CHzzzTd+00031TWsc+fOlmuqXODyrjNClQdGwZ9GqIxQFQyJ6P/79ddf+80220wXMdTsRA+z YgjUgoARqlrQq/7eBx980C+88MI6l7fYYgv/008/VV+Z3WkICAJGqGwYJIEAScv79u2ra9dss83m b7jhhiQe23DPMEJVukuNUBmhKj06Ivzms88+8z179tTFrEuXLh4bZiuGQLUIGKGqFrna74NUzTnn nDqX9913XyNVtUPa1DUYoWrq7k/k5SFTRx55pK5ZRC01MlU97EaoSmNnhMoIVenREfE3JPpdbrnl dFHDZOjNN9+M+AlWXbMgYIQq3Z4mXwvBZsjdMnz48HQbY0+vawSMUNV199VF48877zz/l7/8Rc8e I0aMqIs2Z7WRRqhK94wRKiNUpUdHDN9MmDDBL7roorqwbbjhhv6rr76K4SlWZaMjYIQq3R4m8t/J J5+s85j0CNdee226DbKn1y0CRqjqtuvqouG33HKL79ixo65VRx99tCdYlpXqETBCVRo7I1RGqEqP jpi+ue2223ImQ0QB/Pnnn2N6klXbqAgYoUq/Z/Gf6t27tx5UFlxwQf/II4+k3yhrQd0hYISq7rqs bhr88MMP+wUWWEDXqK222sp/++23ddP2rDbUCFXpnjFCZYSq9OiI8RsOxPPOO68udLvssosl1YsR 60as2ghVNnr1o48+ahE164033shGw6wVdYOAEaq66aq6auhrr72WC6BDUKyPP/64rtqf1cYaoSrd M0aojFCVHh0xf3PJJZf4GWaYQUkVDqNWDIFyETBCVS5S8V83efJkv9RSS+k83nzzzT0BaKwYAuUi YISqXKTsunIRQNCDS4GT813Xrl29CXrKRa7964xQlcbICJURqtKjI+Zv8MMYPHiwn2aaaZRY/eMf //B//vlnzE+16hsBASNU2erFiRMn+nnmmUcPMAMGDPBE1bJiCJSDgBGqclDKzjUk+YagZHWv/u67 71qYIj/66KPZAa8BWmKEqnQnGqEyQlV6dCTwzR9//OEHDRqkBzEcRy2caQKgN8AjjFBlrxOvu+46 P9NMM+lcPumkkzwCEyuGQHsIGKFqD6FsfP/bb7/5e+65x2+99dYarTeLwR1o4wEHHJA7T9x5553Z AK+BWmGEqnRnGqEyQlV6dCT0DdLsQKrwq7r++usTenK0jyFiIaHh33//ffMJixbaVrWlSah++OEH j9Tz8ssv10h3Q4YMMWfn/+uh0047zXfo0MHPOOOM/qyzzmrVb/aBIVCIQFKECgIwZcoU/SHZvJXy EKB/xo4d6zHnnXbaaZWskP4ka4QKAQ6uA6RzINfUhRdeWN4L2lUVIZAWoUIjSlCRLM9dI1RGqCqa THFdzCTZaaeddLEmYli9qOlff/11f+yxx/qNNtrIr7TSSn7ppZf2yyyzjF911VV9nz59/P3332+S +hgGTdKEisWcZNSYs6288srq7Lziiiv6/fbbz+MLiGTUitckv3vvvbfO45lnntk/9NBDBosh0CYC cRMqok8STXb11VdXfxp8apjDJJq/5pprbO6W6B3WvDvuuMMT0IG5jD9S+MkioSJ1Q8g1dcIJJ3is X6xEj0BahOr222/3q6yyit9ggw0y27dGqIxQRT/jqqzxww8/9N27d9dFm03v+eefr7Km+G8j1DsS +Nlmm81DAA899FBPvosHHnjAjxkzRskU+XkwgSKK4aeffhp/o5roCUkRKrSnDz74oEayoy85WPTq 1csT+v+LL74wX6EiYw4pIocwDl8Eq3jppZeKXGUfGQL/RSAuQvXJJ5/4XXfdtRUZCKSA38zpHj16 +FdffdW6Iw8B1rZDDjnEH3zwwSowOuiggzSJd8Aua4QKweXcc8+ta86ee+5pJDmvL6P+Mw1CReAj zoSMv1lmmSVz2tGAcV0SKibPBRdc4O+7777wHhX/5vC+xBJLaAe98MILFd9vN8SDwJNPPqlaHiZO t27dMklEyL8TpPBIOl988cWiYNx9991+1lln1THGAfPLL78sep19WDkCSRCqDz74QCXbmJAwHldb bTUlzJW3tvnueOedd1SaCG7rrLNOJudx8/VKNt84DkKF6fXGG2+s85YxiOZijjnmUFMw/l/4A/F/ 7rnnsglQCq3CrJk5HArklP044JYlQsX5bdFFF9W2kWsK03sr8SGQNKFCqLn99tvnxt5cc81lhCqq 7h0/fryfffbZFdxtttmm6mqNUFUNXew3skCGMMyEPiUEapbKEUccoeOPcdheMlOc8/EnYSPad999 s/Qadd2WuAkVwVEw3QwHiMMOO8x//vnndY1Z0o0nEthiiy2mGG655Zaq0Uu6DXE+D19JNJUjR47U aKWXXnppnI9r2LqjJlREoVtrrbV03PH7/PPP95wbHn/8cdU241sTvg/zm99YR9gcLz7MICnM4YBX VgjVs88+mxPAIvCylA3F+y/KT5MmVMcff3xu3DH+jFBF1JtI+Nddd90cuPioVFuMUFWLXDL3oYWc b775tK979+7tf/zxx2Qe3M5TSBa4yCKLaLuwyWfzbqtgShKuRyOK1sNK7QjESaiuvPLKnPkIC/j+ ++9vQUaq7DIi/wUB2D777OP//e9/V1lTNm7jYHnxxRer/w2Em7mNs/5RRx3lJ0yYkI1G1lkroiZU Z555pq7PSLUhvcXK1KlTVfscCAK/0USPGzeu2OVN/1kWCRXkF38a+q5Lly4ecmUlfgSSJFRY+UCg Fl54Ye1n+toIVUR9PGzYsByoAGuEKiJgM1rNjTfemHMyxcQuC7ltkHYGjRPaMw4DbRW+R5rHeMX2 97HHHmvrcvuuTATiIlT4v80555y5dYYQwfgTWKkOARzbhw8frodV8s3Va+QtxgBm5mzszP+FFlpI tVIITMh70946UB16zXFXlIQK/70ll1xSffgwW2urfPPNN2qOytocfvbYYw8NrNLWfc34XdYIFT7M +HXRb5hy1uL+0Yz9Wcs7J0WoUKAQ6AvNMTlKwxw1QlVL7/3fvTj74xAe/BkA1whVBMBmvIrTTz9d k/4SrpUkwGlLuInoFyY2kfzYaNoqhHJdfvnl9R6CVDz88MNtXW7flYlAHIQKX7igTaSPIVbmX1lm h7RxGXMW53YwJYgLfVcvhfl77733aoQ42k+uPPLcmKY5uh6MklBhdgnZLTcQCqkPCLEd1nQid2bN xDw6pKuvKUuECiHN0KFDtc84EyIEs5IcAkkQKvaMY445RvfgZ555xv/zn//MzVEjVDX29bvvvusX X3xxv/7666tjeFj8jFDVCGwd3B4k3Ei3kQyfc845qUqDTz311ByphyBhmthWIe9J586ddTHAn+St t95q63L7rkwEoiZUaCDWXnvt3KLNWMP/zUo0CKBdxnSStXueeeapi+AemPMSFj9opDmoW6LQaMZD fi1REir8qolOV25BuxiCUzE26WPOG1ZaIpAlQoW2AgEr8xLzW84IVpJDIAlCBUkmkAzm9xSsA8K5 3whVDX0NUyU/EaGpcSrdZJNNcsAaoaoB2Dq6lXwSJOxjQmE2x4ROq9x8880qZQ+TG5OwtrRUo0aN ypkt4gtmuTGi6bkoCRUbcr5JAX277LLLttmv0bxFc9XCPAlpEVZYYQX/8ssvZxYADtohkifjAW0l gUqsRI9AVISKepBqVzqu8IUN6zmC21J+V9G/ef3UmBVCla9R3GuvvWw/TWEIxU2oEDrPP//8GgQl 5HfE1SLMUSNUNXQ6GglyRZCpG3AtKEUNYNbxrdjD49TOpMLJHTOcNApSa0Klh8mN5gwpdrGgGSQr XmONNfRatFQkhrUSDQJREirMt+add94WfXr22WdH01CrpQUCmG8EjQA+iPi8ZK388ssvvn///p65 zTzHzPzcc8/NWjMbpj1RESoEI9X42TIOw3qOFYz5TLYeWlkgVJMmTcoFqtp22219ez5yrd/CPokC gTgJFWd8okkSBj8/N5wRqgh6johqmIeQGJXFkvw/RqgiALZOqyAkaojqg3M4C2waBSkZJgdhE+Y3 B7CPP/441xwk3Pha8N0CCyzg0WxZiQ6BKAnVCSeckDs8019oI8JBn4SC+G9ee+21KtSByL/yyism Ga2hK++66y7FGKxJiP3777/XUFu0t7LPBP8M2sfPDjvsYP0dLcwtaouKULWotIL/4Asb+ho/XbMi aA1e2oSKdTjkweIMaOHRW/dRUp/ESahwqcCV4uqrr27xOkaoWsBR+X9CBB6SQobcEGgBjFBVjmUj 3TFVwt0GiSKkqlLzjiiw4NCVH5wibMYEn8CniuTEPXr00E16xx13tMAGUYBeUEdUhIp1JgQNCf2I AAcCRZLI/Ih/4Xu0WXwHMbBSHQJE8AxJrwk5npVCUANs90Nfkw8PP0gr8SGQJqHibBFypXGQI1+V ldYIpEmo3nvvvVxQGM6DnAGspIdAXISKCMgEiDn66KNbvZwRqlaQVPbBcccdp+Dm5/YwQlUZho16 9Ztvvqk+Lhx6SNCYn9E9qXfGLAjpejh4hd/Y/nbq1ElDuWKuyoHdSvQIREWoCLdbSJpwTMcsbYst ttD8QgSnwF6ffg39zG+IFcTASuUIIJTArBIccS6/6KKLKq8k4jvQMBPlLb+PMfUj0p+V+BBIk1Dl +8SuueaaRU2343vz+qk5LUKFpUevXr10ThKBFZNhK+kiEAehQuMIWUZhUszk1ghVDX3OIQdp0WGH HdYigosRqhpAbbBbn3rqqVz0PAKVkLMg6YJpCOGgCaWcfwjj71VWWUVNw5JuU7M8LypCRTCK/FQM 9B2RwiDtkGaC4nCgxrabAzfaq3xzT/z5HnrooWaBPdL3ZP707dtX5w7k9I477oi0/koqg+Bdcskl LUw/8Xu0qJyVoFjdtWkRKvp8wIABOv4Iv41W2kpxBNIgVIyL0D+kW7Dw6MX7JulPoyZU7K8Ipznz P/roo0VfxwhVUVja//DDDz/0ZKAnhHGhdN8IVfv4NdMVaC+D2RAHM6RZaZRBgwa1IlQczDElefDB B9NoUsM/MypCheYpnwzjT9FWHhqc3rfffvsW92Dbz9pkpXIEPvnkE7/xxhsrniRkTYvAFIbNZ0xA ninsQ0jGCZnOoe7666/3EydOtGhwlXd30TvSIlSMtaB1JqS/ldIIJE2oILsjR45U4dX000/vR4wY Ubpx9k2iCERNqG655RYVag4ZMqTkexihKglN6S8IOkH0FgJR5Ef4CHcYoQpI2O+AAKGMyZTOAQhS lWTkn7DoQ5yWW245zZOWfzjnb0J8Dh8+PDTXfkeEQFSEKpiThH7DxIt+basQVhnTznAPv4lCaqU6 BIiyGMKpY8KLUC3pcs8997TQTiERx2QXc0+0zTPMMEOL/qbPl156aU3nEHx8k25zozwvDUKVb7JN 0BHOHlZKI5A0oTrvvPNUY8E8O+OMM0o3zL5JHIEoCdVzzz3nMeVsL2qjEaoqunncuHG6cZWypzdC VQWoTXAL44UDD6ZYw4YNSyRKExvyiSeeqP4fq622miciJZqNfv36tTAJY0NAlW2kKtqBGBWhIkQr fRR+brrpprIamp+jiHvJlWelegRIKUCoXLAkX1uSB1xMTojuFsYAvzt06OC7dOniV1ppJY3gSSRI /HoxL+a7/Gv5LA0/zurRztadaRAqCDTrMpYw1nftj4ckCdVtt92Wy/VIkuYsRQFtH6nGvyIqQoW1 B8GdUKC88cYbbQJnhKpNeFp/iUYKO/qBAweq70LrK7ya1ViUv2LINPdnaBSCLwzEavTo0bECwgJ/ 4IEHqpqaQ2B+pEEWCbQcQWsWDl4kJMZHw0o0CERFqFjQQx/x++677y6rgZh/5d9HpMD2NFtlVdzE F91+++2acxBc8U1MKnw185mDdX5/4lODZJzw+bQD0oU/HUSPMPpdu3ZtcT1miyHUfhN3YVWvnjSh mipR4li30TJbkIPyuiwpQpUvWEFQUej2UV5r7ar/z975vOLzRXH8+wfYWChhaaeUnRXZoCytLLBl Y6MosqEkVspCLCgra9lYKIokJSkryc7Kwl8wn17325lmHmbmPM9zZ555mnPqaTD3znOd+2Pu+9xz 3idPDfgAVLwr2Q9h1NDELrKnk/UZr5+yvmv/y1Px2mdj7Z+YmHD+zO/v74nV7IQqUTWVvxF14SAR NKedeQnWEiEmODg4+PNrIFYhJkQWAa5YvHmZmzSvAV+AClp76SMSuWK51gikFVC8Sl1YAe3lr9Fc ehlc7CAJYQ4XdaoLSMJKKn3J3F5eXk5tKBvx3t7eWB1OsEzq10CRgIo5CnsnsbfEwpnoNFAEoIL0 hxNh5iFxqXh9mJRPAz4A1ePjozNo4G7LCTHePWmfra2tcK3FWP3x8RErX6RHQ1qPlAJQ4W5B7g+C 09LEAFWaduwek2p2dtZNPE6Ezs7OvCuFRZ78Vyz6+P6mHVUz6Ym/kI0a152dHWfp9t6wij3QF6Ai GD3aPzxXI8T5EDcndYmjSyOz0DzTygRubgBM0CunRLj/5C0QY0DdLn3Jz2mGPWkPFlapwxUypWhy byln13QNFAWoMLrhko0hpIhxlf5ft9fdvAHV19dXSE4zMDAQkMjXpJwaaBZQcbqE4Yw1EyMzqSp4 l6Z9enp6wrUWgxtjRMoDwrWu+nlrtOWAijwQWIvwlc0SNszm8pelpWrfhz59cnLSTT6szvf3914V AiASmu3R0dFM/27YwLq7u8PFgJid7+9vr22q4sN8ASpcCTgNkY0xiV01Qt4MCBSkHidUPz8/mqpW JkMDGM6ESRGjBdbMPIXEvdFkvqwbbL6zhHq0T8YAQAzmUZP6NFAEoGITB9EB8W/Hx8f1NdBKB3kC KtzkAbrMI+YeLrUm5dVAs4AK92kxmsna2ez18PCwFAprKaCCkW1kZMRNpKWlpYDA342NjT8/3Ftd XY29wECpm5ubrvza2pqLXdFuVrEwswmiI5+fn0vRGdYIPxrgpGB4eNj17eDgYCzGqdlvkLw5jBuY aTQyPz/v2kIdxpy5/Wm0ll7GF6B6enqKMfaRpZ0NXpYAqKJxNxCTmPjTAEyKGCyYM1gwPz8//T28 5kl8VxRQ4arLJi9L2BiI8YZ28jG2xyyt/b5fBKCiXziZSnLR/t0q+0tUA3kBKuIXyTfK3CH++fz8 PPq19nMJNeADUMGgSp4/7Ye4KVljcckm3YHU7e/vV8VhFaHKlgIq6GaHhoZCRYnCGr0SaKpx1UCx BqiKGF6t+w5cBiAKYCyx8YWa2YdEabanp6dVjzw5OQnIpUFb+vr61GNU9fCKFvIFqCAakI07/TM2 NvZnpvZaNQPaMejIWmV5bGo11PzvLy8vYZwSJ7ts6vIQ8tdFTymhQyeRs0Zqc9BZvhyN1uJl8gZU l5eXzgsGg6w2mB1AXWQKjrhGyvdbXoBqd3fXGTN4P2I0Nym/BpoFVI38h+T/k3ct4Epj9Gzke5qt 01JAhZW3li1JlNbIFT9L3DA0YoBKo6X2LkO8Ez66jCVOQrVgO+2/npmZCSc2LESaiQ3RgVAtkziW sWfSnAZ8ASpawbMgpGCcsLF+eHjIbNzb21t4qkHfaupkPtQK/NIA7j+wv9I3UNPnEXyMex8WT3nn 8B7RnFDR2L29vViOKthGTerTQJ6AipACNmDb29uqtZqWw+qIpwxz3OR/DbBXw9gkcwRjknaOJOmQ HJLESfLM9fX1wlg9k9pjf9dpoBWA6vT0NBx7zOeyUum3FFCxcOFyg9951ufm5ia4uroK2JDKpGaC 397ehnXZ1GgnuQEq3eRp91IEHwuDV1byOM3/yotZTpuwZGvAEbSgkhiU/EWa+AxNW6pcxiegoj9g /pJ1hYztWZZsWCSlPHWLoviuYp9zwsv8IXYRVxFc7XwKfRc9ecY1TJuslxx4UP/KWNjf3/fZtEpp uxWLAAABFElEQVQ8Ky9AJUlDV1ZW6iICIh6DE1HtXqIKnQS47OrqCsc57lZphExZOmHfJkQDc3Nz LiVOVh27Xw4NGKBK7oeWAqrkZiXfGR8fDyc1pwWNigGqRjXXfvXY/HZ0dLhxQ4xMM9YNXAnl1Atf Xg317sLCgvtuymvzHLWflottsU9ARcvJJSYEA5CIEFeTJGwAp6amXJ9C4UruFJP8NACAwh2I+QPx Qx4pEThpElDEiSMGPI0cHR3FAJXFgGi0Fi+TB6AiryUsYHgRXF9fO8MtBtekz93dXXBxcREsLi4G nZ2dARbxKgt9gpv86+uri2uSmGSZI1xJdQPpEykk2E/hPq0RwBlxL/IMWDZN2kcDBqiS++ofAAAA ///5sJiBAABAAElEQVTsnQe4FEXWhss1r4qKAbOoKChGDLAGQMUs5oQ5gYoBxRwxJ8yoGDGhiAlF FDOKimAWM+piAnOOu+v+9Z+33Brn3jt9J3WcPvU8lxlmeqqrvq500neMzVD517/+ZXv16mWNMe5v 5513rrn1n3zyiV122WVdPa+88krN9egPs4HAxRdfbGeffXb3vM844wz7f//3fzU3/KqrrrKzzTab q2uttdayb775ZmBdEyZMsAsttJC7do899rC//fZb4LX6ReUI3HvvvQ7TLbbYwn799deV/7CVK0eP Hm3btGnj6t1tt93sDz/8UPLqUaNG2RlnnNHOPPPMdujQofa///1vyev0w/AQ+PHHH+3+++/vns0C Cyxgn3766fAql5peeOEFO8ccc7j6//a3v9kzzzyzovoHDx7sxgF70jzzzGMnTZpU0e/0or8Q+M9/ /mP32msvh/2QIUP++qLGdx988IHt1q2bq8+fFap5XXzxxe13331X490b42f0/7TTTrObbbaZ3Wij jeymm25qN99888Ifn2+yySZ24403tn369LHsqczRcuXTTz+166yzjns2HTp0sO+++265n+j3KUNg +PDh7vmtvfba9vvvv4+ldTfeeGNhPs8///wWWSCNxaSxUUFtUoEqCBn9vBwCHHovueQSO9NMM1kO TGwA9ZTbbrvNLr300m6Sd+7c2TLhiw/gvL/lllvsYost5q4ZOHCg/eabb+q5pf62CIEoBCqqf+ih h+yKK67onhmHhUceeaQgBE+bNs2ee+65dt5557VzzTWXveiii+wff/xR1Cp9GyUCHPI43HE4bt++ vR0/fnxot0PRccABB7i6qZ/Dwr///e+y9ffr16/wm/XXX9/+/PPPZX+jFzRFIEyBCuXoGmusUXgm 1QhS/tp6FW5Ne6f/8wh8+eWXljni5+9zzz3nv9LXDCGgAlXww1KBSjZPtVAFD5BG+gaB3Gu5sTBd ccUVdXWPcUN9s8wyiztgr7rqqk6Tx0F8tdVWs3PPPbft2rWrvf322+2vv/5a1730x00RiEqg4i5o Tfv37+8smlgXu3Tp4p4jgjNWzh49ethHH33UchDUEi8C77zzjuU5eKFn+vTpoTXg2WeftfPNN5+r m9fHH3+81bqZ0z179nTXs55cdtllrV6vX5ZGICyBCiXWlltu6Z7HDDPMYGv5w0I9efLk0g3VT2tG 4JdffrFHHHGEezZgPGbMmJrr0h8mi0BSApWfz3gopNVCNQOPRjanTBTRGBpx8TGPPfaYa6+4/Bk5 rNbUdjE9mw022MC89957Rg7GRg7DNdWjP8oWArKwm/3228+MHDnSiKXBjBgxwojrQs2dYEx+9dVX RlyGzBtvvGFkUzdy6DYLL7ywEXdA07FjRzPnnHPWXL/+sDQC9913n9lmm23cenDTTTcZOQCXvrDG T+WQZ+Swbp544gkjApaRxdwsuuiipnv37maZZZYx4h5WY836s3oREMHH7LDDDubzzz83YiEyF154 YShzjK3whBNOMGKFdE3cddddjRwe3LMv1ebnn3/eiBuUEcuzERcoc8899xgRrEpdqp+1goBYeY0o pgzzWFz+zCGHHNLK1cFfiRu3+fbbb1ESB19U5hvxXjBt27YNfOZlfq5fl0CA5yGuseb444834iZt RPHg5m2JS/WjDCBw6623mt13392IFd88+OCDRhTHkbf6999/Nz/99JO7D3M07P0+tA7IYM9MQSr9 xz/+4bQcAoDt3bt3zW3XGKqaocv8D4m5wYrEGOrUqZOdOHFi5vuUtw5EaaHKG5ZZ7O8dd9xRiHcb NGhQaF0gDoRYR9YGNOnEy5Uq7EXe3Y9Y3Ndff73UZfpZBQiEZaGq4FZ6SQII3Hzzzc6Lg7hTYhMr caVNoJl6ywoRSMJCVWHTEr8sUy5/xMGMHTvWXn/99e5PtMc1A6gCVc3QNcQPv/jii4J7CMGxKlRl 67GqQJWt5xV2a9kLrrvuOjvrrLM6gpDzzz8/tFvgnnTqqac64hkCoE8++WT79ttvu/oRpCCa2WWX XZzQhfvna6+9Ftq981iRClSN+9Q5fBNvioKib9++hXjUxu1x4/dMBargZ5wpgSq4G9V/owJV9Zg1 2i/E3dOusMIKbrFfc8017ZQpUxqtiw3bHxWoGvbRVtwxNN3ivluwJokrSsW/LXchh3yUdxAcoFnH CgWjJ/9fYoklnPXqsMMOs7CWaakPARWo6sMvrb9+8cUXrbhJu/kJQ2BYbKxp7W9e2qUCVfCTzlQM lWg5QisaQxUalJmu6MknnzT77ruvmTp1qhFKfhdbhQ+9lnQjEHUMVbp7r63zCIiLniHW6YEHHjDC /OfimIQQxn9d9yt++8RGErclVm0j1OhGLNoulk6sVy4mpO6b5LyCsGKocg5jqrpPbPqee+5pxPPD iBLCzUuho09VG7UxtSGQRAxVbS1N4FfBslZjf6MWqsZ+vtX0jjgJz+4Fax8uP1rSjYBaqNL9fOJs 3UcffeSYGGX7dLTMrO1asoOAWqiy86wqaSnpQchTxXzEsqsusZWglp1r1EIV/KzU5U8mvdKmBw+Q vHyDUEW8BJsASSaFVSYvXc9kP1WgyuRji6zRJNcmbQHzF8KZvCdmjQzoCCpWgSoCUBOqknm34447 unm4yCKLWGHCTKgletuoEFCBKhhZFahUoAoeHTn75tprr7VC6+o2g2OOOSZnvc9Wd1WgytbziqO1 JGH2lmYC4Dmoa0k/AipQpf8ZVdJCoa23xBWi1IAhE/IwLY2HgApUwc9UBSoVqIJHR86+YUNAkCKB HIIVFK98piV9CKhAlb5nkoYWSb4bO9NMM7k5fNJJJ+n8TcNDKdMGFajKAJSRr6+++mo37yRPkD3n nHMsTJxaGg8BFaiCn6kKVCpQBY+OHH4DLfKBBx5Y0LLdfffdOUQh/V1WgSr9zyipFh555JFu/kLX zDjRkm4EVKBK9/OppHWS1NrOO++8bt4deuihKkxVAlpGr1GBKvjBqUClAlXw6MjpN7/99pvt37+/ 2xzatWtnSSKqJV0IqECVrueRptZAp+7nL7TNjz32WJqap21phoAKVM0Aydh/77///oKr7UEHHWR/ /fXXjPVAm1sNAipQBaOlApUKVMGjI8ffkDOjOLj26aefzjEa6eu6ClTpeyZpatGXX35pt9pqK6cU 6dixYyExb5raqG35EwEVqLI7EoQW3TH5ETe13nrr2W+//Ta7ndGWV4SAClTBMKlApQJV8OjI+Tcf f/yx7datmzuULb/88soGmaLxoAJVih5GSpvy1ltvWYQpDnvdu3e3n3/+eUpbmu9mqUCVzef/2Wef FfbHlVZayU6ePDmbHdFWV4WAClTBcKlApQJV8OjQb+yECRNsp06d3KGsS5cudvr06YpKChBQgSoF DyEDTRg9enQhHcJOO+2k7kgpfGYqUKXwoZRpkiS8dulFUFbgVjt+/Pgyv9CvGwUBFaiCn6QKVCpQ BY8O/cYh8PLLL9tlllnGCVW9evVSoSoF40IFqhQ8hIw0gRxzc845Z4H5D+IZLelBQAWq9DyLSlrC /CFXI8LUwgsvbB999NFKfqbXNAgCKlAFP0gVqFSgCh4d+k0BAXLcsHmwiaDp/vnnnwvf6Zv4EVCB Kn7Ms3zHCy+80M3dv//97xZ6Zy3pQUAFqvQ8i0pacsoppzjlxCyzzGJvuummSn6i1zQQAipQBT9M FahUoAoeHfpNEwSgUJ9tttncwaxfv34WNkAtySCgAlUyuGf1rszVo48+2s1dko4++OCDWe1Kw7Vb BapsPFJyMl5yySV29tlnd/OI9ASapzEbzy7MVqpAFYymClQqUAWPDv2mBQIkLEQzN+OMM9rjjjvO /vHHHy2u0Q+iR0AFqugxbrQ7wPyHyy5W5qWXXtriyqsleQRUoEr+GVTSgscff7wQj7jPPvuoQrES 0BrwGhWogh+qClQqUAWPDv2mJAIXXXRRweVhyJAhmsSwJErRfqgCVbT4NmrtH374oV177bWdULXC CivYqVOnNmpXM9MvFajS/6ieffZZp4RAGdGnTx8LKYWWfCKgAlXwc1eBSgWq4NGh35REgMShuDuw ucw999yWBUZLvAioQBUv3o10NyxTiy++uJu/xENq7pxkn64KVMniX+7uH3zwgV155ZXdfMHC+9FH H5X7iX7fwAioQBX8cFWgUoEqeHToN4EI/Pjjj/bAAw90m8y8885rx44dG3itfhE+AipQhY9pnmp8 4IEHLLFUKEUGDhxoUZJoSQYBFaiSwb2Su+Im27NnTzdPYLrVXFOVoNbY16hAFfx8VaBSgSp4dOg3 rSJAYsMePXq4zWbJJZe0uEVoiQcBFajiwbmR73LdddfZWWed1bnvXnrppY3c1VT3TQWqdD6eX3/9 1e68885uf2vbtq0l/YAWRUAFquAxoAKVClTBo0O/KYsAMRleqFpsscVUg1cWsXAuUIEqHBzzXAuE Msccc4wjmIFO/aqrrsozHIn1XQWqxKAPvDHClHdrJ4fbPffcE3itfpEvBFSgCn7eKlCpQBU8OvSb ihB45513bOfOnZ0mb91119VA94pQq+8iFajqw09//ScCP/zwg8srh+vf/PPPbydMmKDQxIyAClQx A17B7SBewnrLvLjssssq+IVekhcEVKAKftIqUKlAFTw69JuKEXj++eftUkst5TYgAnfxPdcSHQIq UEWHbd5q/vzzz+0666zj5u7qq69up0yZkjcIEu2vClSJwt/i5nfccYfFYoswddJJJ9l//etfLa7R D/KLgApUwc9eBSoVqIJHh35TFQLk6ZhnnnncRrTrrrva77//vqrf68WVI6ACVeVY6ZXlEXjjjTds p06d3NzdYostlPmvPGShXaECVWhQ1l3RE088YRdeeGE3D7bZZhvdw+pGtPEqUIEq+JmqQKUCVfDo 0G+qRuDOO++0BPCi3dtjjz3sL7/8UnUd+oPyCKhAVR4jvaI6BF566SW76KKLurm7yy67aK6d6uCr +WoVqGqGLtQfvv7664Xxv9lmm1lIl7QoAs0RUIGqOSJ//V8FKhWo/hoN+i4UBK688ko788wz27/9 7W/2nHPOUUrmUFBtWokKVE3x0P+Fg8DQoUMtQfgzzDCDPeqoo8KpVGtpFQEVqFqFJ5YvP/74Y9u9 e3enTFhllVXs+++/H8t99SbZQ0AFquBnpgKVClTBo0O/qQmB//73v/bss8927GEzzTSTveKKK2qq R38UjIAKVMHY6De1I8DcHTRokDtYzjjjjJq0u3YoK/6lClQVQxXJhd99953deuut3ZhfYokl7KRJ kyK5j1baGAioQBX8HFWgUoEqeHToNzUjAO3sgAED3CY1xxxz2JEjR9Zcl/6wJQIqULXERD8JBwGC 8Pfee283dxdaaCFLbKSW6BBQgSo6bMvV/Ntvv9n+/fu7sT7XXHNpgvpygOn3TslESMPaa6+tMXbN xoMKVCpQNRsS+t+wECB+CnIKFp82bdrYm2++Oayqc1+PClS5HwKRAvDTTz+5GEjmLkm7YfHUEg0C KlBFg2u5WrHGkmsKSyxKv2uuuabcT/R7RUAFqlbGgApUKlC1Mjz0q3oRgD59o402Kmi7J06cWG+V +ntBQAUqHQZRI/Dpp5/aVVdd1c3dbt262Q8++CDqW+ayfhWoknnsuG7NMsssbnyffvrpGuubzGPI 3F3V5S/4kalApQJV8OjQb0JBgIMZBzK03SuvvLKdPHlyKPXmuRIVqPL89OPrO+5+iy++uJu7W265 pcWVV0u4CKhAFS6eldQ2ZswYO++887px3a9fP801VQloeo1DQAWq4IGgApUKVMGjQ78JDYG33nrL rrDCCm4DI4noJ598ElrdeaxIBao8PvVk+jxixAjH/IdC5OSTT7Z//PFHMg1p0LuqQBXvgyU9QPv2 7d1eBBnFN998E28D9G6ZRkAFquDHpwKVClTBo0O/CRUBkod26NDBbWTrr7++nTp1aqj156kyFajy 9LST7+v1119vZ511Vgtr5xlnnJF8gxqoBSpQxfcwiQXs2LGj24O6du1qcUnXoghUg4AKVMFoqUCl AlXw6NBvQkdg9OjRtl27dm5D22677ewPP/wQ+j3yUKEKVHl4yunpI1YpT6dOAD8JvLWEg4AKVOHg WK4WEvWut956bu9Zbrnl7CuvvFLuJ/q9ItACARWoWkBS+EAFKhWoCoNB38SDwC233OJYlXAhOuaY Y9R/vQbYVaCqATT9SV0I/Pzzz3bbbbd1B1LiqsaNG1dXffrjPxFQgSr6kcDYPeigg9zYXWCBBTQV QPSQN+wdVKAKfrQqUKlAFTw69JvIELjwwgvt7LPP7ja4s846y/7f//1fZPdqxIpVoGrEp5r+PuGm W0wwM23atPQ3OuUtVIEq2gcEPfpJJ53k9pp55plHk1VHC3fD164CVfAjVoFKBarg0aHfRIYAm9wl l1ziYjL+9re/aVxGlUirQFUlYHp5aAi8/fbbtnPnzu6Auskmm2gcSp3IqkBVJ4Blfg4l+gwzzGBn m202O2zYsDJX69eKQOsIqEAVjI8KVCpQBY8O/SZSBP71r3/Zfffd1x3MsFYNHTo00vs1UuUqUDXS 08xeX6BT97GQe++9t7rt1vEIVaCqA7wyP7322msLnhD9+/fXXFNl8NKvyyOgAlUwRipQqUAVPDr0 m8gRwLe9T58+TqgiL8jYsWMjv2cj3EAFqkZ4itnuA3TqsP4RC3naaadZBAMt1SOgAlX1mFXyiyef fNIuuOCCbnzutNNOlr1GiyJQLwIqUAUjqAKVClTBo0O/iQWBr776yvbq1cttfFDaTpo0KZb7Zvkm KlBl+ek1RtuJezzqqKMsLrtzzjmnxRqgpXoEVKCqHrNyv3jzzTdtly5d3J7So0cPdUstB5h+XzEC KlAFQ6UClQpUwaNDv4kNAShtt9hiC7cBQmn74osvxnbvLN5IBaosPrXGa/Nvv/1WYE8j4B9XQC3V IaACVXV4lbsa4pQ11ljD7SXdu3e3H330Ubmf6PeKQMUIqEAVDJUKVCpQBY8O/SZWBN57771CsPua a65p33nnnVjvn6WbqUCVpafV2G39+uuv7aabblqwMJPAW0vlCKhAVTlW5a789ttv7ZZbbunGYvv2 7e1LL71U7if6vSJQFQIqUAXDpQKVClTBo0O/iR2BRx991C655JJuQ9xggw0sG6SWlgioQNUSE/0k OQRQhngXq7XXXtt+/vnnyTUmY3dWgSqcB/bvf//b7r777m7vaNu2rb311lvDqVhrUQSKEFCBqgiM Zm9VoFKBqtmQ0P8mjQDCAhsiwe4HHHCABhOXeCAqUJUART9KFIGJEyfa+eabz81biGZ++OGHRNuT lZurQFX/kyINB7kNoUefeeaZ7ZAhQ+qvVGtQBEogoAJVCVD+95EKVCpQBY8O/SYxBEaNGlU4nO25 5572999/T6wtabyxClRpfCraJuYtbJ0cbPv27at06hUMCRWoKgCpzCXkNCT1BuNu8ODBZa7WrxWB 2hFQgSoYOxWoVKAKHh36TaIIXHPNNQVa5uOOOy7RtqTt5ipQpe2JaHs8AhxuYf7DUqDMfx6V4FcV qIKxqeSbe+65x7Zp08ZZRo888kjNNVUJaHpNzQioQBUMXW4FqunTp9tll13WLUKvvfZaMEL6jSKQ EALQMh977LFO6zjLLLPYM844w/KZFmtHjx7t5i4B2N99951CogikBgFiWQYMGODGJwddxqqWYARY 00iOjIvzFVdcEXyhftMCgWeeecYuscQSDrvNNttM18IWCOkHYSNw2223ufG2zjrr2J9++ins6jNd 3wy0XhayhiyyUJt//etfCI1N+idmcTNt2jQjC5B5//33zXPPPWdWXXVVw/W+8JsZZ5zRzDbbbP4j fVUEYkdADmfmsMMOM1dffbWRw5m58cYbzbbbbht7O5K4ocQFuPnb/N7M3/vvv9/svPPORtjVjFgB jMSutJjnknTViCDa/Of6f0UgcgREyDcS/2juvPNOIwdeIxZVs9pqq0V+3zTfgLVMrFGG+VtcmOcH HXSQERIFc9FFF7n3xXsx1/IbsfgZ5rSWPxH49NNPjaTaMJMnTzZrrbWWuemmm0ynTp0UHkWgbgSY k5ISwoilvUld/F8Smpt9993XdOvWzYiLs5F0EU3Ozvwgr3tvQwtULODiKmVeeeWVJos4i7PEpJhX X33V/Prrr0Yoqt1htXgRR6BiwJxzzjlNBpT+RxGIGwEWNnHlMEOHDjXt2rUzV111ldlmm23ibkbs 93v33XeNWOjMjz/+2OTezF9Jhmxef/11J0gtv/zyTnAqVpwgSB144IG5wKkJOPqf1CDwzTffGLGg GiGrMCuuuKIRVxmzyiqrpKZ9cTfkgQceMBdccEGTvZg2MG8lRYQRZkQjOfjM4osv3uKAttBCCxmJ DTKLLrpo3M1O5f0kb6HZbbfdzLhx49zYuvvuux12qWysNipzCPzzn/80/fv3N5yhiwt7L/P0rbfe MnPPPbdZeeWVnaKjeO9FmJKE52bjjTcu/mk+3gsQDVtEQLI77bSTM0/K06z6VQ5kDYuNdixbCJDr xo/lxRZbzIpVNVsdqKG1JKRceumlq563zPU55pjDPvLIIzXcVX+iCISHAHmAlllmGTeGN9poIyuK gPAqz1hNY8aMqWkuM587d+6sxDz/e96iBLa77LKLw5K94Mknn8zYSNDmph0B9l5RVNY8X/Oa/wzt UEMX6ENnnXXWqgfGXHPNZfEV1aIIpAWBDz/80JLwlwMGi51YWNPStEjagUKkd+/eVc9d8BHXFyuW rUjapZUqAtUg8NBDD1lxi3HjeODAgbll/iNXV60KElVu/jniYHsVF3A3loirhVVSiyIQNgLiFWMP OeSQmvbeDh065HaNa3iB6vnnn7fiJlD1wOA3YvYMe5xqfYpAXQhMmDDBCQsIDQhXX3zxRV31pf3H J554omNMo7/V/IlLZNq7pu3LEQLiruuspoxhiRPKUc//6irCwPrrr1/VPAYvcSGyt9xyy18V5fjd ueee6xTEYHL66afnGAntetQI3HDDDVXPVeYraV7Ii5bH0vAClZBSWImFqnpgdO/ePY/jQfucAQRe fvnlJm5EQrCSgVbX1sSHH37Yzj///FXNXyirlS2sNrz1V9EgwAHj4osvdsoBPCaEZCaaG6W81iOO OMKxllajHMF995NPPkl5z6Jv3siRIwtC+cknn2yhm9eiCESFAInKvWW9mvkq5ChRNSn19Ta8QMUT kOC6qg5kDB7oqrUoAmlFAEFjwQUXdON6xx13tD///HNam1pXu77//nvbsWPHquYvrjCN7g5ZF6j6 40QQwEIjzJRuLDN3yaWWtyIMYRZ3+moOaGussUbucysJ+YQVQiKH2z777GN/+eWXvA0d7W/MCAj5 hBUSnarmKpZTIYuKuaXpuV0uBCo0OyRZrHQRR8NNAK0WRSDNCJDQUWj93bgmxoBg5UYs2223XcVz lznevn17PXA04kBogD7houvd3oiDFHa7BuhV5V0gDpT5WelezHWHH354bl2IQFZo0QuxZ+Td46Cr RRGIGgFimHGdr2audunSJdfjMxcCFe4CQvFY8cBAgya0pFGPV61fEagbAaH1d8oCNEPHH3+8/eOP P+quM20VeFepShf2XXfdVd1h0vYQtT0FBN5+++0CgxakKzB45qn07Nmz4r2YOX/XXXflCZ4mff34 448LIQvLLrusnTJlSpPv9T+KQJQIEKcn+Vgrnq+ST85CaJHXkguBCv/1ahZx6G1xz9CiCKQdAca2 5HZxcQnEZsBq2WhC1ZtvvlmwxFUiVF1//fVpf2zavpwjAFkSB2TG8/bbb58ri+oZZ5xRcRxV27Zt cytEYM3s0aOHGyNLLbWUnTRpUs5njXY/bgSeeuopu8ACC1QsUOWdPCYXAhWD8JRTTql4UJx66qm5 djGIe9Lq/epDQJLvWUmk58Z3mzZtLHEKjVTQeFUaR4U2DdIOLYpA2hHAZXfOOed08xayhrwU8iZV 6oK/4YYb5jJ3108//VSgR4cYYOzYsXkZHtrPFCFQzd6LZxcsxHkuuRGoHnvssYoFKl288jwlstl3 yBv2228/N8bnnXde++CDD2azIyVajRVu//33r2j+rrbaavbTTz8tUYt+pAikDwEUfTPMMIOFSOX8 889PXwMjaNEPP/xgF1pooYrm8wknnJA7911iV84++2w3LmaffXY7bNiwCJ6CVqkIVIaAJ9Ip5x1C 8u287725EagIhl144YXLLuIs9O+++25lI02vUgRShADByt61dckll2wobdHw4cPLzl0W/AMOOKBh yTlSNNS0KSEhgHW5b9++bmzjWvPEE0+EVHN6q6HPlQa733HHHentSEQtI/8PFjys7cTIKj16REBr tRUhcOWVV1bkorv55ps3XLhBRQAVXZQbgerHH3+0ffr0KXso22GHHex3331XBJG+VQSyg8BHH31k yaGGcLHEEkvY1157LTuNb6WlBPLjzlhOS6ba3FZA1K9SiQAU2Lvvvrsb2zDgEV/V6IVDWrm5jICZ N/ddcviQd8srh8ijqUURSBKB9957zyWTbm2+woyNNTnvJTcCFWb0Sy+9tOwijkaIa7UoAllF4K23 3iqwiK299tp26tSpWe1Kod1ffvllwfoWtLATjzJ+/PjCb/SNIpAVBFCEeOsy1MP8v5HLCy+84JIc B81lPif/VJ4YEBGkvSvkVlttZb/99ttGHgLat4wgQDqWlVZaqdWzM2EGxITmveRGoOJBE0fVGgUk Uvbo0aPzPia0/w2AAJvz0ksv7RbBTTfd1CKQZLng9gItfGsHsE6dOllohrUoAllEAGsMVmXGOO4z xEU2aiHWolzSULxF8lKwwK+55pru2Xft2tVOmzYtL13XfqYcAViDDz744Fb33g4dOujeK88xVwIV pkt/yCx1MFtkkUUaxkUq5XNUmxcDAigQfP41cjNVckBLM+U6+WgI4C81d/ls44031niDGMaV3iI6 BG699dYC8x9ELK25fOEqCKtWFvO+oPUmGXnQXEbxeeaZZ0YHdIpqxgq3ySabOCxQCr3xxhspap02 RRGw9vbbbw+cq8xh2Di15EygIhjWL1ylFnLco1jotSgCjYLAbbfdZqHdZbzvueeegfluGPdHHnlk qs32xIO1a9eu5MKOoHXMMcc0ymPTfuQYgZtvvtmx/pGsmxxzpUgJsMRiwSHO6KWXXsokWvSz1D7M Z8zzcePGZbJf1TQatz7ykNHnRRdd1L744ovV/FyvVQRiQQAL6vzzz19yvuLZRW45LTkTqHjg5PsI WsQ5cGpRBBoJAeIBCQDncMbCBzVz8wMaOU/23XdfZ/1Jc94XyGK6detWcv5CWHHnnXc20qPTvuQU AebsoEGD3Dgntwva4eIyefJku8466xTmwYABAzIZ94t1LYhoZvnll7cQSWW5lIvFJh1E//793XNE 6QUhhRZFII0IfPXVV5bQgVJn59lmm80+/vjjaWx27G3Klcsf6KKxL7WIzzrrrPayyy6L/QHoDRWB qBFg4yZZNUIVrjSXX3554ZafffaZ3W677QoLJZaeG2+8sfB92t54NrTmCzs08Ro/lbanpe2pFQGE CU+nvuCCC9pnnnnGVTVmzBi7zDLLFOYr84DD+JQpU2q9VWK/Y+0JCnbHapPlguvmcccd16rLJusw z481efDgwZkUirP8jLTtlSPgzxDN913+j5W8knCCyu+W3StzJ1CRj6pUHBWb1qRJk7L7JLXlikAr CODShyabBfDvf/+7s+YQ+IxFqvkiueKKK9pvvvmmldqS++qSSy5x7lDN27zeeusl1yi9syIQAQIQ N0BQwFiHwIEDeCm3G5Qghx56aAQtiL5K2Oyaz2Us6RdeeGH0N4/oDiQuZg2lX7ghl7K0kV/Lx7ce fvjhlgOrFkUgzQiMGjWqJDMnlqs0x17HiWnuBCrALWW6RFPWWgBwnA9F76UIRIHAzz//XMjFhlZ7 tdVWa3GY8Yebk046KYom1F0nTGiLLbZYk3ZzoMRFSosi0GgIQKTU2jz18xW6bajIs1YgnsBy7vvB 6yyzzGJfffXVrHWl0F6UPsX92WyzzewHH3xQ+P7ee++10ExzzSGHHJJJUpFCZ/RNbhB4/fXXXZxf 8djmPdZVLX8ikEuB6rTTTmshae+11146JhSBhkcARinIV5ovis3/T4LRd955J3V4QCyz+uqrN2k/ B7KHH344dW3VBikC9SLwxRdfBMYNFs9ZlAq4CGatwEQ633zzNZnPrD1ZJYci1sRbp4qfD7Gfr7zy ivOC8S6b66+/viUuVIsikAUEUMiWOjs8/fTTWWh+LG3MpUD11FNPNcn8jIvB9ddfHwvgehNFIEkE HnroIbv44os3OcAUb/zF78k9US6wOom+NKdbRtubpwSgSWCu94wfgTfffNMJU+xPxfMy6D1xhO++ +278Da3jjrjHdezYsUn/+vTpk1kXIrT1M888c5P++Oe11FJLWf74P1ZHErBrUQSyhMDee+/dZGyz 5jR6EvJqnk8uBSp8mn1GchY3FkBoIbUoAo2MwIMPPmgXXnjhJgui3+xLvSJ4pXFeQCxT7CbUq1cv dddt5IGbw75hcQ0ibCg1V/1nF110UeaEEejffft5HTp0aCafOMLhGmus0aQvxf3y72FuhOFQiyKQ NQRgDIbVz4/lnXbayTLutfyJQC4FKgJAd95558KgWHnllTPrYqADWRGoBAH8+tu2bVsY835BLPd6 1FFHpc7H//PPPy8EdNP+c845J5WWtEqei16jCBQj8Pvvv9uzzjqryfguN0eLv0cJUhyvU1x3Wt9f ffXVBRd8lJtZjZ+65ZZbmih6ip9L8fs55pjDnnjiiYE5AdP6nLRdigBW1UUWWaRwjoAZO41eLEk9 qVwKVICNpO0XOVyImufmSeqB6H0VgTARYFxDmQ6znx/v1bzCRJW2ZJP0ad111y3054knnggTMq1L EUgMgREjRlgsGNXM0ebXQvSQpUMOVnCIKOgHbIbTp09PDP9ab/zll1/aDTbYoOLnBlU6cdtKN10r 4vq7JBCAzW/NNdd045wx/OijjybRjNTeM7cCFWxhDAgW8eHDh6f2AWnDFIF6ECBmiiDv5oeuav5P 7qc0KRw4LKLhpQ9Z1MjX8zz1t42NAGQMw4YNs0sssUTNc3bRRRe1WHGzUugziXyZz/369cukt8jI kSNdYvRq1lWu7d27d+YsilkZV9rOaBA47LDD3FxNK3FVNL2urNbcClSw8eDqN/vss2cukLeyR6tX KQJ/IkAW8x49etR8QCPp9fjx41MFJ4IiBxISgKoPd6oejTYmBARQ+EG3Xe0BneshsTj99NNDaEV8 VfTv39/19brrrovvpiHdCfYzWPxqeVb8Zq211sok5X1I8Gk1GUPgvvvuc2MdlkpclLX8hcAMvJVJ navy008/mX/+85/mlFNOMcKtbwYOHGjatGljfvnlFyPB7kYOkEZ8uY3k6jESd2Ik6a+R3Dfus1wB pZ1tGAQY80LmYE4++WQjyoSq+yUCmRk7dqwRBUTVv43iB0InbcQ9yM1dyeViJBGxkTxyRuIjjRwo jdBIu3nM/JWYhSiaoHUqApEi8Ntvv5krrrjCnH322Ubotau6lySvN0JsYTp06FDV7+K6WA5irk9i nXJzVQ5p5thjjzXi8mg22mgjI26P7vO42lPPfYQh2Oy///41V9GpUydz1VVXGdZYLYpAWhEQzxDz 7bffGonRNBtuuKER66o5//zzjaQycXss52UhrEhr82NpV0MLVAwAhCTJ/2AkDsQIDa2RoDojLH/u cw5hbFoIUMiV4h/qFnFxBXSHMvHrdgOEQySHsgUWWMAd4jp37mz+8Y9/mGWXXdb4a2N5WnoTRaBO BJ599lkjSXuNpA5wY77S6lgohX3LCG1qpT8J7TrmsbgcGqFnNRKwbiQ/lhF6aPPAAw+4g5fEeRkO aFzHH8IUfwhWzG3+5p9/fiMUr27OinuRkVwxRlyjnJKEa7UoAmlEgH1p3LhxTnHw2muvVdxE9qWj jz7aCGFLxb8J80LajXIDxQd7LnsvSkwOY3zGfOUgxp5LYR8WN0WnuESYQqHJa/v27d0fQgf7rlCs u/lM/9JQOF/07NnTnS9qaY+wpBnJi2nonxZFIGkEmLOMafZX5qzEN5oPP/zQfPzxxwblB0pL5i17 MfNTcsi5c4Q3REisthHSCrfXSr41d15eYYUVnHGCaxq9NJxAhfZdglrNSy+9ZCRY3Yi7k9PIM1B8 YbHmwfOK0MSBi8NXcWGh5xDH4GHxZzBxWPOF33EgQ5smpk8jyUaNUFKbOeec01+ir4pAKhEQFxUz ZMgQc+GFFzrLTqWNFLcW88gjj7iFtNLf1Hod8xiFx6RJk8yTTz5pxOXQfPrpp24+FtfJvGWhZi7z noMWhzkvXDF/mcfNC3Oew9omm2ziNMPi/uus0Vi0tCgCaUOAPW3QoEHmpptuKjmeS7UXxYEEjbt9 qtT3YX+GFVzywTmFBwob/hAC2T+Zk8WFOcseWqyQ9Purn7P+//53/KZdu3ZOmSkEEKZr167u8Iai MykBS8itzJFHHun66NtZyavkzjMSi2KOO+643Gv1K8FLr4kGAQQk5izri1D5u/194sSJzujglR3+ zuyvzFnmIe/584oTztfss6V+gzFC8q65fRbLluRic4JYI3qONIRAxaB44403zPPPP+/cmp555hk/ BtxCi2ZagtedwIMmyP8fyxMLmwQAO6HK/4hBwqFTGHjcYENz9sknn5ipU6c6yR0NGxI6r74gSG21 1VZmu+22MxzOsF5pUQTSjADKBjZ0rLeVFBZS3AZ33HHHSi6v+hqUFhI7Ypi/WJ+YzxyufJHccW4O c4DCDZc/tGG84rKLkIQljfnLmsBBDlcp3BSYw9OmTXNzVhi53Gux6yMKFmEONNtuu62RmAZnwWLz 0KIIpAUBDisXXHCBkRQITfae1tp34403mj333DMy9znmGlpsFJiS585IbKPbN32b2F+Zt8xRtNns w8xZ3uMixLxjznIYY67yfwQz3jM/PxTtOPOVQx+v7LvFpUuXLmbTTTd1LkiSt8t5kRR/H+V7NPko ZLD6V1NWXXVVc+qpp5qtt966mp/ptYpAaAggQHFmHjNmjFO64PXhC8pJQlzYZ1FgMH8xHvB/5i1z lPnKK3su+zZ/Esvs5ij7LPWjEGXf5T1zxRfqRrBi7rDXYslqlJJpgYqDEr7HWKJwBeIBUhgE6623 nntYxFkgEaONZqCEURg4CFe4L3AYRaJHg+41avivS4I/dziTfFeRbWZh9EXryDcCHFI4dOEahAKh XMESi7DDHAur4JJ71113uYMJFikEIQpCEnEFQtPqXAdQhLCw475Xa2GOoghhkeew5ucv98XtiMKm wUGNNWSfffZxm0ut99PfKQJhI4DSgbiqu+++u2zVKPeIpeJQFGZh7xVmOydEsfdiPaZgKWKNwCUe rTQKTAQo7l/P/svaxOEMt0FcCJmv7Lv+vmjLuR9zFsUmXiNRF9as3XbbrYnSp7V70v9jjjnGEPMZ 9vNo7b76nSLgERg9erQhXvGFF15wAhUKEQpnViy+66yzjnOrxcjAHo87fa0FpSb7LHP0/fffd3vt 008/7XgLfJ3EeLLXbr755mabbbap636+zkRfBdDMFXI3iMuSy1kh4DEiHGUpOSzIsk7yMdFwxdIv 0Rrazz77zMoC75iVRHBz7aFNYrVyTE2jRo2yommPpT16E0WgWgREyLDinmNh7fHzqbVXkvnVW7jn lClT7L777mtFY1W4r2i8rGicrbg2WfHhtqKZrvdWrf7ez19xTbKinLGiCGlCfyyWZkfRLhbqTOX2 abXT+mXmERCBxuWXEytqYe4Ezdlrr702tP6K0tJefPHFjiG3+N4iOLn9TxQUlrkih6nQ7lmqIvZ3 1g8Rauwuu+zSJHeXWMMc+6e4ClvmdxQFHLbccsuy2PtnIkKlhcFQNPtRNEfrVAQCEWDMifXYUfSL VbgwZsV6bMnBKm78VgSeyHOiicLSihLTikXXimeMFWGq0BbYtslvdfPNN2c64TXuMZkpLGLi8mDF 4lR4EBzGDj30UCfQiFkx0b5wSGShv+eee6xoyaxoul07RXvmDquiHbAMKi2KQBoRYOwefvjhtnjR 9QeC4lexFNWc54YDjjBrWmHWLMwP0Wq7PDRHHXWUU4aIhSoxeMR1wYrFzIom2UoAfGGdEXcHtwmI hjyxtumNFYFiBCRuwZIIuPhgUjxP/XsJCrdCxFT806rfi6bZ5ccS95zCnBArixULjRW3IQt1OPtf EgXhTbTgVuKZHAW5uCK5NopFyO6www4u5UPYa8r999/fRPHisW7+yt7fq1cvO3ny5CSg0XvmGAHO wwhSG2+8sRV3fTcnxOJkxYrrDBIoPpIS8Fm7SHcCBbsQs1j2Vz93MIxcffXVVrxnMvf0MiFQAT4Z mYvzcqA5RrpGS5XWIuZNt6CLi1JhsBx88MFWXCTS2mRtlyJg7733XivuM4Ux6xc6/yqseFaYAqtG Slx2rATWWxZ1X5e4GLjFXeImqq4v6h9IDIcVmnkrLkyF9rLuYMkSt8Gob6/1KwIVISCxEHaLLbYo jFE/t/wrCotrrrmmorqaX4QgIq6FTeaAuAdZknty37QVPEEQMsWFqKAY4jCJ0hVFThgFTCqx5gsL mj3++OM1T14YoGsdVSFAHju8P/wawFhkTkjqk6rqieticUG0Bx10kF1SlLW+zQh+5NBMSlFTS99T L1A999xzVoLgrQSuOqDJqC65OWyWNMUMFjTyXnMmvqluodVDWS1DVn8TBwIIP2eddVZhzPpFzr8K o6WVQPSKmoIWDFfcYiGNhLxYctFsp73gdnj77bdbCaQtLPa4J9x6661pb7q2LycIYFmVfEhNNL1+ rvIqhA1VW5VxzUGJiZWFOrDYojlOsxKz+HFzdpD8UAXtPG53Z5xxRt2uTQhsKJWK8W3+nmS9KIG1 KAJxIiCkLU7ZwRmTMYlbn7BQWiF6SswaVU3/heDGnnfeeQUvNM7MwkNgERCzUFIrUHl3BglCdwOD RX333Xe3wo+fBVxbtBG3BOJUijOq8x6fcy2KQBoRQDOEtUpyNrU4PHCg2Hvvvcs2m3hGYc6zxEax wGPhIT6KGJCsFS9keldeYiTR1GfRNSFr2Gt7K0MAjW6x4sIf9LHSXHTRRRVVglv66aefblGa8Hti pY444ggXZ1FRBSm6CIUNLokoQOgL65aweVqhiK6plVinsKp7XJu/ck7ZY489LAdbLYpAnAggwKM4 8WMSCw/jPIvx+8RP9+vXr6C4wHIlaV4sckGaSyoFKlxtsOjgqsDgYINAm53FgdH84eM3ShyY1yDg hz5s2LDIg3ibt0P/rwhUigCW1AEDBjRx1WNeMoaDFAIIYyzwCFBci8tBIxw06BdaNALhvdUcxQik NFoUgTQgwHzt27evlTwvhcMVc1BYvMpaZ7A+oQDhev5wbRs3blxk5A5x4QWRFfuud7/nFXKNaskz brjhhha4eqwgwxDG1KrrjAsDvU9jIkB8JGObPZaxKKkJ3P+z4P3R2hPBswV3Y0kzUFiP+vfvb4WW vbWfJfpd6gQqDmgEcTIw0KoRJ9WIrnGYYL2mC60WQfCwBWpRBNKKAIxaXkDyhwhILJorOljgBw8e XFjgO3fu7BbGtParlnYhWOFi5bX4KEZg8YqKVayWNupv8otA8/HJfIWkAYtzUHnsscccOQzXEud4 7LHHWlwJG6nA/Ne9e/fCAQ0iHCzPlRSwKHb79Wsgr1gD1MWvEhT1mjARwGNr1113LYxnyYPq2HHD vEfSdeEBQnyVVxBJKpXUKjBTJVBJfpuC5QZXP1yDGrng9sSCzkbHoowrAvSVWhSBtCIgudfs0Ucf 7dyAGLO4veFm5AvjF4ZLf9hAIfLxxx/7rxvuFYIZyZ/h+os7EQt/XCkbGg5M7VDoCDA+sab6+Yiy Erbc4oLwRWyRJ4uBZat4Thdf2wjv2Xfprz+gEe9EnHO5guugt0p7PLEKnHnmmTrny4Gn34eOADGO nvGaWCmsVGGzWYbe6DoqZP55llEszJdeemkdtUXz09QIVAR9e3O8JAWsaIGLBpJ4a2UCDB8+vNB3 rFb4j2pRBNKKAG4ymOIhiOFgAcMYhzKIYtDU8hkHDUkWnOmcEpXizwEVbb53USaItvmhtdK69DpF IGwEcHc79dRTHcEMQj/u875gXUZB4pV6MIO99957/uuGfSUWAxwgqmC9gloeC11QAUPonb0gxSt0 9bCmpT2uI6hP+nl2EYAOXZLvuvHIPox1lD240Qv5Ir2VGOUGJDlpmn+JC1Qs6LjKeP9PkuVlicEv rAHMYu61DbApaUxGWMhqPVEhQG4aiGIgaSDZr3elIbbqzjvvzMUC77FlUSe+wmuwyf2hgekeHX1N GgHG58MPP+yEAGL+UIrgwrbffvu5Qxlu58Qn5C1PIkH7K6+8ssMA4QqMShUOrGCEIAVJB0oT9SYp hZR+FiUCzOORI0fatm3burGIApOY3jwVlJWcO5iLKDGxNqfFMpe4QIXZztOJI0w1YrxUpYMdmlcv VGHanDhxYqU/1esUgcQQgJbVW2cYt0GHksQaGOONSemA+wWLPS68GhcZI/h6q7II4P3Qp08fZ2GG aMYLCCeeeGImaJXLdrCGC3CL9CyABPQTelBcCI73eb4IRYDWOamEqMXt0vf5Q6DY+EAsUV6VdpC7 Eb/tlRysXyQyTrokKlCRx8X7MQNOFqmUw36AaBtgY2KjgyoyjckTw+6z1pddBBD6PU0zsRd505aV enKPPPKIbd++vZvDuCdgydOiCKQFAUhjfPoONN2Qq+S9MEd9rBmhB/fff38BEog82I979uxpEb60 KAJJIHDHHXcUzsvkV8u7sg4CKHJlkpIFV2ZkiKQVHYkJVA899FDBbEk+m59++imJMZrKe3Ioxafb a7nVtSCVjyn3jUI75oX/5ZZbLpBCPY9AYaWD+Y85TBJjDrFaFIGkESDOAkZZGHSJm1Jh6q8nApuY d1vG0k7eSFysNt10U3vwwQdXzAb4V436ThEIBwGUdNDys5/A6kdMnxbrXJdPOeUUhwvr2VVXXZUo LIkIVLi2ebphfJE1MWbLMUAMlddyb7LJJmq9awmRfpIgAl9//XUhSJvYg/HjxyfYmnTeevTo0QV3 5n322ScVLgnpREpbFQcCCAennXaaE6ZwlTn++OPjuG2m7kEeLu/+t/rqq9vbbrvNBfw3Tw2RqU5p YzONAGdBXFERpnA9rZTmP9OdrqLxxIPivoyVavbZZ7cjRoyo4tfhXhq7QPXJJ5/YNdZYww2OLl26 2A8//DDcHjVQbU888YSdZ555HFZkqmdD1KIIJI0AWm7GIws8Vphi95ik25a2+59//vnOJQHtGcGz WhSBpBDAK8RTox922GGJu8ckhUO5+5ILEwY/1rcdd9xRFSHlANPvI0OA8zKu9IxFyFPySNhWCbhY 7Pbaay+H0wILLGCff/75Sn4W+jWxClS49fmcLZAvKD14+ec5dOhQ5zfLgYzM7loUgaQRGDJkiAsG JQcVbH5aWkeAIHY2RJhMNfln61jpt9Eg8NZbbxWEhL59+zpXmWju1Bi1PvPMMy6GmXl76KGHNkan tBeZQgCSBX9eRsDXePrWHx9CFXGOzFniurE2x11iFajw14YNDNpR8thoKY8A5kyShTJI8KF96aWX yv9Ir1AEIkKAhJ8+dwuUywSGamkdAeipt912WzeH0TaSHFmLIhAXAhzMPEsdzJONnGg7TExvvPFG pzjivILrnxZFIE4E/HmZVByjRo2K89aZvdcrr7xSUITAZhq3q25sAhVmdJ+496STTlL3tSqGLLz7 JDtGqNp66601nqoK7PTS8BCAhdOTUHAw++qrr8KrvMFrIllq586d3RwmqBhFiRZFIA4EoBRm72jT po19+umn47hlQ9wDZRGHMrDDo4bDmhZFIA4EsJDiusbYg3QhD0l7w8J1+PDhhUTlt9xyS1jVVlRP LAIVh4fevXu7wbH55ptbAtq1VIcARB5+giXNZFJdy/XqRkCAwwU541jgGYeaeLr6p0oMC26SBM+y 6GtRBKJG4Mknn3RsurD6nXzyyVHfruHqh2HXJ/7FypyWBKINB7R2qIDAzz//bDfYYAO312JZ1nRC BWgqegPXADGinFU6deoUq0dILALV5Zdf7jrXrl07+/LLL1cEil7UFAE0FMRT+QPt66+/3vQC/Z8i ECECzFtvYVaq5dqAZqGHfpk5jE/8O++8U1tF+itFoAIEOIh5GnAUmWlIfFlBs1N3ybhx4yxuV/xp qELqHk/DNeicc85xe8Riiy2mPAM1Pl2MNr169XI47rHHHjXWUv3PIheoIJ4gRw2HCA4TylRX/UPy v8D1DypXsIRuXs3AHhl9jRIB/JC32247N+4IktUcGLWjTe4uvx5CDqBFEYgKgVtvvdVRpEOGkhTr VVR9i7Ne9lkfx0xC5LwnVI0T+7zdC8Wlp0g/6qij9IxXxwAYO3asS1tCDGRcTMSRClS4CZHRGQEA 05sGw9YxOv7305tuuslx7bNJjhw5sv4KtQZFoAwC+CGTt2aOOebQGIwyWFXy9XXXXefc/tq2bWtx 5dWiCISNAPTKK664ott7iVlW5Vt9CIMnZxjOMpr+oD4s9delEfjPf/5TiNmDpW7atGmlL9RPK0IA 483222/v5uxaa60Vi+tkpALV22+/bRdddFHXIXUTqmgMlL2IQQIxBQs7CX9/++23sr/RCxSBWhH4 4YcfLIsR42333XdXC3OtQBb9jpjSjTbayGGK5lsJKorA0behIHDuuee68bXSSivZTz/9NJQ6817J tdde6yx+sO2SH0iLIhAmAsQlo2SDCVvTkYSDLJgS8z3rrLPaCy+8MJxKW6klMoEKN6FBgwa5RR1G MPXfbuUpVPnVq6++6kyZZIXWvDZVgqeXV4XARRdd5BhzSOBLLhst4SAwYcIEN4chqVDmtXAw1Vr+ RADNNvHKKEGU7ju8UfHjjz/aNdZYw+E6YMCA8CrWmnKPAKk1yHfGnEVhrhbl8IbEMccc43Dt0qWL /eKLL8KruERNkQlU5Frx1qnbb7+9xK31o1oRYLLtsssubpCQCwhWGC2KQNgIfPfdd3bttdd24wxL ipbwEGAD3W233Ry2ZHjH3UOLIhAGAqeddpobV7j8ff7552FUqXX8DwEsf7g/t2/fXklldFSEhgCU /HPPPbdzBVcleWiwuoqmTp1aYDqN2vI3A3cUqTj0In7GRvjzjdA/GtGSGdGYhX6PPFcosRdm/fXX N7K4myeeeMJIsGye4dC+R4DAAw88YERbZsQSasR0blZYYYUI7hJcpSgKjBCxuDEefFX43wituRHX C/P3v/89/MqLanzssceMsK8ZcfEwYrEy4jdf9K2+VQSqR0AIE4ww+xmJ+TEnnHCCYR/WEh4CX375 penRo4cRhk4jpAFm8ODB4VWuNeUSAVGQG6H5NldccYUR8iczbNgwI8JVLrGIotPge9xxx7m5uumm m5oRI0aYeeaZJ4pbmUgEKg5Cq666qhHJ0EjslNl7770jaXyeKwXjAw44wAmrRxxxhLngggtiP3jm Gf9G77vE5hlh5TQ33HCDETY6I7nPYh9fKGIkKakR/+dY4UbAOfPMM43knYn0vuJCZLbaaivz1FNP GbEAmiuvvDLS+2nljY/A+eef7+bMEkssYUTTbZZeeunG73TMPRRaayesSn4qh7HEVMXcAr1dIyEg MY5GYh2NeC2YO+64wykxG6l/aejL5MmTnXEHBS37LUqnSEq4xrU/iHHJXwAAPmtJREFUa4N9Thpr l1lmGfvhhx9GcQutUxCAChL3A4JkRXOmmCgCoSFAuoM2bdo4RsmkKJcvvvhit46wlsT9RxLjOMpl l11moXVdaqmlNNA9DsAb+B64fvfs2dPNFSiXtUSDAHste+7MM89sR48eHc1NtNbcICBKEDdn11xz TYubvZbwEYDTgTWRc4QYeCKLUYvEQiVUheaee+4xO+20kzOv4ZYWRRk/fryzgEnCvSiqD6wTE6IE uDmtcuBFMXwhNPRG2MLMlClTjOQcMbvuumsMd9Vb5AEBIaMwRx55pNlss83c2Jp33nlj77Ykr3bu rNwYixmavFGjRpnp06eXbIvk7zASW2gkdtO50eG6x1z9/fffjTDpmZ9++slIbKf7e/fdd93nsnS3 qIvfYaHCZSrqwhzGhUiIBIwIV+bAAw+M+pZaf4Mi8NJLL5mNN97YCDOnmThxohEChQbtabLdYk3p 16+fO3vgqoVVMG4rerII6N3DQoCxtM4667j5KqQUbg8Iq26tpykChDBIHk3n7icEW0bY/5peEMb/ wpYFxbRmyfCM1pX8NVGWIUOGOIlTcIj9VTauKLtWcd1kgab/W2yxRWRSd8WN0QtDQwBWTCxD77// fuxaKxFACgmkxdUvtD7VU5FsPJa8diJQ2fnmm6/FfOczLLZBicP5Pd+hqSLVgCghXD4ZLEOl1g/x ua6nuVX91pNTiPuf62NVP9aLFQFBgLHt90OIZBjnWqJD4JFHHnH01pBTkKNKiyJQCwKPP/64lXge R5qgZBS1IFj5b2A/XX755d1+Ty7IKEroFipieY4//ngjBxUXaD3//POHIfeVrANtNf7MFGHJKmig S14sH6J5Xm655Yy4MjWJBxFgjWxIRjYhQ1yDmF3da1A9fP6Pf/zD9a+1a+L4DssU2jL6hG8o/dOS fQQkz4kjHWE8osGS1ANmlVVWcTERSy65pLPARNVLEeSMHMocMYMcHFw8ZFT3qrber776yuHx3nvv NfmpuBe7+VhtPIOkIDBHH320gSCiuBA/dvnllxd/FNl7NGdbbrml4bkS97LssstGdi+tuDER+Prr r40I5ob5yrhl/GqJDgGs5BD2vPjii84LB8u4FkWgWgQOP/xwI+7lbr8dN26cEUNEtVVUfb2k6XBW bO5VifcYZ2O8PPAAwTOreeF7SNKwjIsbbFV1QnQV534njLrm5ptvdp43Y8aMqaitzfvb6v/DltKE pcRJgHLID7vqFvWREPPbb791f/DLyyHLShC7nWOOOVponcnZRMZ4Icpw1+Or+v333zvtP3XIhuQy U5OM+Nlnn7USHGjF/aZkXQKoy0LfokEJfEBuDKRuksERc6KlMRAgcaTXpjDe+BOFgBWB2WIdlYXY CltNJNnUxdXN3W/DDTdMXdJZ4kSa4wI24MJcqKWwdvjYE481SYzjKlgjZVNxzzdqWte4+qT3iReB 1157zYrru7PeCgNdvDev427sveKqaOVwY4m9xquFvRdtPXGcWN6CCr/lWl7jLrTLJ0/eYYcd1LIc 9wMI8X4kr+cv7sJeJop5t9cSRxVXOfnkk22vXr3swgsv7O5NHH6pP84b7Id4cXAWEBbCkk3EGk6q Bur03iOl6uMzXyf8Clx/3333lawzqg/xcBH2XpfSSUIKQr9NqHmoyHkh7H7uISSVUFBiEhwZhj8Y +VfcEBGmqinkihHNtRVKctcnXxevHOBwQUpD8S5DErOWhuZoG0JAoJRAVTz+eA9pRIcOHZyAxYIm FkqXk6zenEYS0+PGO0Jb2koUAhV9fPLJJ12QuccY97u4Cocz8nxxb5IQqrtWXMg3zn1uvPFGN36E FtgKk1VqO8aeiYscCcPFKms7duxoF1lkEef2hCIUxSevErPpDj3CfmYlNthee+21zv0ZJSp1sMYJ K6bL3ZNUwvGHH37YrRkSixG7W3ZqH3AGG8ZzJGebsLo6t9kXXnjB4vYe9fkOhQHnUpTh3DOuguJR 0itYjAcYIFDE+H2v+JVxzbqCezxnexR/QUXik12d9ImzCMJTcV3+vVi57E033eSMH9QJznEWDCkI iBDKsH6EXUIVqIj5wB+U+Kmk2P04cHXu3LnFwxT62JoXPfriM6T7gYGEnYRWo9QAEGp611/amIS2 rlSb9LP6EKhEoPJjkVcWMAmMdocTIYWxl1xyiZXAdCtEDi5mqNLWkJBbXM+cFgeNcdpKVAIVG4KP RwRPyfEWa9eFxMfN4fXWWy/2ZKzElGGl41VL9hDg4LfPPvu48XP66ae3atVJqncoDV5++WUnHM01 11zuEOnXLw6UkqfSKULZu8UNyL1Hgz7TTDMV9nIELZSbeL8gjPmDIHHbSRTiWzkH0A9iYbRkEwGs FsVjkXHVqVMnK+lC7F133eUSOMPsGLaARcwvFhtJcWBR3idRmJdYWH3//SvniWOPPbamJqH02Hnn nVvUSV+jil2qpqGcj+gnbH9hl1AFKqxSNBT6x6QGCFI02gY/MPxrvQIQboBsBL4+Dp0EuaWhoKFj 41looYWsxISkoUnahjoRqFag8uOy+avkSnHWD7RCWLAQsForzGFM4miSsPamrUQlUNFP3Ie8S8Lq q68ea9dx0wJ3rI5o+aIuaAcRuNFA9u/f3wqbo5XkzVHfVuuPAAH2WvY3DkFxu9BU0h3GGlprlK3F 6xPjHcEIV3WJRWrisouCgzkBKY7EJzma8uLfFr9PKq0D2nUUL7TlrLPOqgQKvSaFCNx7771NBPzi scX7Oeec026wwQbOmsP8wr22XmU6gozE/7uxg3s5/0+qDB06tIVFyZM81domLMrNceT8zJ6TdLnw wgtd2/DEac3qVks7QxOocFORBLOuoUJKkdgAiUqgwsWAfvlBItTMzmRaC+hh/waNAC6IbKgPPvhg 2NVrfQkgwCEETa0fb2G84k6DskGoQ90BZ+zYsU0OMXTzkEMOcfdMC4tlc+hrFajYsFA2IFg+9NBD JdcnFBMIkmCNpjzOggYUP3XujVY07MKhWwKH7eDBg51GcrXVVmtywGUDfeaZZ8K+rdYXAwKMa8YN 7kNxCOPVdAlX2q5du7r2Fa9huFeNGzeu4qqwbmGZKq7Dv6+mnopvWOGFQv7h2oRCQks2ESgnUPlx 5l+xnMKk2adPH+cJgrseLLLVFNxye/fu7cYOe1KSBUsZVmLfP17ZB1Fy1Fo4hxbX5+tMyj23uB/E bNIejCK4PYZZQmP5E1czI5K2kUNaoqw3cnAwsoCbN954QzD7q4gGz8ii7Njw/vq0undipTLio27k UGfEGmRkIKYi14ccFl3+HTmIGZmkRiyEjrWwut7p1WlBQKwkjmUSNhrYu6Io3EMO0QZWPNgDRdPq mARhvIN1Tsz9RoKuo7h1XXWKwsSNb1kIm9QjCgXHuCVasCaf+//AUkReKdGcGbE+GfGbb5E7hmvI uyWHQCOxHeaVV14xIoT6KiJ9FaWIYxsU6mtz6qmnmlNOOcWxktZyU3KbiHuKIccVrIHk6yOnF+yl sCSKcqhFtaxnd999t2ObavGlfpBqBORAZsR9xe17oixweVbS0GDYQsmNSO43X8STws1D2M2qzW1H LjoYhCU43o1vXydnDvblJIrEYRhyUbH+kAcsrvUiib426j3F6mTInco5qtoCUx75jMRl1Yg3iBGi BSMER+4zGO/YZ0sViec3m2yyiYGtln1GuAdKXRbLZzDcsu+xZ/giwoaBBU8UsP6jql5FyWHEqtfk NzB/sz4xV5IsYl10LOTICuyP4mYfXnPCks5wDyLYCytJnAF2zdtfj4WK36IpJnCtlMYBJkAfS0XA XpKaseJ+01Y5gLXQCMgo0c8Ug4rHAO5mWLGYw2nwdS4e4/59rRYqYgvJ1cacEOrXwHgh3C+4hrWM tSDOInTX7t6Qy1RLLMKaRUwHsVgDBgxwecRwqWqueQxaE3AXxq1ZS/YQgMiE54rGOy2FuKbmrvfE VhMIXo97E3EskgDV9dePZcZ8UgXSKlwZ8VjJErtiUnil8b5YUypdJ/2YC3ol9AIXQSxY5DIkX1mp XJK4DbLPMm6S4hvwz4IxXByrSN+w3tTDgsfZuDlG7Knvvvuuv21ir8QKSyoa1z7c/MMsoVmokLSR Ztu2bZtoPqRaLVRI50LuYCQQ3wgtsxEWohYabBkgZv/993fXoV3DgkD+mDQUoZs1e+65pyHvF5oS MrfLQElD07QNVSKAVgttLDlOsIZGWYRhy+WXIBcEY+f22283Iki4vBJrrbVWlLeuqe5aLVQfffSR y18lcY/OqkwuDgk+btEG8tphHZKNzqBlQ6sWVxk9erTLbSPueA5/5nBQwaKFllMYmJw1nrGCBZ1n V0tRC1UtqKXjN5KqxJCTUdJ8GImHSLxReKvsuOOO5oknnii0RQ6sbu/EusT7egq5+dDuSzyGq4Zc jFjCkihyGDbdu3d31t8zzjjDpHHNTAKXLN2TvQDvBSz7URS8QMglSW5H1nb2FFE4GHF7dZ4hcqh3 e28U966kTiFUcRbeMC1UeHng9VJc6HcaLFR4aLBWDhs2zEg8lZFQpUBLYnH7K3oflnQmbiVO4oOF p1zge1j3LFVPrRYqgmAJfhXQLFStxByUKgTwwaYG45As5KUuSeQztMu0HX/1tJBlJAJEg9yUOVQq 3xLPuJ4/UXi4WB1yUaDZRVNGPjaKuMm6jO1QisZtnan0sdVqofJMmGCHlTmI0Y65Qw4c2RAcBX2l 7QrjOtnYnYVw7rnntqxHzQv+3tdcc41jnyIYHi1iPWOh+LdYqIix0pI9BIiHEyWMy4uUhtYfcMAB LcYl+XbCpHNnv2OeMIYJgE+qYEn26zRB9/xhodC/7GDg2SKL18Oo3mMJg3GavIPcg/QceBckWfJm ocKjS5QfDn+s3WFSt4dmoULKFqpEp2HF0kN8RhKlVguVkACYzTff3Pmzkg1aArRL+kOjBUazgBYO bZtsHkl0s8U9xZRqhOrTCAWn06zLpG1xjX6QHQSmT5/u/LGbxwpV0wPiFfDpJxu5HGiclgzrJdZV rFHN/bvRVKH5xR8ci7O4jFVzu1iurcVCJcKpEZIN47EUgcoEWahi6UTATYhzAn+hMHeWJ3ElMmj6 iIESBj7DGkUMFGtc2IX1Gm0da1+xpjLs+2h94SEgLkOG+SCKQCN5ZcyZZ55pxP2vxbwO747layLu glhq4hR8YR3Cm0OC+P1Hdb8yRgcOHGiIOeRPyHTqrrPWCrBQsZ4QT6MlewhgmYpjzcMyyxghPhcr iRDImCOPPNLgFUG8VVIlbxYqcPZxp8TOYamScIdw4A9LMsY3WlrkuN1LaVfDuk+5emq1UEEZjE8r fSDGIshChTYfmmGY0sRFp1xzYvueZIn4cmM5SxvTU2wgNNCNaqFN59ljtcACIyZtCwU6li40MLJh lEWH8ezHf5AFp2wlEV8QZKEiQWjzhLhoj2EH8+x59I2/1ixUETe/1erxL8fPnDYKUYizVmF58O2O +pV76V+2MPB7FmMDVlBxbW11jEX5JfMPtrvm45ScPkH7aT3tmTBhghuvgwYNqqeaun8rLpeuz+Qt Yn3Sv2xhIG7uocVQFY99LF8wb5KCg/2YFBVwDTA+9t13XzdmoPBOuuTNQgXeQrzl8MfTQ5SUoT2C 0CxUSNn4oUpAtDnvvPNKxh/JYIu81GqhksSIRga8a19rFqrIO1DjDeQA7thlRLAyQqPrmNtqrEp/ lgIEmltVSjUJjRfslUJx6qyTWF7WXXdd06FDh1KXl/3MW5k32mgjx2DZWgxP2coiuiDIQoVl9oYb bnBxUcQXwY5IXBGfYdUpLmm1UDF3YSvDOghTKZpTGNKwhkddsCIIHbCzSsruEvXttP4QEMDCDDMl awXPDHYx4omIh0uiYEXFy6P5eOVcQHwRFrUwC3GmIkw5hjSsX+CRRBE6d8ceuttuu5nhw4cn0QS9 Zx0I1MPy1/y2otA07du3d/sybLIwyEkISZPLRPHgYv5gVcWbS4SrJt/H/Z88WqjEvb0Q0yakJKGt maEIVCzmBHLjcgCtKa9hL56VDrJqBSqoMs8++2wjGeYLZt8sClS4iHEYw20I+lb6oCW7CAQJVLjv EfiMUAD9KAIVwgQH4noLwgeLO0HukFMk6YYQ1JcggYr1RuIW3MGSQyYuFUElrQKVxJg4+lphSXWU tQQxC0OUgVAD9xDSPuD+J1byoK7V/DnUvxAacAhQgapmGGP9IQIEaz0HesY/wpRYY+smfailE+yj KFUlNrPFz3GHQ9HTqAW3LUiscB8idYmWbCFQj0DF/st+wh+kbAhT/JUiPPKooPDbeuutXeoO9llC ZZIseRSooKrnjMwZCvIcSKhCKbJ51l0I8pK8Nc6EBn03/0+qBLn8EQgI7TluCTKgXUJTAdJRzUIy IWAW/gToSFwUosREBCrnqkg/cF/Ukm0EcPmDHAV6fui+5bBiIS3ApScql9qrr77azQFZ4Fu4z6UF zSCXP8Z9c3e14jld/F42v0BSiiT7SXCyT4KKG0pxYU0lqB9qZhIxnnjiiZZAf9w8RZgurF3F/azm PckqJW9Q8S31fQYQgJyBpMxJ03ZL3J8VC1mLcci4wh29kQv02Mw1wgC0ZA+BShL7srdA1gR5D+kJ zj//fEdcNHXq1AKpU6U9x50eVzPGjFipKv1ZZNcFufxBUlVrkdjfFmsB7uxpoE2nTz4ZOiESuGGG VdBG1l3Y7H0uDASqJEuQQEV+HUk05gYyPq0SlG/Ji1Hq0JFFgUqCkp2vLv0ROtkkH4HeOwQEGMcw 8ElwtxNu4lBSwGDJ+BEK4swJVEL/bkeMGGFFQ2wlAN7im7733ntbFszmczytAhXPGiGJ9orrUKuj iFw+xMbBSsimTO4pfkuGexjGmve53P85KHA415ItBFAKwtxJrAYskEmVt956y5LHrvk469Gjh0XY auQCYyr9hrFNS/YQCBKoiEkX93krREH2tNNOs8w1vx/X00sEKuYFY0bSHdRTVSi/jUKgSnMeKkDj bAXjIoqoMONOQ3P5w9R/1llnOZc//KWJ70iiBLn8VdMWTIFBLH/V1BPntcUuf8SO4LqjRRGoBgFJ 5msksNpIYlkXC5Allz+Yk3CJa85MKAc9x6RE/gtfcM9II8ufWKic265YigzxbOTyqbbQX+Y/PuIw fxKDJRq4stUQd4NPP26GWrKDAOMY1lniHR9++GHndpRE6yXVgGPSbH5v4opwJRU68eZfNcz/xULl 4sZ5DpKKomH6lZeOsO7tsMMOjhEXFz7yJeG+t+aaazpXVdyhwyy4pJO/FFc7XERxFU2ylHL5g2GW vKbE1Yoyt6rm4X6MqzrxYcUlLXmoaBM8Az4n2FNPPeXi0IvbWvP7UERcqcTzukuSLOdSF1a91dYT ZKEiZwUsPOTI2GuvvawMaJcPQIBroVXLooUKFzG0KfRH/EOrhU2vVwSsUIm68SP+3YnO4dYeRZDL n/hCOzfeUr8lp5ZsjoV5nlYLFe3Ees4cRmtab8G1GcuBCJP20ksvdeseOJVa89RCVS/ayfwebwTc gnl+Ikgn0wi5q6QQKTmuOA80Z99MrJER3RjrMHNKFCAR3UGrjRIB3NBuueUW58IHK27UBc8CIW9x YwYm3qRLKQtVqT2i3s/S5PInsacOfxhIw3zmoVioBGhz+eWXG0mS5YLaL7vsMiO+/XwcewmyUJGX iczqBK4TQAvTChnXhT7REVLIYabQ1ixaqMSX12lUYD5Cw925c+dCf/SNIlAJAl5TJ7EQLqN5llj+ CC7FMhOkCZeNy6Atp6TVQgURCcQyEFAQKNs803wlz7C1a0QYNRBfQHKBBYucevxJTJ7LS4a2VC1U rSGYvu8YK7Bysp8xf8WVKPZGyoHQEVFBTNW84Lly6qmn1kxSBWOwpHNwpDvs22i/S7H50Qb++F5i mRzbMO/jKJ4hWBS1BabgOO6r98gmAhAm7bHHHmbkyJFG4pYdqUySPSllocLTg9yVYoioyUIFsy7W 8+KSJgsVHmgwMGKFlJhkl3uzuK01vw9LOkbSlkZYMXuHmhG92vYFWajElBsYzE+Qt8+6Th+yaKFC yyIbiPOlnzJlSrWw6fWKQCE3g7g7pJK0gUdUi4WK3xEYT5wJ8zutFirmMFo8AqDx8Y66YDmA6ELc tezFF19sha496ltq/SEjQAwdcYKiSEgsHoN4PmH3dXOL+VX8h+dKPQVNsrgi26OOOsoRtjA3iuv3 74mHwOuEOFACzuMskBTQDixVWoIRgOQgTGtA8J3S/Q35EQ866CA3Zs4999zEG1vKQiXMwc7TiT2i lj/2FD83/WuaLFTC7OjaR3wce2BYJRRSChojUq5roEh9Fsa5pEprAhUBhUFFsq4XBkAWBSoYuhi4 4hcaapBdEF76eeMhQCApTEa4EDGP0lhqFahg+BTrj5sjaRWoSEK84IILOtY+DspaFIFyCIhHhsWN k3l77bXXlrs8ku8RqE466aTC/ukPULxKOpLQWH9xlYL4obh+3iNkiXUokr5VUmm3bt1cmyAu0NIS ARRFsOLhlopraN4LBFOeyARFAQJLkqWUQIWSRlLw1NystJNSoKRh7ZD8dYGhArV0PjSBCjpfLCRI tklqOmsVqMR1osBSVIlARR+JTxC3wVpwD/030CwzQIh/CVPiDr2hCVRInAE0nlpaRwDNbrt27dw8 DpNKtPW7VvdtrQIVB8/999/fzRGUDjAtpa34jQ2q6bQKtGnD7I8//rAc6PNcxE3TjWsOaUkVcc1z bWgu7EhSX8szCqsIWYuzxhXfh7QnEyZMCOsWVdVDCgu8X2jDsGHDqvpto1+MVwCWGCwT/nklJfSn DWshbHCYCAGUYw5Msn1+3/HPiNdGFqjYL3yqA16xGIZVQhOoOIBBQYjpHU1rUqVWgUp8Pq3fmMoJ VJ9//rklmA3hkcGYhiIMi26CHnzwwak8LIaNERYH3Ezo7yGHHFLy77DDDrO77767XX755WNxoQq7 j3HX9+GHH7pxzYIqzDdx376i+9UqULFoson16tXLHn744YlrBUt19s4773RzGPpztPFaghFAq8sY XWeddRI7TAe3Lt5vSHPAnJWk3PHeuOhuBPUXH8j8e0igUGaEVfDEQOHg6+dV4j0saUOSKCiSSdkA df0jjzySRBNSdU/WWQiyEO5LEeCoQPXn4+LcyNjFusl5MsmSN4EKsiYsU+A/ZMiQUKEPTaDigEue Jxop1KGhNrKaymoVqDioSaCga/8qq6zS6iYwZswY52aARS4NiygSt99UiYXIQyHXUJA/PWOw+E8o UVN5gE7bc0Lbuu666zrsiEVIY6lVoKIvaMpZTMPUSIWFEW4guMUwbsmflcY2htXXeurh+Y8fP95u t912hTyCuJvnueBqxrghHiApax05zIrXXP+epORhekzgSeJjIf09SG79/fffJzIEhDDD5X1Dudro CYwrAZizn9BtO1ZRcgKipC7ep1Wg+hNF3Olmm202J4hLaotKoI3smrwJVCh4Vl55ZbdeEUsVZglN oEKj2r9/f9dIFngOCEmUWgUqDlonnniiI6cQlrNWrTzeXAiRRVKuBsXYcviCSIANJklhtrhNUb5n rHXt2rXkBu432eJXYXKMsjkNVTcHVbDD6pfGUo9Alcb++DaxbnmXRASrpNZP3560vSIMIzihWZxp ppmazH0Sbua5eMsmrqxJJdGVvDPOQ6V43eW9sOvaMN2HsQiRvLr4PkkKVIMHD3Yu0hzQwnRtzOp4 xsuhWBl01VVXOcHBPy8VqP58siST9Yf6pM+QeROo8EabffbZLeuGsN2GOtVCE6hoFT7ETByh+21V IAm1B80qq1Wg4gADAw2DGzaaIE0fsRdrrbWW6yeuB3EzCjXrrvsvGg58uOebbz77wgsvlLqkoT4b MWKEO1Thdkk+BzSzpf423nhjiw9/a2QkDQVMCJ3xwbIQNwTNgRBuU3MVjSpQsfZwIGb9zLvFpfng QIvYr18/l0Nwl112aRFDk3eBikMspBTzzjuvxSUuicK8xDLhD87+FetEmPGraROoJBWD6zOvWloi QMxbMYOyClR/YoQ3iJ8vCOVJKtDyJlCRl5H1ifMja2eYJVSBSrjdnT8zPs1J+YXWKlBVCiqbA0xc PBC0bzDYJF08ZT2uiklpKOPCgEN+9+7dHRMd4w1XUzQOQX8ai1LdkyGFQJs2bRwjE+41aSuNKlBN njzZKQlgwkqS1Cdtz5v24FZNsnJcx3j+uET6AzuveReoWOO8MI6yKaly6623Nnku/hnh0RHWgTFN AhWEVMQ70s+wYzGSeoZh31cFqtKIMh8kX6sbO9D9J2ndzJtAJfnyHO4o3IutqaWfVHWfhipQEYwo CWVdY8P2Tay0W1ELVBAd+I2CvtLnpAvaW9oEw1+jF0le6XzWkwzAbmSMEcg7dOjg4lOuueaa1HW1 NYEKrV9Wi7fuY3ENM+Ykq3gUt7v5YRyXSOJX/Tqcd4EKJdMRRxzh8DjyyCMTixedOnWqWzv8c/Gv sLyFFeOUJoGKOBi8VBiLklS8eMjq+/8hoAJV8FAgVxOWZTyLwpofwXcL/iZvApXneoDQLOwSqkCF tIe0zULKAp9EiVKggkkIxji/UeAW9e233ybRzcI9CbDDMsWiDtNfIxeYvSCYwIKiWvzonrSfw337 9o3uJjXWjPsmpno/B/3rsssum+imVGN33M84EOPKRl/OPPPMRLWV9fQjrt9edNFFKlA1A5vYWcYP rIdJeimQV6dY2KVNMP9eeumlzVpc23/TJFCNGjXKYY7AmMY0DLUhHO6vVKAKxpO4Qyj3mS9Junnn SaAinhNWTrzohg8fHvxwavwmVIGKNpx66qmO1QWSBLTJcZeoBCpMsp6a3B/icD1L2qUMSyACxvzz z2/JKt/IBS3gXHPN5YKSr7zySuebn2WrRFqf1SWXXOIOCsQKfvfdd6lq5ttvv+3SFfg56F9h/iIv XBYLB2Bol4mDRGuppXUEVKBqiQ8KJlzRGUNJxVHRquL0I35u8rqkJAoNw4qTFoEKAYr0C/Tt0EMP TWW8actREv8nKlAFY44BArczxhBjKany4IMPOqVH8XyFtfK1116ruUkPP/yw61dxne3bt7fM3yQL iaUhNUIBG0VYUugCFaQOJAdFAkzC7Q8hzjPeFT9MNAH1JOFFA1gcXEndTIbm7ihxDxbv7rfeeuuF 7g8ad19aux8Crfd9RaMDSwsHiI4dO9qtttrKImDhfpn082itD1n5bsqUKY6Zac4557TEqSVVOLRw QPvyyy8trEgw8myzzTYtWN6YiyySfMc1XMtv+C0xdmH7SYeNxw033OA2nxVWWCEVLsRh9y/s+lSg aokoltudd97ZjaNBgwYlug4yB32ccfEevNlmm9VNEJQWgQqKdGKo6R+HRy2lEVCBqjQu/lPmKmMI xr+k3P5GjhzZQqAip+zEiRN9M6t+JTSjeO7zHssQhG9JFc6GnBFoC2mGoiihC1Q02kvde+21VxRt brVODlIcsps/TMzytbjnoT2GmWaeeeZpUScPJ8mChI27H31F8m7kwiEfrUnz5+r/j1sJWn4WqLCZ WxoZ11J9QwDZdNNNHdbnnHNOYtpXKHcRnPkjZ8css8wS+Pz9OOAarvW/45W8RWktuPtx0KT95MHT Uh4BFahKY0RyXVj10L4m4R1S3CpyEME66Oelf0UTX49XASRQzfeBJGjTb7/9dte3Ll26JJZUuBjv tL5Xgar1J4MVCOUDykvIxZIo5557bpNcYcxVjAekY6i1XHjhhS3mPnsx+eqSKsVnSMi3oiihC1Q0 koMQDwXShijMakFAoNFG+OFg7Rdw/4pbHK5MCFytMapQx7Rp05x0DmsRFPC+juavSR+A8H3l8Ejf 0Mo3crn66qsDn0Pz5wLjlbpO1TcaSJwMrmuuuWZiB4ZSi3LzZ13J/5knaS2kXfAWfQ4fWsojoAJV aYxwecX1FaEqDVYTxnOpvZh8a7XuV7gNwoRZPO/ZA+PU7nN+wCuCNpBzM+0W8NKjJZ5PVaAqj7NX XnKejNvDBsVL0BmXeVpLoc5evXo1maN+vhIjnFSBAZV2YFmuR6nTWvtn4Eu5SahFLEFG3O6MuNsY 6YTZfvvtQ63fVyabhpGDNkKhkUXOCEhG4oiMPFB/SZNXcQsyYlo1ssgb0WoZcR0rfC+aYiPJfY0I VEbiRozkhXGvhQtKvBFtm7n44otLfBP9R7Tz6KOPNmKZMvvss4+57rrrmvQn+hbEewfRTBrJt2Uk Zs2IwGtEs2OeeuopI4GdJRsiGhb3bMBGS/UIiPukkYXWYT569GjTu3fv6iup8xc825dffrnOWozr xwILLFB3PVFUcMwxxxgRHI1Ymo24VxpxlY7iNg1VJ2uukB8YOXy4fgnLn3vGDdXJGjrDHiZuf0bc bYyQ9xjRMNdQS7g/efrpp92zkriuJhWLe6sRd3XTv39/I0xnTb4L+o8IYWbAgAFGErW7/d5fJ4pb I4KWEcHKfxTpq6STMKuvvrqReDUjOW2MUKdHer8sV84YFHIjIy6prhui8DZyUM9yl0JvOxjttNNO RsJSjCj/jMQahX6P4go5P/m9lb1dPDgKa2nxdWJRMtttt53ZaKON3HmedgkjYfElhffTp093ZwXm +dixY42QbBS+K34jljgjpFdG8oYa1gDxJjOc1aIuEu7jxh1YixLESPhINLdsTdqq5ztPLy4PpCZX u0ru7YPnBZmS0nDUnxPTk1Qhbw2WKbSR5GnJW4F8BNc+/H/R8BCM3fx5o8lsdKKOqJ47jIpy2HeY brHFFlaUDVHdKrf1Yr1fddVVHcaQ+WipDAG1UAXjBP0+FhusnvXEQATfofpvSFo9cODAFgmZcc/t 1q2bPfvss60oTpzWGA8RiJ74g8GWXHh4nRDzALGFX+PZ9yAoIoYYopo4yyGHHOLaAaNiVJruOPsT 5b3UQlUeXYifcGMlNvz6668v/4M6r4ApmRAYXHIJlYDvALfZ5n+46EHrzlqCG7Eo8Evembnap08f Z/khNIZ+BNXJ2kS8M26OpGfBmy0Oq5wo3926yP3JaRhVicRCJYuekeAzIwuOsxohsSKRhl2QNmUx DrvaiurD2oWFSjKkV3R92BcJs5C5/PLLnQYB65RMjrBvkZn6xOXCoKUWc7LT8hc3nOcjk9agGdFS HQKTJk0yEg9pRHg14kKpVoDq4Gv1alnQjRw2jGxEBusZlnVx12r1N/rlnwiohSp4JDBXe/bs6Sw2 WALw4Cj2xAj+ZbTfYE3EsnPGGWcYEfQMGm0sar7Iwc6IgtDIwdJ5j+CJwDUSw+w8UPx1chBz80SU PEZSDTgNN7+Nq4hbpdPY067zzjvPSN6vuG6dyfuohar8Y2MvkNx6RhJgG1EwGCFzM4zzqAprBPcU pUTZtYHr+GP+cubFalWqiPLDXVNtnVh5RbFSqsrQPsN7bffddzeifDf77befkYTK0XmCCFiRFDRN 3kpFXhs03lrCQYD8BWgXsMrAPqjlTwRIiEo+HzQkMhvdH1rQJHM8ZPnZoCEm0SxYbrvttomRU2QZ w6C2Q5Cz4YYbOmxPPPHEWLR0QW3J2udqoWr9iYmCzY0rtN5pzNdHQlysUqwpWGh9Xhi/ZvtXtNz0 QdzrXMySHDhdqowkY5Z8AuWVVlop1vjw1p94er9VC1Vlz0bCGay41Ll5mxQ5RWUtzd5VxF1imWI9 iToJPNJnZIWOkB8J83wSFOqRdSzhiiUuyE08XA6SZnNKGIoWtwcP0UI0Ya0huDLJTbhFIzP0AfMW xh8WI/G3zlDL091UCG84OBIgm8ZDb5rRU4Gq9aeDOzRJ5xlf5E5M89qH2yvu6zBxSjyShX1rzJgx zo2dlA0QbZD+IA0FRebiiy/ucMVVSUt5BFSgKo8RV0B0IpZ3N7ZIn6GupJXhVslVnkAG5TCGnihL pAIVC7kQUrhBQpJQcmVoqQ8BkrDBnITlhdxLWloiIK4izkfYazo5tHLI0FI9AliWPa23BKe6uIbq a9FfFCOAJRUGVMYnrEdQp2upHAEVqMpj5Vk6iSPFIqSlPgSYo8Q5MmeXX355PctUCKcKVBUCJZeR Yw2LLGPsggsuqPyHemUgAuTDIjYMWnqUmFGXSAUqGo+WCZM+VioNvK7vcRL8t8EGG7gJx+GW/2sp jQCaWS9Q4RpJglcttSGA9phFiTkMCYiW+hA44YQT3NgkMJjcGFqqQ0AFqvJ4YdXxihACxtXlvjxm rV1BsmLc7AmoJ9+XlsoQUIGqMpz8VZ4ICsEqSvIEf79GfsVbSRg43V4LOR5WwKhL5AIVHYANj8Pt ksLSg9lcS20IkEwQ1hXcrxBUtQQj8MILLxSyf2PN04NrMFaVfENCTuYweamEUr2Sn+g1JRAQog/H cMTBjBw2WqpHQAWqyjAjdhRFCExeaGq11IYAikuYTln/8LhRT5vKcVSBqnKsuBJGTOLzGGtCqKXs utXBV7ga5sAbbrjBKYFRhMQlnMYiUOEP6iVF4n+EE77QcX1TGQJkiMd1jYl2+umnV/ajHF8FpbpP AIlAVWsiyRxD2KTruFH6uAxog+OgOm3SgAb4D+selmXmMIQUug7W9lBVoKoMN1zu9957bzfecFMj 8F1L9Qj49CzsJ9C7a6kcARWoKsfKXyl51pwlFMU577VUj4CwjBfiHdkv4iqxCFR0hlxJuF5hYdHY n+oeL4F0W2+9tdsYIaJAi6GldQQ+/vhjlzuBwyvEKHp4bR2vSr696667HIMi81jocCv5iV5ThACB 7D7vB3kxtNSGgApUleMG4YlXxO2xxx4ar1c5dO5K5ikhC+wjkqpE8asSPxWoqgRMLi9WhKy88sp2 6tSp1VeS41/g6te7d283Z9dff/1YSW1iE6jwX/RxLST/kgzqOX7k1XUdixQLOhoLpQCvDDsWIZLH gRuJfzUxbWW4tXYVcRg777yzw5RDGuxcWipD4Mknn3SCPeORWFK18FWGW6mrVKAqhUrwZzfeeKNT ZJJOArIKLZUhQMLVtdde2613eNhMmzatsh/qVQUEVKAqQFHVG6zJq6yyiht7pIKJmp2uqsal+GL2 1ZNPPtnhBhEF8d9xltgEKjr15ZdfWiwsHCpwH9IFqvyjhkJ2vvnmc5aBY489tvwP9AqHAK4ZkCgw 1rCI6gE2nIHx9ttvF3y8Jemv0rtWAOtnn33mcukwFonFgOVPS+0IqEBVHXasfbjpMv6WWWYZK0mk q6sgh1ejAPax3+y/zz77bA5RqL/LKlDVjiFeXQgFzNs43dZqb3HyvyS1C2le8AQhv2PcJVaBis5B 4cqiziCBF14PF8GPHAvAoosu6rDCMqDU38FYNf/GU9yi5cH9T0t4CEyYMMFR9yOwkmxT2SaDsUXL vc0227g5vNxyy1li+7TUh4AKVNXjB5GCH4ddunTRNbEMhEOGDHHJQIm/HT58eJmr9esgBCAGgBiF 8x5/V199ddCl+nkJBLC2IByAoVqXSwBU9BGyxWKLLebGGYQeSeRojV2gov8wDnnJ++ijj1ZBoWhQ +LewIZK7i0UIP9q8H8Q4tFfqtodFwCdgJOu4Wqf8qArvFasfLkTEU3HAVYxbYosvfN++fd0cxs05 jjwYLVvReJ+oQFXbM3311Vcd065XZqYlYW5tvYnuV8SHouUGJxRGmieuNqzZEw4++OCCpwh4Dhw4 UCn8q4CzOB6oXbt2aikNwA4XyXXXXdfN2RVXXDExJuJEBCowue666+zss8/uABg0aJAuWkUDhezx Pt9Uhw4dLBTgeS0sysQAMFk22WQTC3V8a1ZNrHi77767G1ccZuPIPZDHZ4Nwy7zFSoUWl/ms5S8E OISdf/75bhxCxMN7LeEgMHjwYCfMc0Djb9y4ceFUnINayCOHCxu4bbvtthqb0eyZP/zwwwUSii23 3NJiYdZSOQJffPGFff755y04HnXUUc664ucpryjhyMNHTCnXcb2W1hGAYdcLCyussIIyTTaDi/My 4QeMryUlNRPjKqmSmECF9haSCvKxMMnQOmryQWuZPOS6YHDAn593NjC0qCRALV6Ut9pqq5Kamu+/ /94eeOCBLgC7X79+uhlGvKqQDsGTVLRt21aZ/4rwHjp0qLPe4a5B7KNa8IrAqfNtc633vffeW2eN +fo5bJNemXn88cery+7/Hj8uQ8suu6zbazjAkqpES3UIcF5hD8a9lHMMhAoklvZ//J8kqzvttJM9 4IADcn++qRRdYpc9SUW3bt00n+v/gON8yNjy52XizpIsiQlUdBoBasCAAU7LjVBF4Gye2Uxw8/Os QmgRR40aleTYSMW9sTj5HGbFQhUuVLvuuquzWIETMVOrrbaaRYODm5+6acTz+L7++mu3OfJscJPB Zz7PBUURfu+4QoIJ71VRFM6IAFvcJn1+Ob8eQI2riburw/iaa64pjFHiDb799tvqKmiwqx999FGL Nwhjiv1G8xY22ANugO688847ljhcxijJf5944okG6FXtXSC0AwZn8MD4gPdS0iVRgYrOo+UmjgqB CmCOOOIIi6Uhb4VEZF5wQJjSzPZ/jYAXX3zR9uzZ02lVsWii9Wes8EeOKYg7unbtas8888zEfGf/ am3+3uG24fOkERt56aWX5tLVkjg/lEJ+fJJUNc8KorBmAkIU7IhrrrmmXXjhhV36CMZZ8R+KFJIl 4+7LeqGldQRQOF122WXOQ4R1FKsBB5Q8FvLreSGdPZi9WIsikEYEcJX0gn/79u3tM888k8ZmRt4m 8ut5YapNmzaOsCMNXiCJC1QgT5zL2WefXWCDwSycJxIGzOQdO3Z0AgIMiJprquV8JGbnrbfechMH 99DzzjvP4rpyzz33OPO3Ms21xCzOT9Bw4+rB4QyBAj95mMXyUkgJQeJP+o/Qf/jhh6srVUgPn7mP 4o3k3FisEVKL/3799Vf3PdcQxK1xk5UDf/HFF9u55prLjVuUVv/85z8r/3HGr2ScwDqHdpt5S0oX vES0KAJpRgByGe/+B6sdVOF5Kq+88opTrjFnUbClyZMrFQIVgwHp8oorrigIVeSpavRgY1yB6LNP QEuy1IkTJ+ZpbmhfGwgBDrz77rtvgdUJa8Gnn37aQD0s3RViL4jrY4En+fYgIetIg7asdGv1U0Wg KQLXX3+9XWCBBQpCxWOPPdb0ggb8H8oePBog1GHeYgFF661FEcgCAm+++aZdb7313NjF1f6SSy7J hWcXDJw+7RLCVNrcHlMjUPlB/MADDxQShxIng+WqEd1myI1EDBCLOX8wLmkQrB8F+ppVBLAUsrj7 tAidO3e29913X1a7U7bduE353Be4DbHga1EEsobA+PHjC2k6sFiRFDOJPC5x4Pbcc8/ZHj16uH0X llLY6JTNLw7k9R5hIgAhgyeF4gwJ012jKgVgdsbrw8cmd+/ePZWu3akTqBhwBBj37t3bLXi4D8EY Q5LbRtD6YpXi0AVXPpNgttlmc4QKuqCHudRoXUkiQHzGgw8+6AhCGONo0CANaaQxDlUrC7zXcMO8 RMJjLYpAVhGYOnVqwdLKvG00q433CPE5CmEmJSWHuotndcRqu7G0nnPOOQXPLmJJcYFrFCIkzhJ4 bRUrQAgtYP9NY0mlQAVQ+MpjnfL+3VirOJQRq5DVAvUlVikftI6LH9r7RhAUs/pMtN3RIfDJJ580 OaDBwgibVqUJmqNrWe01s4HBIunZlqCf3m+//TK9LtWOhv6y0RBAuMAVzie2xa2GOKss77s8I+Iu fH5ChEUITpKmWG60saP9SQ4B8n7B/MfYhuANHgKMEFkukOSccsopFtIJ+gVZGzGPaRYWUytQ+YHA 4cWz3wEqyV3vv/9+F4Tsr0n7KwQbQ4YMKeRTmmOOORx3/ssvv5z2pmv7FIG6EICxE+pwrxUmxmjg wIEWH/CsFdjj2KhYh/gjZw3000qCkLUnqe0thwDMd1hd/Vhn3x07dmzmlH9Y3c4999xCjBhWKfIf TZs2rRwE+r0ikCkEIFTZYYcdCm5xuKJfe+21mUuejKsxZGM+Row1aIMNNnBeL2l/IKkXqAAQBjEC ZzFnAi4WHhh5Bg8e7Jif0goyAfn4Z3fq1KmwMeHnipZeiyKQJwQQoEiJ4K2zCFjQisNYlPZC4Cu+ 6j5wH6GQhKgffPBB2puu7VMEakYAF11SIHhlCO6tuAEOHz7ckhMszYW9F3IYz57LuWHzzTe3xE9p UQQaFQGUe5wvPaU4437VVVd1cwHlQpoLa8rQoUOdIOXPCZz5b7nllswYUDIhUPlBQMBdv379Cm6A BJSutdZa9sorr3Q+lWkwBeIyQR4LcmsttdRSBUGKnAG4TpAIVYsikEcEcPVD89SlS5fCvIDIoW/f vs49IU3kM8xjfLeJ5USrzcbEerPlllvaZ599NtVuB3kcW9rn6BAgXcUee+xR0HyjUCCmASsWrvlp SaLOgQzad5Qd7LfMWf7Yh6+77jpLYLsWRSAPCDDW8YryDNLMA9jxzj//fGexSotChHAX2IGJZcRI MvPMM7s5ixdX//79M5c+aQYGl4CdmSIPwIhgZYRu3EjwnRFNlGu7xFgZcUswEs9ghFnMiO+3kQNQ LP2Sg6CZPn26EZcgM2zYMCPJ14wId+7e4tdq+vTpY0QQNOIDGkt79CaKQJoRkLxBRhJXG/GHNiK0 GDmQGVlIjbgYGQk4da+iFXefxdkP5rG45xpJlmhGjBhhJD+cYb0RxkIjaRxc2yQBauztihMDvZci UAoB5qjEZBiJazaSzsTIgc1dJt4XRtyMjLDUGokJNuzDcRaOL5wBxAJuRFlj7rjjDiNxjq4JYp0y Ejfl9l45WMbZLL2XIpAKBCSO2dx0003mhhtuMKJscG3iHCppPsz2229vRLnpzspxN5b1QyxmRli9 jYT1GCGic01YZJFFjLj3GSF8MhJzbSQeLO6m1XW/zAlUxb197bXXjEjh5vnnnzeSC6bwFQezjTba yKy++upGgscNhzMORWEWCdI1Qn3uFvJJkyYZ8S93hzHuwb0YDL169TKHHHKIEQ13mLfWuhSBhkAA AUZikNxB6KWXXjKi7Xb94mAmzJ5m3XXXNcsvv7wRDbMRutRI+izJYI34nhtJWWCEOtqMHDnSiIux uxeHQ/HjNkIkY3baaafMLe6RAKaV5h4BcSlyBzQUDxzYKELOYsQd0IgF1yDISHxhZApElBwcxpi3 Yi02ktjUcBagSFJtt/eKZdnss88+RuJI3Of6jyKQZwQQpiRsxs0V8aAqQMEey1xBsBILlttrC1+G /IYz8zvvvOPOzMICbIQUpmB44N605dBDD3Xn9pBvHVt1mRaoPEoSYOq0Z5KQ0Nx6663miy++8F+Z JZZYwi2qCFUIV+KTWfhM3I2M+IUXri31Bm2XsI04LRjaawYjg5ONhD+vqeO3DMrddtvNCImGwTIV thBXqn36mSKQdQQkCNXNXw5HzF9/OKJfzF9x33GLvfiCu3nFYa3Wg5LEPTltGBptNO5Yu5nPLPa+ rL/++k7j3rVrVyNsYP/f3h3kxI1EARj2FZCQWLBgwxquwJYVK+7JIrfgEsNNpv4aOSITSBASsarz WWpBmibGn/1c9apedf+xme59/74SWEFglAJuY03S9u3bt60O0l6V0UBEHaSrq6uZ3IyPCJlJVs/9 rr1967jH5+3MmG0U+/n5eX7/8vKyFct7gc319fWM2bF2ZLu9vf2yZO6tv89zBFYRqK881i1v410B t/EO03NSoL+9gYgGMnvUR765uZkx2wz0Z2adq0KpXa2/XFvbhEcxWwz3s7YGYRqovL+/n0lUMbz6 dhIJ1X4SuqE3/d9Ntwum0oSSnsoV9q2TOGrA58kcnwE1v56dnc0bfaPgvXbUl87R8pKpsZZiProI evSzfatx6ObdbFiPRuYqNbQRIPA5gUpnu/k+PT1tDZB0U25Euq0S3m7uDVT0uLy8nLPPzQAXw3s8 99pmu7of1Blr0KP7QAMto157K4Hr675VbliSVmfs8fFx68Z+fn6+/9hXAgR+ITDeyXN2lqrSGOuq ZgeqdnPfitXx8SfbWBexXVxczEGSyo6K257rUWwXr7WxxWYxOz5rZlZ9NItczPZ1T9p6/XiTmFnm //DwsI211FsDpMWyjQCBXwuM9cwzvsYbLs3EquqM8SY033+pvm0xO96yfBsfoTBjtvgq5orn2tr6 y8Vj/1ftbZUdTT5UudX3PVcfukqUfet3K58vZqvgqvqk+D+V7aQSqtcnpU5YJ7vsuFG08TkUc7qx DlY3527c3fS7GN7bqt/soikJ66R3MTRi3hqtLopGsJv5Krv/U+u13vtbPU/glASK32KzuK20qLVW jW7VeavD1c16T7Q+etzjnYO+NxIlZpUT3t3dbWMx7BwMqTMmjj+q6XUEfhZowPGfUcnRbHPtbqW8 da7qWNXu7gnRz7/59jPFYwOge8euEfTa3WK2Nrg2ubi2ESDwOYEmEWpXW7rSuuEmJJrJqp39f0L0 0T3Uby42G+gsCWv5TUtxqv5oPWN95lPcTjaheu9kVdrTaHUXTKNg4133Zuesztt+sy+BKkOv09UF UWZeidFXrMV67+/0PAECPwrUWavMqFKfYrjZrEaxS64aHNnjt9+qI1YMF8uNtHUTb0arEbFmo5qF Wm3B648a/kVgDYFKfVqj2Mh1j2J276jV7u5lex1Ngxp1xhrAbBarNre4rVywCpASKxsBAl8r0CBI A5iVxFf1VVtb0tWgSG3t66qv1xMP9Zl7Y4nitsmHygf/pqqtvy6h+trL0P9OgMBRAns5bslUDyPX R50J+yXwMYE6Zq9nmpXsfczNqwgcJdAAyJ5Q9X3trMHJ/86GhOqoq9J+CRAgQIAAAQIECBBYXkBC tfwpdAAECBAgQIAAAQIECBwlIKE6St5+CRAgQIAAAQIECBBYXkBCtfwpdAAECBAgQIAAAQIECBwl IKE6St5+CRAgQIAAAQIECBBYXkBCtfwpdAAECBAgQIAAAQIECBwlIKE6St5+CRAgQIAAAQIECBBY XkBCtfwpdAAECBAgQIAAAQIECBwlIKE6St5+CRAgQIAAAQIECBBYXkBCtfwpdAAECBAgQIAAAQIE CBwlIKE6St5+CRAgQIAAAQIECBBYXkBCtfwpdAAECBAgQIAAAQIECBwlIKE6St5+CRAgQIAAAQIE CBBYXkBCtfwpdAAECBAgQIAAAQIECBwlIKE6St5+CRAgQIAAAQIECBBYXkBCtfwpdAAECBAgQIAA AQIECBwlIKE6St5+CRAgQIAAAQIECBBYXkBCtfwpdAAECBAgQIAAAQIECBwlIKE6St5+CRAgQIAA AQIECBBYXuBf24I/HeVEK3kAAAAASUVORK5CYII= "
       id="image879"
       x="17.374304"
       y="72.718361"
       style="stroke-width:0.700043;stroke-miterlimit:4;stroke-dasharray:2.80017, 0.700043;stroke-dashoffset:0" />
    <path
       id="path905"
       style="fill:none;stroke:#000000;stroke-width:1.82035;stroke-linecap:butt;stroke-linejoin:miter;stroke-miterlimit:4;stroke-dasharray:10.922, 10.922;stroke-dashoffset:0;stroke-opacity:1"
       d="m 301.67654,6.4746291 c -245.714628,0 -288.936306,-5.56088103 -288.936306,45.3788869 0,60.669914 44.748235,54.212544 288.832266,54.212544 235.25143,0 281.4715,8.70507 281.4715,-52.950743 0,-49.9424602 -47.60107,-46.6406879 -281.36746,-46.6406879 z"
       sodipodi:nodetypes="sscss"
       transform="matrix(0.26458333,0,0,0.26458333,13.494991,70.330949)" />
  </g>
</svg>
