<?xml version="1.0" encoding="UTF-8" standalone="no"?>
<svg
   xmlns:osb="http://www.openswatchbook.org/uri/2009/osb"
   xmlns:dc="http://purl.org/dc/elements/1.1/"
   xmlns:cc="http://creativecommons.org/ns#"
   xmlns:rdf="http://www.w3.org/1999/02/22-rdf-syntax-ns#"
   xmlns:svg="http://www.w3.org/2000/svg"
   xmlns="http://www.w3.org/2000/svg"
   xmlns:xlink="http://www.w3.org/1999/xlink"
   xmlns:sodipodi="http://sodipodi.sourceforge.net/DTD/sodipodi-0.dtd"
   xmlns:inkscape="http://www.inkscape.org/namespaces/inkscape"
   width="124.28027mm"
   height="77.447075mm"
   viewBox="0 0 124.28026 77.447077"
   version="1.1"
   id="svg8"
   inkscape:version="1.0.2 (e86c8708, 2021-01-15)"
   sodipodi:docname="part3.svg"
   inkscape:export-filename="/Users/enguyen/school/src/phys-1062/lab/lab05/part3.png"
   inkscape:export-xdpi="95.900002"
   inkscape:export-ydpi="95.900002">
  <defs
     id="defs2">
    <marker
       style="overflow:visible;"
       id="marker7823"
       refX="0.0"
       refY="0.0"
       orient="auto"
       inkscape:stockid="Arrow1Send"
       inkscape:isstock="true">
      <path
         transform="scale(0.2) rotate(180) translate(6,0)"
         style="fill-rule:evenodd;stroke:#b05a86;stroke-width:1pt;stroke-opacity:1;fill:#b05a86;fill-opacity:1"
         d="M 0.0,0.0 L 5.0,-5.0 L -12.5,0.0 L 5.0,5.0 L 0.0,0.0 z "
         id="path7821" />
    </marker>
    <marker
       style="overflow:visible;"
       id="marker7813"
       refX="0.0"
       refY="0.0"
       orient="auto"
       inkscape:stockid="Arrow1Send"
       inkscape:isstock="true">
      <path
         transform="scale(0.2) rotate(180) translate(6,0)"
         style="fill-rule:evenodd;stroke:#b05a86;stroke-width:1pt;stroke-opacity:1;fill:#b05a86;fill-opacity:1"
         d="M 0.0,0.0 L 5.0,-5.0 L -12.5,0.0 L 5.0,5.0 L 0.0,0.0 z "
         id="path7811" />
    </marker>
    <marker
       style="overflow:visible;"
       id="marker7591"
       refX="0.0"
       refY="0.0"
       orient="auto"
       inkscape:stockid="Arrow1Send"
       inkscape:isstock="true"
       inkscape:collect="always">
      <path
         transform="scale(0.2) rotate(180) translate(6,0)"
         style="fill-rule:evenodd;stroke:#b05a86;stroke-width:1pt;stroke-opacity:1;fill:#b05a86;fill-opacity:1"
         d="M 0.0,0.0 L 5.0,-5.0 L -12.5,0.0 L 5.0,5.0 L 0.0,0.0 z "
         id="path7589" />
    </marker>
    <marker
       style="overflow:visible;"
       id="marker7385"
       refX="0.0"
       refY="0.0"
       orient="auto"
       inkscape:stockid="Arrow1Send"
       inkscape:isstock="true"
       inkscape:collect="always">
      <path
         transform="scale(0.2) rotate(180) translate(6,0)"
         style="fill-rule:evenodd;stroke:#b05a86;stroke-width:1pt;stroke-opacity:1;fill:#b05a86;fill-opacity:1"
         d="M 0.0,0.0 L 5.0,-5.0 L -12.5,0.0 L 5.0,5.0 L 0.0,0.0 z "
         id="path7383" />
    </marker>
    <marker
       style="overflow:visible;"
       id="marker7145"
       refX="0.0"
       refY="0.0"
       orient="auto"
       inkscape:stockid="Arrow1Send"
       inkscape:isstock="true">
      <path
         transform="scale(0.2) rotate(180) translate(6,0)"
         style="fill-rule:evenodd;stroke:#b05a86;stroke-width:1pt;stroke-opacity:1;fill:#b05a86;fill-opacity:1"
         d="M 0.0,0.0 L 5.0,-5.0 L -12.5,0.0 L 5.0,5.0 L 0.0,0.0 z "
         id="path7143" />
    </marker>
    <marker
       style="overflow:visible;"
       id="marker7135"
       refX="0.0"
       refY="0.0"
       orient="auto"
       inkscape:stockid="Arrow1Send"
       inkscape:isstock="true">
      <path
         transform="scale(0.2) rotate(180) translate(6,0)"
         style="fill-rule:evenodd;stroke:#b05a86;stroke-width:1pt;stroke-opacity:1;fill:#b05a86;fill-opacity:1"
         d="M 0.0,0.0 L 5.0,-5.0 L -12.5,0.0 L 5.0,5.0 L 0.0,0.0 z "
         id="path7133" />
    </marker>
    <marker
       style="overflow:visible;"
       id="marker7125"
       refX="0.0"
       refY="0.0"
       orient="auto"
       inkscape:stockid="Arrow1Send"
       inkscape:isstock="true">
      <path
         transform="scale(0.2) rotate(180) translate(6,0)"
         style="fill-rule:evenodd;stroke:#b05a86;stroke-width:1pt;stroke-opacity:1;fill:#b05a86;fill-opacity:1"
         d="M 0.0,0.0 L 5.0,-5.0 L -12.5,0.0 L 5.0,5.0 L 0.0,0.0 z "
         id="path7123" />
    </marker>
    <marker
       style="overflow:visible;"
       id="marker7115"
       refX="0.0"
       refY="0.0"
       orient="auto"
       inkscape:stockid="Arrow1Send"
       inkscape:isstock="true">
      <path
         transform="scale(0.2) rotate(180) translate(6,0)"
         style="fill-rule:evenodd;stroke:#b05a86;stroke-width:1pt;stroke-opacity:1;fill:#b05a86;fill-opacity:1"
         d="M 0.0,0.0 L 5.0,-5.0 L -12.5,0.0 L 5.0,5.0 L 0.0,0.0 z "
         id="path7113" />
    </marker>
    <marker
       style="overflow:visible;"
       id="marker6889"
       refX="0.0"
       refY="0.0"
       orient="auto"
       inkscape:stockid="Arrow1Send"
       inkscape:isstock="true"
       inkscape:collect="always">
      <path
         transform="scale(0.2) rotate(180) translate(6,0)"
         style="fill-rule:evenodd;stroke:#b05a86;stroke-width:1pt;stroke-opacity:1;fill:#b05a86;fill-opacity:1"
         d="M 0.0,0.0 L 5.0,-5.0 L -12.5,0.0 L 5.0,5.0 L 0.0,0.0 z "
         id="path6887" />
    </marker>
    <marker
       style="overflow:visible;"
       id="marker6659"
       refX="0.0"
       refY="0.0"
       orient="auto"
       inkscape:stockid="Arrow1Send"
       inkscape:isstock="true">
      <path
         transform="scale(0.2) rotate(180) translate(6,0)"
         style="fill-rule:evenodd;stroke:#b05a86;stroke-width:1pt;stroke-opacity:1;fill:#b05a86;fill-opacity:1"
         d="M 0.0,0.0 L 5.0,-5.0 L -12.5,0.0 L 5.0,5.0 L 0.0,0.0 z "
         id="path6657" />
    </marker>
    <marker
       style="overflow:visible;"
       id="marker6649"
       refX="0.0"
       refY="0.0"
       orient="auto"
       inkscape:stockid="Arrow1Send"
       inkscape:isstock="true"
       inkscape:collect="always">
      <path
         transform="scale(0.2) rotate(180) translate(6,0)"
         style="fill-rule:evenodd;stroke:#b05a86;stroke-width:1pt;stroke-opacity:1;fill:#b05a86;fill-opacity:1"
         d="M 0.0,0.0 L 5.0,-5.0 L -12.5,0.0 L 5.0,5.0 L 0.0,0.0 z "
         id="path6647" />
    </marker>
    <marker
       style="overflow:visible;"
       id="marker6487"
       refX="0.0"
       refY="0.0"
       orient="auto"
       inkscape:stockid="Arrow1Send"
       inkscape:isstock="true"
       inkscape:collect="always">
      <path
         transform="scale(0.2) rotate(180) translate(6,0)"
         style="fill-rule:evenodd;stroke:#b05a86;stroke-width:1pt;stroke-opacity:1;fill:#b05a86;fill-opacity:1"
         d="M 0.0,0.0 L 5.0,-5.0 L -12.5,0.0 L 5.0,5.0 L 0.0,0.0 z "
         id="path6485" />
    </marker>
    <marker
       style="overflow:visible;"
       id="marker6335"
       refX="0.0"
       refY="0.0"
       orient="auto"
       inkscape:stockid="Arrow1Send"
       inkscape:isstock="true"
       inkscape:collect="always">
      <path
         transform="scale(0.2) rotate(180) translate(6,0)"
         style="fill-rule:evenodd;stroke:#b05a86;stroke-width:1pt;stroke-opacity:1;fill:#b05a86;fill-opacity:1"
         d="M 0.0,0.0 L 5.0,-5.0 L -12.5,0.0 L 5.0,5.0 L 0.0,0.0 z "
         id="path6333" />
    </marker>
    <marker
       style="overflow:visible;"
       id="marker6195"
       refX="0.0"
       refY="0.0"
       orient="auto"
       inkscape:stockid="Arrow1Send"
       inkscape:isstock="true">
      <path
         transform="scale(0.2) rotate(180) translate(6,0)"
         style="fill-rule:evenodd;stroke:#b05a86;stroke-width:1pt;stroke-opacity:1;fill:#b05a86;fill-opacity:1"
         d="M 0.0,0.0 L 5.0,-5.0 L -12.5,0.0 L 5.0,5.0 L 0.0,0.0 z "
         id="path6193" />
    </marker>
    <marker
       style="overflow:visible;"
       id="Arrow1Send"
       refX="0.0"
       refY="0.0"
       orient="auto"
       inkscape:stockid="Arrow1Send"
       inkscape:isstock="true"
       inkscape:collect="always">
      <path
         transform="scale(0.2) rotate(180) translate(6,0)"
         style="fill-rule:evenodd;stroke:#b05a86;stroke-width:1pt;stroke-opacity:1;fill:#b05a86;fill-opacity:1"
         d="M 0.0,0.0 L 5.0,-5.0 L -12.5,0.0 L 5.0,5.0 L 0.0,0.0 z "
         id="path892" />
    </marker>
    <linearGradient
       id="linearGradient5029"
       osb:paint="solid">
      <stop
         style="stop-color:#dd5a86;stop-opacity:1;"
         offset="0"
         id="stop5027" />
    </linearGradient>
    <marker
       style="overflow:visible"
       id="marker4629"
       refX="0"
       refY="0"
       orient="auto"
       inkscape:stockid="Arrow1Send"
       inkscape:isstock="true">
      <path
         transform="matrix(-0.2,0,0,-0.2,-1.2,0)"
         style="fill:#b05a86;fill-opacity:1;fill-rule:evenodd;stroke:#b05a86;stroke-width:1pt;stroke-opacity:1"
         d="M 0,0 5,-5 -12.5,0 5,5 Z"
         id="path4627" />
    </marker>
    <marker
       style="overflow:visible"
       id="marker4619"
       refX="0"
       refY="0"
       orient="auto"
       inkscape:stockid="Arrow1Send"
       inkscape:isstock="true">
      <path
         transform="matrix(-0.2,0,0,-0.2,-1.2,0)"
         style="fill:#b05a86;fill-opacity:1;fill-rule:evenodd;stroke:#b05a86;stroke-width:1pt;stroke-opacity:1"
         d="M 0,0 5,-5 -12.5,0 5,5 Z"
         id="path4617" />
    </marker>
    <marker
       style="overflow:visible"
       id="marker2175"
       refX="0"
       refY="0"
       orient="auto"
       inkscape:stockid="Arrow1Send"
       inkscape:isstock="true">
      <path
         transform="matrix(-0.2,0,0,-0.2,-1.2,0)"
         style="fill:#b05a86;fill-opacity:1;fill-rule:evenodd;stroke:#b05a86;stroke-width:1pt;stroke-opacity:1"
         d="M 0,0 5,-5 -12.5,0 5,5 Z"
         id="path2173" />
    </marker>
    <marker
       style="overflow:visible"
       id="marker1701"
       refX="0"
       refY="0"
       orient="auto"
       inkscape:stockid="Arrow1Send"
       inkscape:isstock="true">
      <path
         transform="matrix(-0.2,0,0,-0.2,-1.2,0)"
         style="fill:#b05a86;fill-opacity:1;fill-rule:evenodd;stroke:#b05a86;stroke-width:1pt;stroke-opacity:1"
         d="M 0,0 5,-5 -12.5,0 5,5 Z"
         id="path1699" />
    </marker>
    <marker
       style="overflow:visible"
       id="marker1489"
       refX="0"
       refY="0"
       orient="auto"
       inkscape:stockid="Arrow1Send"
       inkscape:isstock="true">
      <path
         transform="matrix(-0.2,0,0,-0.2,-1.2,0)"
         style="fill:#000000;fill-opacity:1;fill-rule:evenodd;stroke:#000000;stroke-width:1pt;stroke-opacity:1"
         d="M 0,0 5,-5 -12.5,0 5,5 Z"
         id="path1487" />
    </marker>
    <marker
       style="overflow:visible"
       id="marker1479"
       refX="0"
       refY="0"
       orient="auto"
       inkscape:stockid="Arrow1Send"
       inkscape:isstock="true">
      <path
         transform="matrix(-0.2,0,0,-0.2,-1.2,0)"
         style="fill:#000000;fill-opacity:1;fill-rule:evenodd;stroke:#000000;stroke-width:1pt;stroke-opacity:1"
         d="M 0,0 5,-5 -12.5,0 5,5 Z"
         id="path1477" />
    </marker>
    <marker
       style="overflow:visible"
       id="marker1279"
       refX="0"
       refY="0"
       orient="auto"
       inkscape:stockid="Arrow1Lend"
       inkscape:isstock="true">
      <path
         transform="matrix(-0.8,0,0,-0.8,-10,0)"
         style="fill:#000000;fill-opacity:1;fill-rule:evenodd;stroke:#000000;stroke-width:1pt;stroke-opacity:1"
         d="M 0,0 5,-5 -12.5,0 5,5 Z"
         id="path1277" />
    </marker>
    <marker
       style="overflow:visible"
       id="marker1269"
       refX="0"
       refY="0"
       orient="auto"
       inkscape:stockid="Arrow1Lend"
       inkscape:isstock="true">
      <path
         transform="matrix(-0.8,0,0,-0.8,-10,0)"
         style="fill:#000000;fill-opacity:1;fill-rule:evenodd;stroke:#000000;stroke-width:1pt;stroke-opacity:1"
         d="M 0,0 5,-5 -12.5,0 5,5 Z"
         id="path1267" />
    </marker>
    <marker
       style="overflow:visible"
       id="marker1259"
       refX="0"
       refY="0"
       orient="auto"
       inkscape:stockid="Arrow1Lend"
       inkscape:isstock="true">
      <path
         transform="matrix(-0.8,0,0,-0.8,-10,0)"
         style="fill:#000000;fill-opacity:1;fill-rule:evenodd;stroke:#000000;stroke-width:1pt;stroke-opacity:1"
         d="M 0,0 5,-5 -12.5,0 5,5 Z"
         id="path1257" />
    </marker>
    <marker
       style="overflow:visible"
       id="marker1161"
       refX="0"
       refY="0"
       orient="auto"
       inkscape:stockid="Arrow1Lend"
       inkscape:isstock="true">
      <path
         transform="matrix(-0.8,0,0,-0.8,-10,0)"
         style="fill:#000000;fill-opacity:1;fill-rule:evenodd;stroke:#000000;stroke-width:1pt;stroke-opacity:1"
         d="M 0,0 5,-5 -12.5,0 5,5 Z"
         id="path1159" />
    </marker>
    <linearGradient
       inkscape:collect="always"
       xlink:href="#linearGradient5029"
       id="linearGradient5031"
       x1="50.505428"
       y1="136.96669"
       x2="162.17653"
       y2="136.96669"
       gradientUnits="userSpaceOnUse"
       gradientTransform="matrix(1.1129134,0,0,1.1129134,-12.007322,-15.465375)" />
  </defs>
  <sodipodi:namedview
     id="base"
     pagecolor="#ffffff"
     bordercolor="#666666"
     borderopacity="1.0"
     inkscape:pageopacity="0.0"
     inkscape:pageshadow="2"
     inkscape:zoom="0.48481214"
     inkscape:cx="249.35388"
     inkscape:cy="348.95868"
     inkscape:document-units="mm"
     inkscape:current-layer="layer1"
     inkscape:document-rotation="0"
     showgrid="false"
     fit-margin-top="0"
     fit-margin-left="0"
     fit-margin-right="0"
     fit-margin-bottom="0"
     inkscape:window-width="680"
     inkscape:window-height="585"
     inkscape:window-x="464"
     inkscape:window-y="45"
     inkscape:window-maximized="0" />
  <metadata
     id="metadata5">
    <rdf:RDF>
      <cc:Work
         rdf:about="">
        <dc:format>image/svg+xml</dc:format>
        <dc:type
           rdf:resource="http://purl.org/dc/dcmitype/StillImage" />
        <dc:title></dc:title>
      </cc:Work>
    </rdf:RDF>
  </metadata>
  <g
     inkscape:label="Layer 1"
     inkscape:groupmode="layer"
     id="layer1"
     transform="translate(-44.200845,-98.24315)">
    <rect
       style="opacity:1;fill:none;fill-opacity:0.996078;stroke:url(#linearGradient5031);stroke-width:1.66937;stroke-miterlimit:4;stroke-dasharray:none;stroke-dashoffset:0;stroke-opacity:1"
       id="rect5025"
       width="122.61089"
       height="75.777702"
       x="45.03553"
       y="99.077835" />
    <circle
       style="fill:#d63b47;fill-opacity:0.627193;stroke:none;stroke-width:0.225147"
       id="path833"
       cx="78.077026"
       cy="136.96669"
       r="4.4310279" />
    <circle
       style="fill:#d63b47;fill-opacity:0.627451;stroke:none;stroke-width:0.225147"
       id="circle835"
       cx="136.64977"
       cy="136.96669"
       r="4.4310279" />
    <path
       id="path5285"
       style="fill:none;stroke:#00b580;stroke-width:1.5;stroke-linecap:butt;stroke-linejoin:miter;stroke-miterlimit:4;stroke-dasharray:4.5, 4.5;stroke-dashoffset:0;stroke-opacity:1"
       d="m 81.2893,120.89605 c -29.50697,0 -29.17494,31.15612 0,31.15612 m 51.68932,-31.15612 c 29.50697,0 29.17494,31.15612 0,31.15612 M 81.2893,120.89605 c 12.659753,12.65976 39.34422,12.3451 51.68932,0 M 81.2893,152.05217 c 12.659753,-12.65976 39.34422,-12.3451 51.68932,0" />
    <path
       id="path5289"
       style="fill:none;stroke:#00b580;stroke-width:1.39081;stroke-linecap:butt;stroke-linejoin:miter;stroke-miterlimit:4;stroke-dasharray:4.17241, 4.17241;stroke-dashoffset:0;stroke-opacity:1"
       d="m 76.077385,112.35395 c -35.457439,0 -35.05845,48.25373 0,48.25373 m 62.113155,-48.25373 c 35.45743,0 35.05845,48.25373 0,48.25373 M 76.077385,112.35395 c 20.704385,5.52747 41.408765,7.50626 62.113155,0 m -62.113155,48.25373 c 20.704385,-5.89448 41.408765,-7.1769 62.113155,0"
       sodipodi:nodetypes="cccccccc" />
    <circle
       style="opacity:1;fill:none;fill-opacity:0.627451;stroke:#00b580;stroke-width:1.5;stroke-miterlimit:4;stroke-dasharray:4.50001, 4.50001;stroke-dashoffset:0;stroke-opacity:1"
       id="path5291"
       cx="76.242981"
       cy="136.83566"
       r="10.64468" />
    <circle
       style="opacity:1;fill:none;fill-opacity:0.627451;stroke:#00b580;stroke-width:1.5;stroke-miterlimit:4;stroke-dasharray:4.50001, 4.50001;stroke-dashoffset:0;stroke-opacity:1"
       id="circle5293"
       cx="138.59039"
       cy="136.83566"
       r="10.64468" />
    <path
       style="fill:none;stroke:#b05a86;stroke-width:1.5;stroke-linecap:butt;stroke-linejoin:miter;stroke-miterlimit:4;stroke-dasharray:none;stroke-opacity:1;marker-end:url(#Arrow1Send)"
       d="M 78.124106,136.62037 H 47.116277"
       id="path6079"
       sodipodi:nodetypes="cc" />
    <path
       style="fill:none;stroke:#b05a86;stroke-width:1.5;stroke-linecap:butt;stroke-linejoin:miter;stroke-miterlimit:4;stroke-dasharray:none;stroke-opacity:1;marker-end:url(#marker6195)"
       d="m 136.25004,136.62037 h 29.25955"
       id="path6191"
       sodipodi:nodetypes="cc" />
    <path
       style="fill:none;stroke:#b05a86;stroke-width:1.5;stroke-linecap:butt;stroke-linejoin:miter;stroke-miterlimit:4;stroke-dasharray:none;stroke-opacity:1;marker-end:url(#marker6335)"
       d="M 78.124106,136.62037 C 66.899342,125.36171 64.953547,124.86165 47.116277,121.33954"
       id="path6331"
       sodipodi:nodetypes="cc" />
    <path
       style="fill:none;stroke:#b05a86;stroke-width:1.5;stroke-linecap:butt;stroke-linejoin:miter;stroke-miterlimit:4;stroke-dasharray:none;stroke-opacity:1;marker-end:url(#marker6487)"
       d="M 78.124106,136.62037 C 66.899342,147.87903 64.953547,148.37909 47.116277,151.9012"
       id="path6483"
       sodipodi:nodetypes="cc" />
    <path
       style="fill:none;stroke:#b05a86;stroke-width:1.5;stroke-linecap:butt;stroke-linejoin:miter;stroke-miterlimit:4;stroke-dasharray:none;stroke-opacity:1;marker-end:url(#marker6649)"
       d="M 78.124106,136.62037 C 76.077385,160.60768 62.8728,171.33342 45.03553,174.85553"
       id="path6645"
       sodipodi:nodetypes="cc" />
    <path
       style="fill:none;stroke:#b05a86;stroke-width:1.5;stroke-linecap:butt;stroke-linejoin:miter;stroke-miterlimit:4;stroke-dasharray:none;stroke-opacity:1;marker-end:url(#marker6889)"
       d="M 78.124106,136.62037 C 76.077385,112.63306 62.8728,101.90732 45.03553,98.38521"
       id="path6885"
       sodipodi:nodetypes="cc" />
    <path
       style="fill:none;stroke:#b05a86;stroke-width:1.5;stroke-linecap:butt;stroke-linejoin:miter;stroke-miterlimit:4;stroke-dasharray:none;stroke-opacity:1;marker-end:url(#marker7145)"
       d="m 136.25004,136.62037 c 11.22476,-11.25866 13.17056,-11.75872 31.00783,-15.28083"
       id="path7105"
       sodipodi:nodetypes="cc" />
    <path
       style="fill:none;stroke:#b05a86;stroke-width:1.5;stroke-linecap:butt;stroke-linejoin:miter;stroke-miterlimit:4;stroke-dasharray:none;stroke-opacity:1;marker-end:url(#marker7135)"
       d="m 136.25004,136.62037 c 11.22476,11.25866 13.17056,11.75872 31.00783,15.28083"
       id="path7107"
       sodipodi:nodetypes="cc" />
    <path
       style="fill:none;stroke:#b05a86;stroke-width:1.5;stroke-linecap:butt;stroke-linejoin:miter;stroke-miterlimit:4;stroke-dasharray:none;stroke-opacity:1;marker-end:url(#marker7125)"
       d="m 136.25004,136.62037 c 2.04672,23.98731 15.25131,34.71305 33.08858,38.23516"
       id="path7109"
       sodipodi:nodetypes="cc" />
    <path
       style="fill:none;stroke:#b05a86;stroke-width:1.5;stroke-linecap:butt;stroke-linejoin:miter;stroke-miterlimit:4;stroke-dasharray:none;stroke-opacity:1;marker-end:url(#marker7115)"
       d="m 136.25004,136.62037 c 2.04672,-23.98731 15.25131,-34.71305 33.08858,-38.23516"
       id="path7111"
       sodipodi:nodetypes="cc" />
    <path
       style="fill:none;stroke:#b05a86;stroke-width:1.5;stroke-linecap:butt;stroke-linejoin:miter;stroke-miterlimit:4;stroke-dasharray:none;stroke-opacity:1;marker-end:url(#marker7385)"
       d="m 78.124106,136.62037 c 13.388838,-8.03201 24.888564,-17.38639 23.913164,-35.47336"
       id="path7381"
       sodipodi:nodetypes="cc" />
    <path
       style="fill:none;stroke:#b05a86;stroke-width:1.5;stroke-linecap:butt;stroke-linejoin:miter;stroke-miterlimit:4;stroke-dasharray:none;stroke-opacity:1;marker-end:url(#marker7591)"
       d="m 78.124106,136.62037 c 13.388838,8.03201 24.888564,17.38639 23.913164,35.47336"
       id="path7587"
       sodipodi:nodetypes="cc" />
    <path
       style="fill:none;stroke:#b05a86;stroke-width:1.5;stroke-linecap:butt;stroke-linejoin:miter;stroke-miterlimit:4;stroke-dasharray:none;stroke-opacity:1;marker-end:url(#marker7823)"
       d="M 136.25004,136.62037 C 122.8612,128.58836 111.36148,119.23398 112.33688,101.14701"
       id="path7807"
       sodipodi:nodetypes="cc" />
    <path
       style="fill:none;stroke:#b05a86;stroke-width:1.5;stroke-linecap:butt;stroke-linejoin:miter;stroke-miterlimit:4;stroke-dasharray:none;stroke-opacity:1;marker-end:url(#marker7813)"
       d="m 136.25004,136.62037 c -13.38884,8.03201 -24.88856,17.38639 -23.91316,35.47336"
       id="path7809"
       sodipodi:nodetypes="cc" />
  </g>
</svg>
