size,duration,comparisons,exchanges
2,1200615,5,0
4,26808,10,0
8,39234,19,0
16,65780,37,0
32,116667,73,0
64,192787,160,0
128,348582,313,0
256,670133,639,0
512,916158,1277,0
1024,1351279,2551,0
2048,4496662,5115,0
4096,6821093,10233,0
8192,15067351,20474,0
16384,32394102,40957,0
32768,62637677,81919,0
65536,95210923,163839,0
