size,duration,comparisons,exchanges
2,1118959,4,1
4,32717,17,3
8,50716,46,5
16,134583,105,16
32,326744,316,42
64,542455,692,103
128,475505,1710,215
256,721431,3912,503
512,1932525,9384,1111
1024,2381528,19983,2440
2048,3399520,45557,5408
4096,8669244,110168,11548
8192,18661288,226006,24989
16384,29706434,465923,54764
32768,47473769,981009,117834
65536,65110200,2325022,246037
