Time (s),Fᵧ (N),aᵧ (m/s²)
0.009999999776482582,-0.012622418813407421,0
0.019999999552965164,-0.005007495637983084,0
0.029999999329447746,0.002441585762426257,0
0.03999999910593033,-0.005062776152044535,0
0.05000000074505806,-0.012622418813407421,0
0.05999999865889549,-0.005062776152044535,0
0.07000000029802322,-0.012622418813407421,0
0.07999999821186066,-0.012401295825839043,0
0.09000000357627869,-0.005283899139612913,0
0.10000000149011612,-0.012622418813407421,0
0.10999999940395355,-0.012318374589085579,0
0.11999999731779099,-0.005366820376366377,0
0.12999999523162842,-0.012622418813407421,0
0.14000000059604645,-0.012622418813407421,0
0.15000000596046448,-0.012622418813407421,0
0.1599999964237213,-0.012622417882084846,0
0.17000000178813934,-0.012622418813407421,0
0.18000000715255737,-0.012622418813407421,0
0.1899999976158142,-0.012622418813407421,0
0.20000000298023224,-0.012622418813407421,0
0.20999999344348907,-0.012622418813407421,0
0.2199999988079071,-0.012622417882084846,0
0.23000000417232513,-0.011986689642071724,0
0.23999999463558197,-0.005698504392057657,0
0.25,-0.005062776617705822,0
0.25999999046325684,-0.012622418813407421,0
0.27000001072883606,-0.012622418813407421,0
0.2800000011920929,-0.012622418813407421,0
0.28999999165534973,-0.012622417882084846,0
0.30000001192092896,-0.012622418813407421,0
0.3100000023841858,-0.012622418813407421,0
0.3199999928474426,-0.012622418813407421,0
0.33000001311302185,-0.012622418813407421,0
0.3400000035762787,-0.012622418813407421,0
0.3499999940395355,-0.005062776617705822,0
0.36000001430511475,-0.012622417882084846,0
0.3700000047683716,-0.012622418813407421,0
0.3799999952316284,-0.012622418813407421,0
0.38999998569488525,-0.005062776152044535,0
0.4000000059604645,-0.012622418813407421,0
0.4099999964237213,-0.012622418813407421,0
0.41999998688697815,-0.005062776152044535,0
0.4300000071525574,-0.012622418813407421,0
0.4399999976158142,-0.012622418813407421,0
0.44999998807907104,-0.012622418813407421,0
0.46000000834465027,-0.012622418813407421,0
0.4699999988079071,-0.012622418813407421,0
0.47999998927116394,-0.012622418813407421,0
0.49000000953674316,-0.003708397736772895,0
0.5,-0.006417154334485531,0
0.5099999904632568,-0.012622418813407421,0
0.5199999809265137,-0.012622418813407421,0
0.5299999713897705,-0.012622418813407421,0
0.5400000214576721,-0.012622418813407421,0
0.550000011920929,-0.012622417882084846,0
0.5600000023841858,-0.012622417882084846,0
0.5699999928474426,-0.012622418813407421,0
0.5799999833106995,-0.012622418813407421,0
0.5899999737739563,-0.012622418813407421,0
0.6000000238418579,-0.012622418813407421,0
0.6100000143051147,-0.012622418813407421,0
0.6200000047683716,-0.012622417882084846,0
0.6299999952316284,-0.012622418813407421,0
0.6399999856948853,-0.012622418813407421,0
0.6499999761581421,-0.012622418813407421,0
0.6600000262260437,-0.012622418813407421,0
0.6700000166893005,-0.012622418813407421,0
0.6800000071525574,-0.010742873884737492,0
0.6899999976158142,-0.0069423215463757515,0
0.699999988079071,-0.012622418813407421,0
0.7099999785423279,-0.012622418813407421,0
0.7200000286102295,-0.012622418813407421,0
0.7300000190734863,-0.010604671202600002,0
0.7400000095367432,-0.007080523297190666,0
0.75,-0.012622417882084846,0
0.7599999904632568,-0.012622418813407421,0
0.7699999809265137,-0.010494109243154526,0
0.7799999713897705,-0.007191085256636143,0
0.7900000214576721,-0.012622418813407421,0
0.800000011920929,-0.010411188937723637,0
0.8100000023841858,-0.0072740064933896065,0
0.8199999928474426,-0.005062775686383247,0
0.8299999833106995,-0.002768624806776643,0
0.8399999737739563,-0.007356927264481783,0
0.8500000238418579,-0.012622418813407421,0
0.8600000143051147,-0.012622418813407421,0
0.8700000047683716,-0.012622418813407421,0
0.8799999952316284,-0.012622417882084846,0
0.8899999856948853,-0.012622417882084846,0
0.8999999761581421,-0.012622418813407421,0
0.9100000262260437,-0.012622418813407421,0
0.9200000166893005,-0.012622418813407421,0
0.9300000071525574,-0.012622418813407421,0
0.9399999976158142,-0.012622418813407421,0
0.949999988079071,-0.012622417882084846,0
0.9599999785423279,-0.012622418813407421,0
0.9700000286102295,-0.005062776152044535,0
0.9800000190734863,-0.012622418813407421,0
0.9900000095367432,-0.012622418813407421,0
1,-0.009858381003141403,0
1.0099999904632568,-0.007826813496649265,0
1.0199999809265137,-0.012622417882084846,0
1.0299999713897705,-0.005062776152044535,0
1.0399999618530273,-0.012622418813407421,0
1.0499999523162842,-0.012622418813407421,0
1.059999942779541,-0.012622418813407421,0
1.0700000524520874,-0.012622418813407421,0
1.0800000429153442,-0.012622418813407421,0
1.090000033378601,-0.012622418813407421,0
1.100000023841858,-0.012622418813407421,0
1.1100000143051147,-0.012622418813407421,0
1.1200000047683716,-0.012622418813407421,0
1.1299999952316284,-0.012622418813407421,0
1.1399999856948853,-0.012622418813407421,0
1.149999976158142,-0.012622418813407421,0
1.159999966621399,-0.012622418813407421,0
1.1699999570846558,-0.012622418813407421,0
1.1799999475479126,-0.012622418813407421,0
1.190000057220459,-0.009333213791251183,0
1.2000000476837158,-0.0007923379889689386,0
1.2100000381469727,-0.012622418813407421,0
1.2200000286102295,-0.009250292554497719,0
1.2300000190734863,-0.00843490194529295,0
1.2400000095367432,-0.005062776152044535,0
1.25,-0.005062776152044535,0
1.2599999904632568,-0.012622418813407421,0
1.2699999809265137,-0.012622418813407421,0
1.2799999713897705,-0.012622418813407421,0
1.2899999618530273,-0.012622418813407421,0
1.2999999523162842,-0.00902916956692934,0
1.309999942779541,-0.0010963822714984417,0
1.3200000524520874,-0.012622418813407421,0
1.3300000429153442,-0.012622418813407421,0
1.340000033378601,-0.012622418813407421,0
1.350000023841858,-0.012622418813407421,0
1.3600000143051147,-0.012622418813407421,0
1.3700000047683716,-0.012622418813407421,0
1.3799999952316284,-0.012622418813407421,0
1.3899999856948853,-0.005062776152044535,0
1.399999976158142,-0.008752766065299511,0
1.409999966621399,-0.008932428434491158,0
1.4199999570846558,-0.012622418813407421,0
1.4299999475479126,-0.012622418813407421,0
1.440000057220459,-0.005062776152044535,0
1.4500000476837158,-0.005062776152044535,0
1.4600000381469727,-0.012622418813407421,0
1.4700000286102295,-0.012622418813407421,0
1.4800000190734863,-0.012622418813407421,0
1.4900000095367432,-0.012622418813407421,0
1.5,-0.012622418813407421,0
1.5099999904632568,-0.008448721840977669,0
1.5199999809265137,-0.005035135429352522,0
1.5299999713897705,0.002524506999179721,0
1.5399999618530273,-0.00929175317287445,0
1.5499999523162842,-0.012622417882084846,0
1.559999942779541,-0.012622418813407421,0
1.5700000524520874,-0.012622418813407421,0
1.5800000429153442,-0.012622418813407421,0
1.590000033378601,-0.012622418813407421,0
1.600000023841858,-0.0006403159350156784,0
1.6100000143051147,0.01453424897044897,0
1.6200000047683716,0.02214917354285717,0
1.6299999952316284,0.02831297740340233,0
1.6399999856948853,0.017671432346105576,0
1.649999976158142,0.013110770843923092,0
1.659999966621399,-0.005035135895013809,0
1.6699999570846558,-0.005035135895013809,0
1.6799999475479126,-0.005035135429352522,0
1.690000057220459,-0.00970635935664177,0
1.7000000476837158,-0.04183829948306084,0
1.7100000381469727,-0.0845288559794426,0
1.7200000286102295,-0.13571882247924805,0
1.7300000190734863,-0.13182152807712555,-1.2111524213013689e-14
1.7400000095367432,-0.101472407579422,-0.09090909361839294
1.75,-0.07112327218055725,-0.2545454502105713
1.7599999904632568,-0.067792609333992,-0.5636363625526428
1.7699999809265137,-0.11059372872114182,-0.8909090757369995
1.7799999713897705,-0.18107669055461884,-1.3090908527374268
1.7899999618530273,-0.2569495141506195,-1.600000023841858
1.7999999523162842,-0.3153121769428253,-1.9454543590545654
1.809999942779541,-0.3432704210281372,-2.127272844314575
1.8200000524520874,-0.3408242464065552,-2.236363649368286
1.8300000429153442,-0.3307078778743744,-2.1636364459991455
1.840000033378601,-0.3586108386516571,-2.090909242630005
1.850000023841858,-0.42442256212234497,-2
1.8600000143051147,-0.5226702690124512,-1.89090895652771
1.8700000047683716,-0.510439395904541,-1.9636363983154297
1.8799999952316284,-0.530036449432373,-2.109090805053711
1.8899999856948853,-0.5247571468353271,-2.418181896209717
1.899999976158142,-0.5328419208526611,-2.581818103790283
1.909999966621399,-0.5094996094703674,-2.890909194946289
1.9199999570846558,-0.5079379081726074,-3.0363638401031494
1.9299999475479126,-0.5147236585617065,-3.10909104347229
1.940000057220459,-0.5253928303718567,-3
1.9500000476837158,-0.5222280025482178,-2.8181819915771484
1.9600000381469727,-0.6054531931877136,-2.672727346420288
1.9700000286102295,-0.5534478425979614,-2.454545497894287
1.9800000190734863,-0.541949450969696,-2.2727272510528564
1.9900000095367432,-0.4954030215740204,-2.1454546451568604
2,-0.3506503999233246,-2.090909242630005
2.009999990463257,-0.4305587112903595,-2.018181800842285
2.0199999809265137,-0.43270087242126465,-2.0363636016845703
2.0299999713897705,-0.45354169607162476,-2.1454544067382812
2.0399999618530273,-0.41603371500968933,-2.1454546451568604
2.049999952316284,-0.49156102538108826,-2.236363649368286
2.059999942779541,-0.4934958517551422,-2.018181800842285
2.069999933242798,-0.5144334435462952,-1.9090909957885742
2.0799999237060547,-0.47829362750053406,-1.6363636255264282
2.0899999141693115,-0.4706234633922577,-1.4181817770004272
2.0999999046325684,-0.40774160623550415,-1.1636364459991455
2.109999895095825,-0.2800292372703552,-0.8909090757369995
2.119999885559082,-0.1534224897623062,-0.6181818842887878
2.130000114440918,-0.08586940914392471,-0.3636363446712494
2.140000104904175,-0.04626075550913811,-0.16363635659217834
2.1500000953674316,-0.05641859397292137,0.1454545557498932
2.1600000858306885,-0.06562283635139465,0.1454545557498932
2.1700000762939453,-0.036945950239896774,0.3272727429866791
2.180000066757202,-0.050475914031267166,0.2909091114997864
2.190000057220459,-0.03686302900314331,0.34545454382896423
2.200000047683716,-0.021688463166356087,0.2909091114997864
2.2100000381469727,-0.01873094215989113,0.30909091234207153
2.2200000286102295,-0.014073538593947887,0.20000000298023224
2.2300000190734863,-0.024950027465820312,0.16363635659217834
2.240000009536743,-0.03672482818365097,0.09090909361839294
2.25,-0.021550260484218597,0.09090909361839294
2.259999990463257,-0.012622418813407421,0.1818181723356247
2.2699999809265137,-0.012622418813407421,0.2545454502105713
2.2799999713897705,-0.020182061940431595,0.30909091234207153
2.2899999618530273,-0.020182061940431595,0.2545454502105713
2.299999952316284,-0.005062776152044535,0.27272728085517883
2.309999942779541,-0.026566989719867706,0.16363637149333954
2.319999933242798,-0.020209703594446182,0.1454545557498932
2.3299999237060547,-0.014888930134475231,0.20000000298023224
2.3399999141693115,-0.011502983048558235,0.30909091234207153
2.3499999046325684,-0.012622418813407421,0.2909091114997864
2.359999895095825,-0.019145548343658447,0.34545454382896423
2.369999885559082,-0.03532898798584938,0.45454543828964233
2.380000114440918,-0.01363129261881113,0.5272727608680725
2.390000104904175,0.0005896803340874612,0.4727272391319275
2.4000000953674316,-0.009789280593395233,0.47272729873657227
2.4100000858306885,-0.03443067520856857,0.5272727012634277
2.4200000762939453,-0.057164885103702545,0.34545454382896423
2.430000066757202,-0.015234434977173805,0.2181818187236786
2.440000057220459,-0.012622418813407421,0.2545454502105713
2.450000047683716,-0.012622418813407421,0.27272728085517883
2.4600000381469727,-0.012622418813407421,0.16363637149333954
2.4700000286102295,-0.027009235695004463,0.12727275490760803
2.4800000190734863,-0.020914532244205475,0.18181820213794708
2.490000009536743,-0.01950487308204174,0.12727272510528564
2.5,-0.020209701731801033,0.05454545468091965
2.509999990463257,0.0006035004043951631,0.16363635659217834
2.5199999809265137,-0.010784334503114223,0.2545454502105713
2.5299999713897705,-0.006223671603947878,0.2181818187236786
2.5399999618530273,-0.012055790983140469,0.34545454382896423
2.549999952316284,-0.027230359613895416,0.34545454382896423
2.559999942779541,-0.020693408325314522,0.3272727429866791
2.569999933242798,-0.019725995138287544,0.47272729873657227
2.5799999237060547,-0.013078485615551472,0.7454545497894287
2.5899999141693115,-0.005062776152044535,1.0181818008422852
2.5999999046325684,-0.012622418813407421,1.2727272510528564
2.609999895095825,-0.13254019618034363,1.4909090995788574
2.619999885559082,0.023185687139630318,1.5818182229995728
2.630000114440918,-0.0041091833263635635,1.4727272987365723
2.640000104904175,-0.005325359757989645,1.1818182468414307
2.6500000953674316,-0.01235983520746231,1.0181818008422852
2.6600000858306885,-0.034679438918828964,0.7636364102363586
2.6700000762939453,-0.020803971216082573,0.4909090995788574
2.680000066757202,-0.034997303038835526,0.30909091234207153
2.690000057220459,-0.012926463037729263,0.34545454382896423
2.700000047683716,-0.020085319876670837,0.418181836605072
2.7100000381469727,-0.020278804004192352,0.45454543828964233
2.7200000286102295,-0.0806177482008934,0.5818182229995728
2.7300000190734863,-0.06555373966693878,0.6000000238418579
2.740000009536743,-0.02779698558151722,0.4909090995788574
2.75,-0.020154420286417007,0.23636367917060852
2.759999990463257,-0.012691519223153591,0.12727272510528564
2.7699999809265137,-0.020209703594446182,0.0727272778749466
2.7799999713897705,-0.03644842281937599,0.09090909361839294
2.7899999618530273,-0.16348358988761902,0.09090909361839294
2.799999952316284,-0.06444812566041946,0.1818181723356247
2.809999942779541,-0.005035135895013809,0.27272728085517883
2.819999933242798,-0.013064665719866753,0.34545454382896423
2.8299999237060547,-0.019421951845288277,0.3818182051181793
2.8399999141693115,0.0013912513386458158,0.3818182051181793
2.8499999046325684,-0.03503876551985741,0.43636369705200195
2.859999895095825,-0.02776934579014778,0.3454545736312866
2.869999885559082,-0.03532898798584938,0.23636364936828613
2.880000114440918,-0.020209701731801033,0.12727272510528564
2.890000104904175,-0.011793208308517933,0.1090909093618393
2.9000000953674316,-0.005491201765835285,0.0727272778749466
2.9100000858306885,-0.005062776152044535,0.01818181946873665
2.9200000762939453,-0.020182061940431595,0.0363636389374733
2.930000066757202,-0.012622418813407421,0.12727272510528564
2.940000057220459,-0.012622418813407421,0.20000000298023224
2.950000047683716,-0.012622418813407421,0.2545454800128937
2.9600000381469727,-0.021425878629088402,0.4000000059604645
2.9700000286102295,-0.04226672276854515,0.4363636374473572
2.9800000190734863,-0.020209701731801033,0.4363636374473572
2.990000009536743,-0.03462415561079979,0.2909091114997864
3,-0.020182061940431595,0.2181818187236786
3.009999990463257,-0.020942172035574913,0.21818184852600098
3.0199999809265137,-0.02776934579014778,0.1818181723356247
3.0299999713897705,-0.026953954249620438,0.2181818187236786
3.0399999618530273,-0.012622418813407421,0.3272727429866791
3.049999952316284,-0.013493090867996216,0.4000000059604645
3.059999942779541,-0.03443067893385887,0.4363636374473572
3.069999933242798,-0.012622418813407421,0.4363636374473572
3.0799999237060547,-0.012622418813407421,0.4000000059604645
3.0899999141693115,-0.020182061940431595,0.4363636374473572
3.0999999046325684,-0.021190935745835304,0.34545454382896423
3.109999895095825,-0.026732832193374634,0.2181818187236786
3.119999885559082,-0.02124621719121933,0.16363637149333954
3.130000114440918,-0.02776934579014778,0.09090909361839294
3.140000104904175,-0.01909026689827442,-8.074096946586451e-14
3.1500000953674316,-0.012622418813407421,-2.260817807920798e-13
3.1600000858306885,-0.012622417882084846,-1.9378437385569186e-13
3.1700000762939453,-0.012622418813407421,0.09090909361839294
3.180000066757202,-0.027741704136133194,0.16363637149333954
3.190000057220459,-0.013880056329071522,0.2181818187236786
3.200000047683716,-0.02776934579014778,0.2545454502105713
3.2100000381469727,-0.018896784633398056,0.3636363446712494
3.2200000286102295,-0.012622417882084846,0.34545454382896423
3.2300000190734863,-0.012622417882084846,0.30909091234207153
3.240000009536743,-0.021577900275588036,0.2545454502105713
3.25,-0.020209703594446182,0.27272728085517883
3.259999990463257,-0.020209701731801033,0.16363637149333954
3.2699999809265137,-0.026290586218237877,0.12727272510528564
3.2799999713897705,-0.012622418813407421,0.16363637149333954
3.2899999618530273,-0.021716102957725525,0.18181820213794708
3.299999952316284,-0.02776934579014778,0.09090908616781235
3.309999942779541,-0.033739667385816574,0.09090908616781235
3.319999933242798,-0.014239381067454815,0.09090909361839294
3.3299999237060547,-0.02776934579014778,0.09090909361839294
3.3399999141693115,-0.02776934579014778,0.0727272778749466
3.3499999046325684,-0.018509820103645325,0.12727272510528564
3.359999895095825,-0.02190958522260189,0.16363635659217834
3.369999885559082,-0.026014182716608047,0.1818181723356247
3.380000114440918,-0.021964866667985916,0.1818181872367859
3.390000104904175,-0.020209701731801033,0.27272728085517883
3.4000000953674316,-0.02204778790473938,0.3454545736312866
3.4100000858306885,-0.0240655355155468,0.2909091114997864
3.4200000762939453,-0.020182061940431595,0.30909091234207153
3.430000066757202,-0.012622418813407421,0.2909091114997864
3.440000057220459,-0.018233416602015495,0.23636364936828613
3.450000047683716,-0.01457106601446867,0.16363637149333954
3.4600000381469727,-0.01462634652853012,0.27272728085517883
3.4700000286102295,-0.020209701731801033,0.2545454502105713
3.4800000190734863,-0.020209703594446182,0.30909091234207153
3.490000009536743,-0.01056321058422327,0.23636364936828613
3.5,-0.012622418813407421,0.23636361956596375
3.509999990463257,-0.020182061940431595,0.2181818187236786
3.5199999809265137,-0.012622418813407421,0.18181820213794708
3.5299999713897705,-0.012622418813407421,0.12727272510528564
3.5399999618530273,-0.012622418813407421,0.2545454800128937
3.549999952316284,-0.02243475243449211,0.2545454800128937
3.559999942779541,-0.02776934579014778,0.21818184852600098
3.569999933242798,-0.02546137385070324,0.2545454502105713
3.5799999237060547,-0.012622418813407421,0.27272728085517883
3.5899999141693115,-0.022545315325260162,0.27272728085517883
3.5999999046325684,-0.020209701731801033,0.2545454800128937
3.609999895095825,-0.01779117062687874,0.2181818187236786
3.619999885559082,-0.020182061940431595,0.16363637149333954
3.630000114440918,-0.025129688903689384,0.09090909361839294
3.640000104904175,-0.025295531377196312,-4.844735723708027e-14
3.6500000953674316,-0.032799892127513885,-2.260817807920798e-13
3.6600000858306885,-0.022738797590136528,-1.6148698047183108e-13
3.6700000762939453,-0.01762532629072666,0.09090909361839294
3.680000066757202,-0.020182061940431595,0.16363637149333954
3.690000057220459,-0.022821718826889992,0.2181818187236786
3.700000047683716,-0.020209701731801033,0.2545454502105713
3.7100000381469727,-0.020209701731801033,0.27272728085517883
3.7200000286102295,-0.02776934579014778,0.1818181723356247
3.7300000190734863,-0.017459485679864883,0.1818181872367859
3.740000009536743,-0.020182063803076744,0.2545454502105713
3.75,-0.018233414739370346,0.3818182051181793
3.759999990463257,-0.029690351337194443,0.5454545617103577
3.7699999809265137,-0.015483197756111622,0.8181818127632141
3.7799999713897705,-0.02776934579014778,1.1818182468414307
3.7899999618530273,-0.020209701731801033,1.4363635778427124
3.799999952316284,-0.030713045969605446,1.7636363506317139
3.809999942779541,-0.03832796961069107,2.127272844314575
3.819999933242798,-0.039944931864738464,2.3090908527374268
3.8299999237060547,-0.03988964855670929,2.2909090518951416
3.8399999141693115,-0.03838324919342995,2.345454454421997
3.8499999046325684,-0.03535662963986397,2.2727272510528564
3.859999895095825,-0.04291627183556557,2.090909004211426
3.869999885559082,-0.03977908939123154,1.9090907573699951
3.880000114440918,-0.03532898798584938,1.7454545497894287
3.890000104904175,-0.038521453738212585,1.6181819438934326
3.9000000953674316,-0.03535662963986397,1.327272653579712
3.9100000858306885,-0.04291627183556557,1.1818181276321411
3.9200000762939453,-0.0396408848464489,1.1090909242630005
3.930000066757202,-0.02776934579014778,1.0181818008422852
3.940000057220459,-0.024438681080937386,0.9090908765792847
3.950000047683716,-0.020182061940431595,0.9090908765792847
3.9600000381469727,-0.020182061940431595,0.7454545497894287
3.9700000286102295,-0.020182061940431595,0.5272727608680725
3.9800000190734863,-0.020182061940431595,0.27272725105285645
3.990000009536743,-0.012622418813407421,-1.7880267932923744e-8
4,-0.020182063803076744,-0.1818181723356247
4.010000228881836,-0.020182061940431595,-0.2727273106575012
4.019999980926514,-0.012622417882084846,-0.27272728085517883
4.03000020980835,-0.023761490359902382,-0.27272728085517883
4.039999961853027,-0.016602633520960808,-0.2545454502105713
4.050000190734863,-0.012622418813407421,-0.20000000298023224
4.059999942779541,-0.012622418813407421,-0.20000000298023224
4.070000171661377,-0.016312409192323685,-0.2545454502105713
4.079999923706055,-0.01277444139122963,-0.2727273106575012
4.090000152587891,-0.008780406787991524,-0.3636363744735718
4.099999904632568,-0.012622418813407421,-0.34545454382896423
4.110000133514404,-0.020182061940431595,-0.3272727429866791
4.119999885559082,-0.020182061940431595,-0.20000000298023224
4.130000114440918,-0.016478251665830612,-0.05454545468091965
4.139999866485596,-0.023885874077677727,0.1090909093618393
4.150000095367432,-0.020182061940431595,0.09090909361839294
4.159999847412109,-0.016561172902584076,0.1818181872367859
4.170000076293945,-0.020209703594446182,0.16363635659217834
4.179999828338623,-0.023775311186909676,0.12727272510528564
4.190000057220459,-0.02420373633503914,0.0727272778749466
4.199999809265137,-0.02372002974152565,3.2943092698189957e-13
4.210000038146973,-0.012622418813407421,-0.0727272778749466
4.21999979019165,-0.016727013513445854,-0.12727272510528564
4.230000019073486,-0.016077466309070587,-0.16363635659217834
4.239999771118164,-0.012622418813407421,-0.1818181723356247
4.25,-0.024369580671191216,-0.1818181872367859
4.260000228881836,-0.015994545072317123,-0.27272728085517883
4.269999980926514,-0.012622418813407421,-0.2545454800128937
4.28000020980835,-0.012622418813407421,-0.2181818187236786
4.289999961853027,-0.012622418813407421,-0.16363637149333954
4.300000190734863,-0.020182061940431595,-0.09090909361839294
4.309999942779541,-0.016975779086351395,-4.279354648417666e-13
4.320000171661377,-0.015828702598810196,0
4.329999923706055,-0.012622418813407421,0
4.340000152587891,-0.012622418813407421,0
4.349999904632568,-0.012622417882084846,0
4.360000133514404,-0.012622418813407421,0
4.369999885559082,-0.020182061940431595,0
4.380000114440918,-0.012622418813407421,0
4.389999866485596,-0.012622418813407421,0
4.400000095367432,-0.017224542796611786,0
4.409999847412109,-0.015579938888549805,0
4.420000076293945,-0.012622418813407421,0
4.429999828338623,-0.0173074621707201,0
4.440000057220459,-0.015497017651796341,0
4.449999809265137,-0.012622418813407421,0
4.460000038146973,-0.012622418813407421,0
4.46999979019165,-0.01741802506148815,0
4.480000019073486,-0.015386455692350864,0
4.489999771118164,-0.020182061940431595,0
4.5,-0.020182061940431595,0
4.510000228881836,-0.020182061940431595,0
4.519999980926514,-0.020182063803076744,0
4.53000020980835,-0.020182063803076744,0
4.539999961853027,-0.012622418813407421,0
4.550000190734863,-0.012622417882084846,0
4.559999942779541,-0.017666786909103394,0
4.570000171661377,-0.020209701731801033,0
4.579999923706055,-0.01511005312204361,0
4.590000152587891,-0.020182061940431595,0
4.599999904632568,-0.017777349799871445,0
4.610000133514404,-0.015027130953967571,0
4.619999885559082,-0.012622418813407421,0
4.630000114440918,-0.01786027103662491,0
4.639999866485596,-0.014944210648536682,0
4.650000095367432,-0.012622418813407421,0
4.659999847412109,-0.012622418813407421,0
4.670000076293945,-0.012622418813407421,0
4.679999828338623,-0.020182061940431595,0
4.690000057220459,-0.012622418813407421,0
4.699999809265137,-0.012622418813407421,0
4.710000038146973,-0.018081393092870712,0
4.71999979019165,-0.022282730787992477,0
4.730000019073486,-0.018136674538254738,0
4.739999771118164,-0.020209701731801033,0
4.75,-0.01464016642421484,0
4.760000228881836,-0.012622418813407421,0
4.769999980926514,-0.012622418813407421,0
4.78000020980835,-0.012622418813407421,0
4.789999961853027,-0.012622418813407421,0
4.800000190734863,-0.020182061940431595,0
4.809999942779541,-0.01835779845714569,0
4.820000171661377,-0.022006327286362648,0
4.829999923706055,-0.020182061940431595,0
4.840000152587891,-0.012622418813407421,0
4.849999904632568,-0.012622418813407421,0
4.860000133514404,-0.020182061940431595,0
4.869999885559082,-0.020182061940431595,0
4.880000114440918,-0.020182061940431595,0
4.889999866485596,-0.012622418813407421,0
4.900000095367432,-0.020182061940431595,0
4.909999847412109,-0.012622418813407421,0
4.920000076293945,-0.020182061940431595,0
4.929999828338623,-0.020182061940431595,0
4.940000057220459,-0.020182061940431595,0
4.949999809265137,-0.018744762986898422,0
4.960000038146973,-0.020209701731801033,0
4.96999979019165,-0.014032077975571156,0
4.980000019073486,-0.012622418813407421,0
4.989999771118164,-0.012622418813407421,0
5,-0.012622418813407421,0
5.010000228881836,-0.012622418813407421,0
5.019999980926514,-0.018938245251774788,0
5.03000020980835,-0.020209703594446182,0
5.039999961853027,-0.01383859571069479,0
5.050000190734863,-0.01902116648852825,0
5.059999942779541,-0.021342959254980087,0
5.070000171661377,-0.012622418813407421,0
5.079999923706055,-0.026663731783628464,0
5.090000152587891,-0.02776934579014778,0
5.099999904632568,-0.013672753237187862,0
5.110000133514404,-0.01918700896203518,0
5.119999885559082,-0.02117711491882801,0
5.130000114440918,-0.012622418813407421,0
5.139999866485596,-0.020182061940431595,0
5.150000095367432,-0.012622418813407421,0
5.159999847412109,-0.012622418813407421,0
5.170000076293945,-0.019352851435542107,0
5.179999828338623,-0.020209701731801033,0
5.190000057220459,-0.02776934579014778,0
5.199999809265137,-0.013396349735558033,0
5.210000038146973,-0.012622418813407421,0
5.21999979019165,-0.027050696313381195,0
5.230000019073486,-0.020209701731801033,0
5.239999771118164,-0.020209701731801033,0
5.25,-0.013258147984743118,0
5.260000228881836,-0.012622418813407421,0
5.269999980926514,-0.012622418813407421,0
5.28000020980835,-0.012622418813407421,0
5.289999961853027,-0.012622418813407421,0
5.300000190734863,-0.012622418813407421,0
5.309999942779541,-0.027299460023641586,0
5.320000171661377,-0.013064664788544178,0
5.329999923706055,-0.012622418813407421,0
5.340000152587891,-0.020182061940431595,0
5.349999904632568,-0.020182061940431595,0
5.360000133514404,-0.012622418813407421,0
5.369999885559082,-0.020182061940431595,0
5.380000114440918,-0.012622418813407421,0
5.389999866485596,-0.01996093988418579,0
5.400000095367432,-0.0128435418009758,0
5.409999847412109,-0.020182061940431595,0
5.420000076293945,-0.020043861120939255,0
5.429999828338623,-0.020320264622569084,0
5.440000057220459,-0.020182061940431595,0
5.449999809265137,-0.020182061940431595,0
5.460000038146973,-0.012622418813407421,0
5.46999979019165,-0.020182061940431595,0
