Dial reading (μm),Resistance (kΩ),Δl (μm),\(\T\) (°C),ΔT (°C)
20,9.29,0,85,0
25,9.35,5,84,1
30,9.80,10,83,2
35,10.48,15,81,4
40,11.29,20,78,7
45,12.31,25,76,9
50,13.52,30,74,11
55,15.43,35,70,15
60,17.23,40,67,18
65,19.11,45,64,21
70,21.6,50,61,24
75,24.7,55,58,27
